xof 0302txt 0032
Header {
 1;
 0;
 1;
}
Frame Frm {
   FrameTransformMatrix {
1.000000,0.000000,0.000000,0.000000,
0.000000,1.000000,0.000000,0.000000,
0.000000,0.000000,1.000000,0.000000,
0.000000,0.000000,0.000000,1.000000;;
 }
Mesh object {
 719;
24.681498;-3.916499;-7.999999;,
24.681498;-3.916499;-8.999999;,
24.709499;-4.469497;-8.999999;,
24.681498;-3.916499;-4.999999;,
24.199501;-3.916499;-7.999999;,
24.703501;-3.423499;-7.999999;,
24.703501;-3.423499;-8.999999;,
24.989498;-2.100498;-7.999999;,
24.989498;-2.100498;-8.999999;,
35.658497;-3.423499;-8.999999;,
35.680492;-3.916499;-8.999999;,
35.680492;-3.922498;-8.999999;,
35.533497;-5.176499;-8.999999;,
35.680492;-3.922498;-4.999999;,
35.680492;-3.916499;-7.999999;,
35.680492;-3.916499;-4.999999;,
35.714493;-1.647500;-7.999999;,
35.658497;-3.423499;-7.999999;,
35.371490;-2.100498;-7.999999;,
35.028492;-0.413498;-7.999999;,
35.712498;-1.641499;-8.068999;,
35.705498;-1.625498;-8.135999;,
35.800491;4.659501;-8.130999;,
35.774498;4.640501;-8.258999;,
19.159500;9.689501;-8.257999;,
19.117500;9.637501;-8.433999;,
14.199499;18.837500;-8.430999;,
14.262500;18.871500;-8.258999;,
19.167500;9.699500;-8.222999;,
14.267500;18.873499;-8.221999;,
14.292500;18.887501;-7.999999;,
19.185497;9.720501;-7.999999;,
35.809498;4.665501;-7.999999;,
19.185497;9.720501;8.000001;,
35.809498;4.665501;8.000001;,
35.722496;-1.110499;8.000001;,
35.680492;-3.916499;5.000000;,
35.658497;-3.423499;-4.999999;,
35.658497;-3.423499;5.000000;,
24.703501;-3.423499;5.000000;,
24.989498;-2.100498;5.000000;,
24.989498;-2.100498;-4.999999;,
25.590500;-0.887499;-4.999999;,
25.590500;-0.887499;5.000000;,
26.470499;0.142501;-4.999999;,
26.470499;0.142501;5.000000;,
31.524498;1.416501;5.000000;,
32.787498;0.926501;5.000000;,
33.891499;0.142501;5.000000;,
34.770500;-0.887499;5.000000;,
35.371490;-2.100498;5.000000;,
35.371490;-2.100498;-4.999999;,
24.703501;-3.423499;-4.999999;,
34.770500;-0.887499;-4.999999;,
33.891499;0.142501;-4.999999;,
32.787498;0.926501;-4.999999;,
31.524498;1.416501;-4.999999;,
30.180500;1.582501;5.000000;,
27.574497;0.926501;5.000000;,
28.837500;1.416501;5.000000;,
28.837500;1.416501;-4.999999;,
30.180500;1.582501;-4.999999;,
27.574497;0.926501;-4.999999;,
24.681498;-3.916499;5.000000;,
23.969500;-3.916499;8.000001;,
24.681498;-3.916499;8.000001;,
24.703501;-3.423499;8.000001;,
24.681498;-3.916499;8.999999;,
24.703501;-3.423499;8.999999;,
35.680492;-3.922498;8.999999;,
35.533497;-5.176499;8.999999;,
35.680492;-3.922498;5.000000;,
35.680492;-3.916499;8.000001;,
35.680492;-3.916499;8.999999;,
35.658497;-3.423499;8.999999;,
35.658497;-3.423499;8.000001;,
35.371490;-2.100498;8.000001;,
35.371490;-2.100498;8.999999;,
24.989498;-2.100498;8.999999;,
25.590500;-0.887499;8.999999;,
24.989498;-2.100498;8.000001;,
24.153496;-2.413499;8.000001;,
24.696497;-0.999499;8.000001;,
24.153496;-2.413499;8.999999;,
24.050495;-2.916499;8.999999;,
24.030499;-3.047497;8.991000;,
24.013498;-3.175498;8.966001;,
23.999498;-3.299499;8.923999;,
23.989500;-3.416498;8.866000;,
23.981501;-3.525498;8.794000;,
23.976500;-3.623497;8.707000;,
23.972498;-3.709499;8.609000;,
23.970499;-3.782496;8.499999;,
23.969500;-3.840498;8.383000;,
23.969500;-3.882498;8.259000;,
23.969500;-3.908498;8.130000;,
-24.290497;-3.882498;8.259000;,
-24.290497;-3.840498;8.383000;,
-24.454498;-2.520499;8.000001;,
-24.291498;-3.782496;8.499999;,
-24.293499;-3.710496;8.609000;,
-24.297493;-3.623497;8.707000;,
-24.302498;-3.525498;8.793000;,
-24.310497;-3.416498;8.866000;,
-24.321495;-3.299499;8.923999;,
-24.335497;-3.175498;8.966001;,
-24.353497;-3.047497;8.991000;,
-24.373497;-2.916499;8.999999;,
-24.454498;-2.520499;8.999999;,
-24.983498;-1.112499;8.999999;,
-24.983498;-1.112499;8.000001;,
-25.546495;-1.166498;8.000001;,
-26.420496;-0.027499;8.000001;,
-25.546495;-1.166498;8.999999;,
-26.420496;-0.027499;8.999999;,
-33.059498;0.846501;8.999999;,
-24.997494;-2.493497;8.999999;,
-24.809498;-3.916499;8.999999;,
-24.997494;-2.493497;8.000001;,
-24.809498;-3.916499;8.000001;,
-24.290497;-3.916499;8.000001;,
-24.290497;-3.908498;8.131001;,
-24.075499;-3.916499;-7.999999;,
24.199501;-3.908498;-8.130999;,
24.366499;-2.514499;-7.999999;,
24.199501;-3.882498;-8.258999;,
24.200499;-3.840498;-8.382999;,
24.201494;-3.782496;-8.499999;,
24.203499;-3.710496;-8.608999;,
24.206497;-3.623497;-8.706999;,
24.212498;-3.525498;-8.792999;,
24.220495;-3.416498;-8.865999;,
24.231499;-3.299499;-8.923999;,
24.245501;-3.175498;-8.965999;,
24.263498;-3.047497;-8.990999;,
-24.119497;-3.175498;-8.965999;,
24.283499;-2.916499;-8.999999;,
-24.136497;-3.047497;-8.990999;,
-24.156498;-2.916499;-8.999999;,
24.366499;-2.514499;-8.999999;,
24.903500;-1.102499;-8.999999;,
24.903500;-1.102499;-7.999999;,
25.590500;-0.887499;-7.999999;,
26.470499;0.142501;-7.999999;,
25.590500;-0.887499;-8.999999;,
26.470499;0.142501;-8.999999;,
34.770500;-0.887499;-8.999999;,
27.574497;0.926501;-8.999999;,
28.837500;1.416501;-8.999999;,
30.180500;1.582501;-8.999999;,
31.524498;1.416501;-8.999999;,
32.787498;0.926501;-8.999999;,
33.891499;0.142501;-8.999999;,
34.770500;-0.887499;-7.999999;,
35.371490;-2.100498;-8.999999;,
33.891499;0.142501;-7.999999;,
33.995499;0.689501;-7.999999;,
32.720497;1.498501;-7.999999;,
33.995499;0.689501;-8.999999;,
34.738499;-0.043499;-8.999999;,
34.991497;-0.366498;-8.960999;,
35.028492;-0.413498;-8.954999;,
35.228497;-0.708498;-8.865999;,
35.430496;-1.051498;-8.706999;,
35.585495;-1.354498;-8.499999;,
35.638496;-1.470499;-8.388999;,
35.681496;-1.568499;-8.258999;,
35.732494;4.609501;-8.382999;,
35.673492;4.566501;-8.499999;,
19.089497;9.604501;-8.496999;,
35.600498;4.513501;-8.608999;,
19.035500;9.537500;-8.622999;,
14.094498;18.781498;-8.617999;,
14.174500;18.824499;-8.499999;,
14.069501;18.978498;-8.499999;,
13.948500;18.875500;-8.706999;,
14.034499;18.749500;-8.706999;,
13.956500;18.707500;-8.774999;,
13.791500;18.740499;-8.865999;,
13.837500;18.980497;-8.706999;,
13.712501;18.814501;-8.865999;,
13.607500;18.584499;-8.965999;,
13.567500;18.622499;-8.965999;,
13.410501;18.416500;-8.999999;,
13.519500;18.651501;-8.965999;,
13.466500;18.669498;-8.965999;,
13.410501;18.675499;-8.965999;,
13.410501;18.916500;-8.865999;,
13.517499;18.904499;-8.865999;,
13.410501;19.123501;-8.706999;,
13.562500;19.107498;-8.706999;,
13.620499;18.870501;-8.865999;,
13.706500;19.058500;-8.706999;,
13.596500;19.262501;-8.499999;,
13.773500;19.202499;-8.499999;,
13.933499;19.106501;-8.499999;,
13.815500;19.293501;-8.258999;,
13.994499;19.186501;-8.258999;,
14.145500;19.043499;-8.258999;,
14.014501;19.213499;-7.999999;,
13.829499;19.324497;-7.999999;,
14.014501;19.213499;8.000001;,
13.829499;19.324497;8.000001;,
13.815500;19.293501;8.259000;,
13.617500;19.359499;8.259000;,
13.625500;19.393499;8.000001;,
13.410501;19.382500;8.259000;,
13.410501;19.416498;8.000001;,
-16.794498;19.382500;8.259000;,
-16.794498;19.416498;8.000001;,
-17.216497;19.336498;8.259000;,
-17.224499;19.369499;8.000001;,
-17.619497;19.200499;8.259000;,
-17.634499;19.231501;8.000001;,
-17.984499;18.981499;8.259000;,
-18.004498;19.008501;8.000001;,
-18.296499;18.691498;8.222001;,
-18.318499;18.710499;8.000001;,
-25.933498;9.700500;8.223001;,
-25.949495;9.720501;8.000001;,
-35.809498;4.458501;8.000001;,
-35.801498;4.452501;8.131001;,
-25.925493;9.690500;8.258000;,
-18.292498;18.688499;8.259000;,
-18.238497;18.642500;8.431001;,
-17.923498;18.901501;8.499999;,
-18.216497;18.623499;8.499999;,
-25.886497;9.641500;8.433999;,
-25.860497;9.610500;8.496999;,
-35.675499;4.377501;8.499999;,
-35.733494;4.412500;8.383000;,
-35.731499;-1.300498;8.388999;,
-35.675499;-1.188499;8.499999;,
-35.603497;4.334501;8.609000;,
-35.516499;4.282501;8.707000;,
-25.809498;9.547501;8.623000;,
-18.147499;18.565500;8.618001;,
-18.095499;18.521500;8.707000;,
-17.827497;18.775499;8.707000;,
-17.577497;19.109499;8.499999;,
-17.511497;18.965500;8.707000;,
-17.195498;19.238501;8.499999;,
-17.161497;19.083498;8.707000;,
-16.794498;19.282499;8.499999;,
-16.794498;19.123501;8.707000;,
13.410501;19.282499;8.499999;,
13.410501;19.123501;8.707000;,
13.596500;19.262501;8.499999;,
13.562500;19.107498;8.707000;,
13.773500;19.202499;8.499999;,
13.994499;19.186501;8.259000;,
13.933499;19.106501;8.499999;,
14.145500;19.043499;8.259000;,
14.171500;19.065498;8.000001;,
14.292500;18.887501;8.000001;,
14.171500;19.065498;-7.999999;,
14.262500;18.871500;8.259000;,
19.179501;9.713501;8.131001;,
19.161497;9.691501;8.259000;,
35.774498;4.640501;8.259000;,
35.732494;4.609501;8.383000;,
35.689499;-1.046499;8.259000;,
35.709496;-1.084499;8.165999;,
35.800491;4.659501;8.131001;,
35.720497;-1.106497;8.068000;,
34.943497;0.071501;8.000001;,
34.770500;-0.887499;8.000001;,
33.891499;0.142501;8.000001;,
34.770500;-0.887499;8.999999;,
33.891499;0.142501;8.999999;,
32.787498;0.926501;8.999999;,
31.524498;1.416501;8.999999;,
26.470499;0.142501;8.999999;,
25.590500;-0.887499;8.000001;,
26.470499;0.142501;8.000001;,
25.565498;0.241501;8.000001;,
24.696497;-0.999499;8.999999;,
25.565498;0.241501;8.999999;,
18.497498;8.884501;8.999999;,
13.410501;18.416500;8.999999;,
-16.794498;18.416500;8.999999;,
-17.009499;18.392500;8.999999;,
-17.214495;18.323498;8.999999;,
-17.399498;18.212500;8.999999;,
-17.556498;18.063499;8.999999;,
-25.310497;8.927501;8.999999;,
-17.725498;18.207500;8.971000;,
-25.452496;9.104501;8.975001;,
-34.809502;3.858501;8.999999;,
-35.068497;4.013501;8.966001;,
-34.809502;0.081501;8.999999;,
-34.036499;0.810502;8.999999;,
-32.747501;1.586501;8.999999;,
-32.747501;1.586501;8.000001;,
-34.036499;0.810502;8.000001;,
-34.198498;-0.027499;8.000001;,
-35.072498;-1.166498;8.000001;,
-34.198498;-0.027499;8.999999;,
-35.072498;-1.166498;8.999999;,
-34.198498;-7.805498;8.999999;,
-33.059498;-8.679501;8.999999;,
-31.733498;-9.229500;8.999999;,
-31.733498;-9.229500;8.999999;,
-30.309498;-9.416498;8.999999;,
-33.059498;0.846501;8.999999;,
-28.886496;-9.229500;8.999999;,
-28.886496;-9.229500;8.999999;,
-27.559498;-8.679501;8.999999;,
-26.420496;-7.805498;8.999999;,
-25.546495;-6.666499;8.999999;,
-24.997494;-5.340498;8.999999;,
-24.997494;-5.340498;5.000000;,
-24.809498;-3.916499;5.000000;,
-33.059498;0.846501;5.000000;,
-25.546495;-6.666499;5.000000;,
-26.420496;-7.805498;5.000000;,
-27.559498;-8.679501;5.000000;,
-28.886496;-9.229500;5.000000;,
-33.059498;0.846501;5.000000;,
-28.886496;-9.229500;5.000000;,
-30.309498;-9.416498;5.000000;,
-31.733498;-9.229500;5.000000;,
-31.733498;-9.229500;5.000000;,
-33.059498;-8.679501;5.000000;,
-34.198498;-7.805498;5.000000;,
-34.198498;-0.027499;5.000000;,
-33.059498;0.846501;-4.999999;,
-31.733498;1.395501;-4.999999;,
-31.733498;1.395501;5.000000;,
-27.559498;0.846501;5.000000;,
-26.420496;-0.027499;5.000000;,
-25.546495;-1.166498;5.000000;,
-24.997494;-2.493497;5.000000;,
-24.997494;-2.493497;-4.999999;,
-24.809498;-3.916499;-4.999999;,
-24.809498;-3.916499;-7.999999;,
-24.258497;-2.419498;-7.999999;,
-24.075499;-3.908498;-8.129999;,
-24.075499;-3.882498;-8.258999;,
-24.076496;-3.840498;-8.382999;,
-24.077497;-3.782496;-8.499999;,
-24.079496;-3.709499;-8.608999;,
-24.082499;-3.623497;-8.706999;,
-24.088497;-3.525498;-8.793999;,
-24.095497;-3.416498;-8.865999;,
-24.106499;-3.299499;-8.923999;,
-24.997494;-2.493497;-7.999999;,
-24.997494;-2.493497;-8.999999;,
-25.546495;-1.166498;-8.999999;,
-25.546495;-1.166498;-7.999999;,
-24.794498;-1.010499;-7.999999;,
-25.653498;0.228501;-7.999999;,
-24.794498;-1.010499;-8.999999;,
-24.258497;-2.419498;-8.999999;,
-25.310497;8.927501;-8.999999;,
-17.556498;18.063499;-8.999999;,
-17.399498;18.212500;-8.999999;,
-17.214495;18.323498;-8.999999;,
-17.009499;18.392500;-8.999999;,
-16.794498;18.416500;-8.999999;,
18.497498;8.884501;-8.999999;,
25.776499;0.130501;-8.999999;,
26.931498;1.104502;-8.999999;,
28.292498;1.758501;-8.999999;,
26.931498;1.104502;-7.999999;,
28.292498;1.758501;-7.999999;,
28.837500;1.416501;-7.999999;,
27.574497;0.926501;-7.999999;,
25.776499;0.130501;-7.999999;,
30.180500;1.582501;-7.999999;,
29.774500;2.050501;-7.999999;,
29.774500;2.050501;-8.999999;,
31.282501;1.961501;-8.999999;,
31.282501;1.961501;-7.999999;,
31.524498;1.416501;-7.999999;,
32.787498;0.926501;-7.999999;,
32.720497;1.498501;-8.999999;,
34.798492;3.927501;-8.999999;,
18.650499;9.069501;-8.970999;,
35.059490;4.118501;-8.965999;,
18.675501;9.100500;-8.965999;,
18.794497;9.244500;-8.895000;,
35.303497;4.296501;-8.865999;,
18.841499;9.302501;-8.865999;,
18.922501;9.401501;-8.774999;,
35.512497;4.449501;-8.706999;,
18.983500;9.475500;-8.706999;,
13.851501;18.651501;-8.865999;,
13.791500;18.619497;-8.895000;,
13.639500;18.538500;-8.965999;,
13.606499;18.520500;-8.970999;,
-16.794498;18.675499;-8.965999;,
-17.064499;18.645498;-8.965999;,
-17.116499;18.881500;-8.865999;,
-17.424498;18.777500;-8.865999;,
-17.322495;18.558498;-8.965999;,
-17.702497;18.610498;-8.865999;,
-17.556498;18.418501;-8.965999;,
-17.885498;18.342499;-8.895000;,
-17.753498;18.230499;-8.965999;,
-25.475498;9.132501;-8.965999;,
-25.452496;9.103500;-8.970999;,
-35.068497;4.013501;-8.965999;,
-34.809502;3.858501;-8.999999;,
-34.809502;0.397501;-8.999999;,
-35.009495;0.178501;-8.979999;,
-35.065498;0.108501;-8.958999;,
-35.009495;0.178501;-7.999999;,
-35.309498;-0.193499;-8.865999;,
-35.516499;-0.489500;-8.706999;,
-35.309498;4.158501;-8.865999;,
-25.585497;9.269501;-8.895000;,
-25.629496;9.324500;-8.865999;,
-17.937498;18.387501;-8.865999;,
-25.705498;9.417500;-8.774999;,
-18.028498;18.463499;-8.774999;,
-17.827497;18.775499;-8.706999;,
-18.095499;18.521500;-8.706999;,
-25.762493;9.488501;-8.706999;,
-25.809498;9.547501;-8.622999;,
-35.516499;4.282501;-8.706999;,
-35.603497;4.334501;-8.608999;,
-35.675499;-0.743499;-8.499999;,
-35.675499;4.377501;-8.499999;,
-25.860497;9.610500;-8.496999;,
-25.886497;9.641500;-8.433999;,
-18.238497;18.642500;-8.430999;,
-18.216497;18.623499;-8.499999;,
-18.147499;18.565500;-8.617999;,
-17.923498;18.901501;-8.499999;,
-17.511497;18.965500;-8.706999;,
-17.577497;19.109499;-8.499999;,
-17.161497;19.083498;-8.706999;,
-16.794498;18.916500;-8.865999;,
-16.794498;19.123501;-8.706999;,
-17.195498;19.238501;-8.499999;,
-16.794498;19.282499;-8.499999;,
13.410501;19.282499;-8.499999;,
-16.794498;19.382500;-8.258999;,
13.410501;19.382500;-8.258999;,
13.617500;19.359499;-8.258999;,
13.410501;19.416498;-7.999999;,
13.625500;19.393499;-7.999999;,
-16.794498;19.416498;-7.999999;,
13.410501;19.416498;-7.999999;,
-16.794498;19.416498;-7.999999;,
13.410501;19.416498;8.000001;,
-17.224499;19.369499;-7.999999;,
-17.216497;19.336498;-8.258999;,
-17.634499;19.231501;-7.999999;,
-17.619497;19.200499;-8.258999;,
-18.004498;19.008501;-7.999999;,
-17.984499;18.981499;-8.258999;,
-18.296499;18.691498;-8.221999;,
-18.292498;18.688499;-8.258999;,
-25.933498;9.700500;-8.222999;,
-25.949495;9.720501;-7.999999;,
-18.318499;18.710499;-7.999999;,
-35.801498;4.452501;-8.130999;,
-35.775497;4.437501;-8.258999;,
-35.795494;-0.956499;-8.165999;,
-35.807499;-0.977499;-8.067999;,
-35.809498;-0.982499;-7.999999;,
-35.809498;4.458501;-7.999999;,
-35.809498;-1.470499;8.000001;,
-35.809498;-3.916499;-4.999999;,
-35.809498;-3.916499;5.000000;,
-35.809498;-3.916499;8.000001;,
-35.622501;-2.493497;8.000001;,
-35.091499;-0.260499;8.000001;,
-35.807499;-1.464499;8.069001;,
-35.800499;-1.449498;8.136001;,
-35.775497;4.437501;8.259000;,
-35.775497;-1.395498;8.259000;,
-35.622501;-2.493497;8.999999;,
-35.809498;-3.916499;8.999999;,
-35.622501;-5.340498;8.999999;,
-35.072498;-6.666499;8.999999;,
-35.072498;-6.666499;5.000000;,
-35.072498;-1.166498;5.000000;,
-35.622501;-5.340498;5.000000;,
-35.622501;-2.493497;5.000000;,
-35.072498;-1.166498;-4.999999;,
-34.198498;-0.027499;-4.999999;,
-34.198498;-7.805498;-4.999999;,
-33.059498;-8.679501;-4.999999;,
-31.733498;-9.229500;-4.999999;,
-31.733498;-9.229500;-4.999999;,
-30.309498;-9.416498;-4.999999;,
-33.059498;0.846501;-4.999999;,
-28.886496;-9.229500;-4.999999;,
-28.886496;-9.229500;-4.999999;,
-27.559498;-8.679501;-4.999999;,
-26.420496;-7.805498;-4.999999;,
-25.546495;-6.666499;-4.999999;,
-24.997494;-5.340498;-4.999999;,
-24.997494;-5.340498;-8.999999;,
-24.809498;-3.916499;-8.999999;,
-33.059498;0.846501;-8.999999;,
-25.546495;-6.666499;-8.999999;,
-26.420496;-7.805498;-8.999999;,
-27.559498;-8.679501;-8.999999;,
-28.886496;-9.229500;-8.999999;,
-33.059498;0.846501;-8.999999;,
-28.886496;-9.229500;-8.999999;,
-30.309498;-9.416498;-8.999999;,
-31.733498;-9.229500;-8.999999;,
-31.733498;-9.229500;-8.999999;,
-33.059498;-8.679501;-8.999999;,
-34.198498;-7.805498;-8.999999;,
-34.198498;-0.027499;-8.999999;,
-33.059498;0.846501;-7.999999;,
-34.198498;-0.027499;-7.999999;,
-33.889500;1.187501;-7.999999;,
-31.733498;1.395501;-7.999999;,
-32.558498;1.897501;-7.999999;,
-30.309498;1.583501;-7.999999;,
-31.733498;1.395501;-8.999999;,
-27.559498;0.846501;-8.999999;,
-26.420496;-0.027499;-8.999999;,
-26.420496;-0.027499;-7.999999;,
-27.559498;0.846501;-7.999999;,
-26.785498;1.225502;-7.999999;,
-25.653498;0.228501;-8.999999;,
-26.785498;1.225502;-8.999999;,
-28.123497;1.921502;-8.999999;,
-29.588497;2.275501;-8.999999;,
-31.096497;2.267501;-8.999999;,
-32.558498;1.897501;-8.999999;,
-33.889500;1.187501;-8.999999;,
-31.096497;2.267501;-7.999999;,
-29.588497;2.275501;-7.999999;,
-28.886496;1.395501;-7.999999;,
-30.309498;1.583501;-8.999999;,
-28.886496;1.395501;-8.999999;,
-28.123497;1.921502;-7.999999;,
-35.072498;-1.166498;-7.999999;,
-35.072498;-1.166498;-8.999999;,
-35.622501;-2.493497;-8.999999;,
-35.622501;-2.493497;-7.999999;,
-35.809498;-3.916499;-8.999999;,
-35.809498;-3.916499;-7.999999;,
-35.622501;-5.340498;-8.999999;,
-35.622501;-5.340498;-4.999999;,
-35.622501;-2.493497;-4.999999;,
-35.072498;-6.666499;-4.999999;,
-35.072498;-6.666499;-8.999999;,
-35.775497;-0.919498;-8.258999;,
-35.731499;-0.839499;-8.387999;,
-35.733494;4.412500;-8.382999;,
-25.925493;9.690500;-8.257999;,
-17.725498;18.207500;-8.970999;,
-25.546495;-1.166498;-4.999999;,
-26.420496;-0.027499;-4.999999;,
-27.559498;0.846501;-4.999999;,
-28.886496;1.395501;5.000000;,
-28.886496;1.395501;-4.999999;,
-30.309498;1.583501;-4.999999;,
-30.309498;1.583501;5.000000;,
-33.059498;0.846501;8.000001;,
-31.733498;1.395501;8.999999;,
-27.559498;0.846501;8.999999;,
-28.886496;1.395501;8.999999;,
-30.309498;1.583501;8.999999;,
-31.733498;1.395501;8.000001;,
-30.309498;1.583501;8.000001;,
-29.804495;2.081501;8.000001;,
-31.307497;2.019501;8.000001;,
-31.307497;2.019501;8.999999;,
-29.804495;2.081501;8.999999;,
-28.333496;1.769501;8.999999;,
-26.985495;1.101501;8.999999;,
-25.845497;0.120501;8.999999;,
-25.845497;0.120501;8.000001;,
-26.985495;1.101501;8.000001;,
-27.559498;0.846501;8.000001;,
-28.886496;1.395501;8.000001;,
-28.333496;1.769501;8.000001;,
-35.067501;-0.231499;8.963000;,
-35.091499;-0.260499;8.959001;,
-35.309498;-0.564498;8.866000;,
-35.516499;-0.896499;8.707000;,
-35.309498;4.158501;8.866000;,
-25.708498;9.421500;8.782001;,
-25.759497;9.484501;8.703000;,
-18.028498;18.463499;8.774999;,
-17.937498;18.387501;8.866000;,
-17.702497;18.610498;8.866000;,
-17.885498;18.342499;8.895000;,
-25.627497;9.321501;8.860999;,
-25.587494;9.271501;8.901000;,
-25.474493;9.132501;8.963000;,
-17.753498;18.230499;8.966001;,
-17.556498;18.418501;8.966001;,
-17.322495;18.558498;8.966001;,
-17.424498;18.777500;8.866000;,
-17.116499;18.881500;8.866000;,
-17.064499;18.645498;8.966001;,
-16.794498;18.916500;8.866000;,
-16.794498;18.675499;8.966001;,
13.410501;18.916500;8.866000;,
13.410501;18.675499;8.966001;,
13.517499;18.904499;8.866000;,
13.706500;19.058500;8.707000;,
13.620499;18.870501;8.866000;,
13.837500;18.980497;8.707000;,
14.069501;18.978498;8.499999;,
13.948500;18.875500;8.707000;,
14.174500;18.824499;8.499999;,
19.132500;9.656501;8.383000;,
19.093500;9.608500;8.499999;,
35.673492;4.566501;8.499999;,
35.600498;4.513501;8.609000;,
35.592495;-0.867499;8.499999;,
35.437496;-0.607499;8.707000;,
35.646496;-0.965499;8.388000;,
35.234493;-0.305499;8.866000;,
34.995495;0.003501;8.959001;,
34.943497;0.071501;8.978999;,
34.743496;0.298501;8.999999;,
33.836498;1.105501;8.000001;,
33.836498;1.105501;8.999999;,
32.512497;1.840502;8.999999;,
32.512497;1.840502;8.000001;,
32.787498;0.926501;8.000001;,
31.524498;1.416501;8.000001;,
31.049496;2.233501;8.000001;,
30.180500;1.582501;8.000001;,
30.180500;1.582501;8.999999;,
27.574497;0.926501;8.999999;,
28.837500;1.416501;8.999999;,
28.837500;1.416501;8.000001;,
27.574497;0.926501;8.000001;,
28.059494;1.921502;8.000001;,
26.709496;1.234502;8.000001;,
26.709496;1.234502;8.999999;,
28.059494;1.921502;8.999999;,
29.535498;2.261501;8.999999;,
34.798492;3.927501;8.999999;,
35.059490;4.118501;8.966001;,
18.675501;9.100500;8.966001;,
35.303497;4.296501;8.866000;,
18.841499;9.302501;8.866000;,
13.639500;18.538500;8.966001;,
13.607500;18.584499;8.966001;,
13.567500;18.622499;8.966001;,
13.519500;18.651501;8.966001;,
13.466500;18.669498;8.966001;,
13.712501;18.814501;8.866000;,
13.791500;18.740499;8.866000;,
14.034499;18.749500;8.707000;,
13.851501;18.651501;8.866000;,
18.983500;9.475500;8.707000;,
35.512497;4.449501;8.707000;,
19.043499;9.547501;8.609000;,
31.049496;2.233501;8.999999;,
29.535498;2.261501;8.000001;,
-16.794498;19.416498;8.000001;,
35.533497;-5.176499;5.000000;,
24.709499;-4.469497;5.000000;,
35.380497;-5.708498;5.000000;,
25.009497;-5.787498;5.000000;,
24.709499;-4.469497;8.999999;,
25.009497;-5.787498;8.999999;,
35.380497;-5.708498;8.999999;,
25.621498;-6.991498;8.999999;,
26.508501;-8.010498;8.999999;,
27.617498;-8.782499;8.999999;,
28.880497;-9.260500;8.999999;,
30.222496;-9.416498;8.999999;,
35.380497;-5.708498;8.999999;,
28.880497;-9.260500;8.999999;,
30.222496;-9.416498;5.000000;,
28.880497;-9.260500;5.000000;,
35.380497;-5.708498;5.000000;,
28.880497;-9.260500;5.000000;,
27.617498;-8.782499;5.000000;,
26.508501;-8.010498;5.000000;,
25.621498;-6.991498;5.000000;,
31.561499;-9.240499;5.000000;,
32.817497;-8.742498;5.000000;,
31.561499;-9.240499;5.000000;,
31.561499;-9.240499;8.999999;,
31.561499;-9.240499;8.999999;,
32.817497;-8.742498;8.999999;,
33.914497;-7.954498;8.999999;,
34.786495;-6.922499;8.999999;,
34.786495;-6.922499;5.000000;,
33.914497;-7.954498;5.000000;,
35.533497;-5.176499;-4.999999;,
24.709499;-4.469497;-4.999999;,
35.380497;-5.708498;-4.999999;,
35.380497;-5.708498;-8.999999;,
25.009497;-5.787498;-8.999999;,
25.009497;-5.787498;-4.999999;,
25.621498;-6.991498;-8.999999;,
25.621498;-6.991498;-4.999999;,
26.508501;-8.010498;-4.999999;,
27.617498;-8.782499;-4.999999;,
28.880497;-9.260500;-4.999999;,
30.222496;-9.416498;-4.999999;,
35.380497;-5.708498;-4.999999;,
28.880497;-9.260500;-4.999999;,
30.222496;-9.416498;-8.999999;,
28.880497;-9.260500;-8.999999;,
35.380497;-5.708498;-8.999999;,
28.880497;-9.260500;-8.999999;,
27.617498;-8.782499;-8.999999;,
26.508501;-8.010498;-8.999999;,
31.561499;-9.240499;-8.999999;,
32.817497;-8.742498;-8.999999;,
31.561499;-9.240499;-8.999999;,
31.561499;-9.240499;-4.999999;,
31.561499;-9.240499;-4.999999;,
32.817497;-8.742498;-4.999999;,
33.914497;-7.954498;-4.999999;,
34.786495;-6.922499;-4.999999;,
34.786495;-6.922499;-8.999999;,
33.914497;-7.954498;-8.999999;;

 1378;
3;0,1,2;,
3;2,3,0;,
3;3,4,0;,
3;4,5,0;,
3;0,5,6;,
3;6,5,7;,
3;6,7,8;,
3;8,9,6;,
3;9,10,6;,
3;6,10,11;,
3;6,11,1;,
3;1,11,12;,
3;13,12,11;,
3;14,13,11;,
3;15,13,14;,
3;16,15,14;,
3;14,17,16;,
3;16,17,18;,
3;16,18,19;,
3;20,16,19;,
3;19,21,20;,
3;22,20,21;,
3;22,21,23;,
3;24,22,23;,
3;24,23,25;,
3;25,26,24;,
3;24,26,27;,
3;24,27,28;,
3;27,29,28;,
3;28,29,30;,
3;28,30,31;,
3;31,32,28;,
3;28,32,22;,
3;22,32,16;,
3;31,33,32;,
3;32,33,34;,
3;32,34,15;,
3;15,34,35;,
3;15,35,36;,
3;37,15,36;,
3;38,37,36;,
3;38,36,39;,
3;40,38,39;,
3;39,41,40;,
3;40,41,42;,
3;40,42,43;,
3;43,42,44;,
3;43,44,45;,
3;45,46,43;,
3;43,46,47;,
3;43,47,48;,
3;48,49,43;,
3;43,49,50;,
3;43,50,38;,
3;49,51,50;,
3;50,51,37;,
3;52,37,51;,
3;52,51,41;,
3;49,53,51;,
3;42,51,53;,
3;42,53,54;,
3;54,55,42;,
3;42,55,56;,
3;46,56,55;,
3;57,56,46;,
3;58,57,46;,
3;59,57,58;,
3;58,60,59;,
3;59,60,61;,
3;60,62,61;,
3;61,62,56;,
3;44,56,62;,
3;58,62,60;,
3;45,62,58;,
3;59,61,57;,
3;57,61,56;,
3;47,55,54;,
3;48,54,53;,
3;48,53,49;,
3;47,54,48;,
3;46,55,47;,
3;58,46,45;,
3;45,44,62;,
3;42,56,44;,
3;41,51,42;,
3;39,52,41;,
3;3,52,39;,
3;39,63,3;,
3;63,64,3;,
3;63,65,64;,
3;66,64,65;,
3;66,65,67;,
3;68,66,67;,
3;69,68,67;,
3;69,67,70;,
3;69,70,71;,
3;72,69,71;,
3;72,71,36;,
3;73,69,72;,
3;74,73,72;,
3;72,75,74;,
3;74,75,76;,
3;74,76,77;,
3;68,74,77;,
3;68,77,78;,
3;78,77,79;,
3;79,80,78;,
3;78,80,66;,
3;80,81,66;,
3;80,82,81;,
3;82,83,81;,
3;81,83,84;,
3;81,84,85;,
3;85,86,81;,
3;81,86,87;,
3;81,87,88;,
3;88,89,81;,
3;81,89,90;,
3;81,90,91;,
3;91,92,81;,
3;81,92,93;,
3;81,93,94;,
3;95,81,94;,
3;96,95,94;,
3;96,94,97;,
3;98,96,97;,
3;98,97,99;,
3;99,100,98;,
3;98,100,101;,
3;98,101,102;,
3;102,103,98;,
3;98,103,104;,
3;98,104,105;,
3;106,98,105;,
3;86,106,105;,
3;107,106,86;,
3;106,107,98;,
3;107,108,98;,
3;98,108,109;,
3;98,109,110;,
3;111,98,110;,
3;111,110,112;,
3;113,111,112;,
3;113,112,114;,
3;113,114,115;,
3;115,116,113;,
3;115,117,116;,
3;117,118,116;,
3;116,118,111;,
3;117,119,118;,
3;119,120,118;,
3;118,120,98;,
3;98,120,121;,
3;120,64,121;,
3;121,64,95;,
3;120,122,64;,
3;64,122,4;,
3;4,122,123;,
3;124,4,123;,
3;123,125,124;,
3;124,125,126;,
3;124,126,127;,
3;127,128,124;,
3;124,128,129;,
3;124,129,130;,
3;130,131,124;,
3;124,131,132;,
3;124,132,133;,
3;134,124,133;,
3;133,135,134;,
3;134,135,136;,
3;136,135,137;,
3;136,137,138;,
3;138,139,136;,
3;136,139,124;,
3;124,139,140;,
3;124,140,141;,
3;141,142,124;,
3;124,142,7;,
3;141,143,142;,
3;144,142,143;,
3;144,143,145;,
3;146,144,145;,
3;145,147,146;,
3;146,147,148;,
3;146,148,149;,
3;149,150,146;,
3;146,150,151;,
3;146,151,152;,
3;152,153,146;,
3;146,153,18;,
3;146,18,154;,
3;154,8,146;,
3;152,155,153;,
3;156,153,155;,
3;156,155,157;,
3;157,158,156;,
3;156,158,159;,
3;156,159,19;,
3;19,159,160;,
3;19,160,161;,
3;19,161,162;,
3;162,163,19;,
3;19,163,164;,
3;19,164,165;,
3;165,166,19;,
3;167,166,165;,
3;167,165,168;,
3;169,167,168;,
3;169,168,170;,
3;170,171,169;,
3;171,172,169;,
3;169,172,173;,
3;169,173,25;,
3;174,173,172;,
3;175,174,172;,
3;172,176,175;,
3;175,176,177;,
3;175,177,178;,
3;179,175,178;,
3;180,179,178;,
3;180,178,181;,
3;182,180,181;,
3;182,181,183;,
3;184,182,183;,
3;185,184,183;,
3;183,186,185;,
3;185,186,187;,
3;187,188,185;,
3;188,187,189;,
3;189,190,188;,
3;188,190,191;,
3;188,191,184;,
3;190,192,191;,
3;191,192,180;,
3;190,193,192;,
3;193,194,192;,
3;192,194,179;,
3;194,195,179;,
3;194,196,195;,
3;196,197,195;,
3;195,197,174;,
3;197,198,174;,
3;198,26,174;,
3;199,198,197;,
3;199,197,200;,
3;201,199,200;,
3;201,200,202;,
3;203,201,202;,
3;204,203,202;,
3;204,202,205;,
3;206,204,205;,
3;206,205,207;,
3;208,206,207;,
3;208,207,209;,
3;210,208,209;,
3;210,209,211;,
3;212,210,211;,
3;212,211,213;,
3;214,212,213;,
3;214,213,215;,
3;216,214,215;,
3;216,215,217;,
3;218,216,217;,
3;218,217,219;,
3;219,220,218;,
3;218,220,221;,
3;218,221,222;,
3;222,223,218;,
3;222,224,223;,
3;224,214,223;,
3;224,225,214;,
3;226,225,224;,
3;227,226,224;,
3;228,226,227;,
3;229,228,227;,
3;229,227,230;,
3;230,231,229;,
3;229,231,232;,
3;229,232,233;,
3;233,232,234;,
3;234,235,233;,
3;233,235,228;,
3;235,236,228;,
3;235,237,236;,
3;237,238,236;,
3;236,238,225;,
3;238,239,225;,
3;225,239,212;,
3;238,240,239;,
3;240,241,239;,
3;239,241,210;,
3;240,242,241;,
3;242,243,241;,
3;241,243,208;,
3;242,244,243;,
3;244,245,243;,
3;243,245,206;,
3;244,246,245;,
3;246,247,245;,
3;245,247,204;,
3;246,248,247;,
3;248,249,247;,
3;247,249,203;,
3;249,250,203;,
3;249,251,250;,
3;251,252,250;,
3;250,252,253;,
3;250,253,201;,
3;252,254,253;,
3;254,255,253;,
3;253,255,199;,
3;254,30,255;,
3;252,256,254;,
3;257,254,256;,
3;257,256,258;,
3;259,257,258;,
3;259,258,260;,
3;260,261,259;,
3;259,261,262;,
3;259,262,263;,
3;263,262,264;,
3;263,264,35;,
3;35,264,265;,
3;266,35,265;,
3;266,265,267;,
3;268,266,267;,
3;268,267,269;,
3;79,268,269;,
3;269,270,79;,
3;79,270,271;,
3;79,271,272;,
3;272,273,79;,
3;272,274,273;,
3;274,275,273;,
3;273,275,82;,
3;275,276,82;,
3;275,277,276;,
3;277,278,276;,
3;276,278,83;,
3;83,278,107;,
3;278,279,107;,
3;107,279,280;,
3;107,280,281;,
3;281,282,107;,
3;107,282,283;,
3;107,283,284;,
3;285,107,284;,
3;284,286,285;,
3;285,286,287;,
3;288,285,287;,
3;288,287,289;,
3;289,290,288;,
3;290,291,288;,
3;288,291,292;,
3;293,292,291;,
3;293,291,294;,
3;295,293,294;,
3;295,294,296;,
3;297,295,296;,
3;297,296,298;,
3;297,298,299;,
3;297,299,115;,
3;115,299,300;,
3;115,300,301;,
3;302,303,304;,
3;304,303,305;,
3;115,306,307;,
3;307,308,115;,
3;115,308,309;,
3;115,309,310;,
3;309,311,310;,
3;311,312,310;,
3;310,312,119;,
3;313,312,311;,
3;313,311,314;,
3;315,313,314;,
3;308,315,314;,
3;316,313,315;,
3;307,316,315;,
3;316,317,313;,
3;318,319,320;,
3;318,320,321;,
3;322,323,313;,
3;313,323,324;,
3;313,324,325;,
3;325,326,313;,
3;313,326,327;,
3;313,327,328;,
3;328,329,313;,
3;313,329,330;,
3;313,330,331;,
3;313,331,332;,
3;331,333,332;,
3;332,333,334;,
3;332,334,312;,
3;334,122,312;,
3;334,335,122;,
3;335,336,122;,
3;337,122,336;,
3;337,336,338;,
3;125,337,338;,
3;336,339,338;,
3;338,339,127;,
3;127,339,340;,
3;336,340,339;,
3;341,340,336;,
3;336,342,341;,
3;129,341,342;,
3;336,343,342;,
3;342,343,131;,
3;131,343,344;,
3;344,343,336;,
3;336,345,344;,
3;344,345,133;,
3;336,135,345;,
3;340,341,129;,
3;346,336,335;,
3;335,347,346;,
3;346,347,348;,
3;346,348,349;,
3;349,350,346;,
3;349,351,350;,
3;351,352,350;,
3;350,352,353;,
3;350,353,336;,
3;336,353,138;,
3;353,354,138;,
3;138,354,355;,
3;138,355,356;,
3;356,357,138;,
3;138,357,358;,
3;138,358,359;,
3;359,360,138;,
3;360,140,138;,
3;360,361,140;,
3;362,361,360;,
3;360,363,362;,
3;364,362,363;,
3;364,363,365;,
3;365,366,364;,
3;364,366,367;,
3;364,367,368;,
3;368,367,143;,
3;147,367,366;,
3;365,369,366;,
3;148,366,369;,
3;370,369,365;,
3;365,371,370;,
3;370,371,372;,
3;370,372,373;,
3;373,374,370;,
3;373,375,374;,
3;150,374,375;,
3;157,375,373;,
3;373,376,157;,
3;373,372,376;,
3;377,376,372;,
3;377,372,360;,
3;377,360,378;,
3;377,378,379;,
3;379,159,377;,
3;378,380,379;,
3;379,380,381;,
3;379,381,382;,
3;382,161,379;,
3;381,383,382;,
3;382,383,384;,
3;382,384,385;,
3;385,162,382;,
3;384,386,385;,
3;385,386,171;,
3;386,176,171;,
3;384,177,386;,
3;384,387,177;,
3;383,387,384;,
3;383,388,387;,
3;178,387,388;,
3;381,388,383;,
3;381,389,388;,
3;181,388,389;,
3;389,390,181;,
3;390,389,381;,
3;381,380,390;,
3;390,380,378;,
3;390,378,360;,
3;360,183,390;,
3;158,376,377;,
3;372,371,360;,
3;370,374,369;,
3;149,369,374;,
3;365,363,371;,
3;368,362,364;,
3;360,371,363;,
3;368,361,362;,
3;141,361,368;,
3;183,360,359;,
3;183,359,391;,
3;392,391,359;,
3;393,391,392;,
3;394,393,392;,
3;394,392,395;,
3;396,394,395;,
3;396,395,397;,
3;398,396,397;,
3;398,397,399;,
3;400,398,399;,
3;400,399,401;,
3;402,400,401;,
3;401,403,402;,
3;403,404,402;,
3;402,404,405;,
3;406,402,405;,
3;406,405,407;,
3;407,408,406;,
3;407,409,408;,
3;409,410,408;,
3;408,410,402;,
3;410,411,402;,
3;410,412,411;,
3;412,398,411;,
3;412,413,398;,
3;414,413,412;,
3;414,415,413;,
3;415,396,413;,
3;415,416,396;,
3;417,416,415;,
3;418,417,415;,
3;419,417,418;,
3;420,419,418;,
3;420,418,414;,
3;420,414,410;,
3;421,419,420;,
3;409,421,420;,
3;422,421,409;,
3;422,423,421;,
3;423,424,421;,
3;423,425,424;,
3;425,426,424;,
3;424,426,427;,
3;424,427,419;,
3;427,428,419;,
3;427,429,428;,
3;428,429,416;,
3;429,430,416;,
3;416,430,394;,
3;429,431,430;,
3;431,432,430;,
3;430,432,393;,
3;432,433,393;,
3;432,434,433;,
3;187,433,434;,
3;435,434,432;,
3;435,436,434;,
3;189,434,436;,
3;189,436,437;,
3;437,436,438;,
3;437,438,439;,
3;193,437,439;,
3;439,440,193;,
3;440,439,441;,
3;441,442,440;,
3;440,442,196;,
3;442,200,196;,
3;205,442,441;,
3;439,443,441;,
3;444,445,446;,
3;439,438,443;,
3;447,443,438;,
3;447,438,448;,
3;449,447,448;,
3;449,448,450;,
3;451,449,450;,
3;451,450,452;,
3;453,451,452;,
3;453,452,454;,
3;454,455,453;,
3;453,455,456;,
3;453,456,457;,
3;456,219,457;,
3;458,456,455;,
3;458,455,459;,
3;459,460,458;,
3;458,460,461;,
3;458,461,462;,
3;462,463,458;,
3;464,463,462;,
3;462,465,464;,
3;464,465,466;,
3;464,466,467;,
3;467,468,464;,
3;464,468,296;,
3;296,469,464;,
3;470,464,469;,
3;469,471,470;,
3;221,470,471;,
3;221,471,472;,
3;472,471,473;,
3;472,473,230;,
3;222,472,230;,
3;469,473,471;,
3;231,473,469;,
3;464,470,221;,
3;474,468,467;,
3;474,467,475;,
3;474,475,476;,
3;477,474,476;,
3;476,478,477;,
3;477,478,324;,
3;477,324,299;,
3;324,478,479;,
3;479,478,480;,
3;479,480,481;,
3;481,482,479;,
3;479,482,483;,
3;479,483,325;,
3;483,482,484;,
3;483,484,326;,
3;326,484,485;,
3;326,485,486;,
3;487,488,489;,
3;489,488,490;,
3;326,491,492;,
3;492,493,326;,
3;326,493,494;,
3;326,494,495;,
3;495,334,326;,
3;494,496,495;,
3;495,496,335;,
3;496,497,335;,
3;498,497,496;,
3;498,496,499;,
3;500,498,499;,
3;493,500,499;,
3;501,498,500;,
3;492,501,500;,
3;501,502,498;,
3;503,504,505;,
3;503,505,506;,
3;507,508,498;,
3;498,508,509;,
3;498,509,510;,
3;511,498,510;,
3;511,510,512;,
3;512,407,511;,
3;511,407,513;,
3;511,513,514;,
3;514,513,515;,
3;514,515,516;,
3;516,517,514;,
3;514,517,498;,
3;517,518,498;,
3;498,518,519;,
3;498,519,348;,
3;520,519,518;,
3;520,518,521;,
3;521,522,520;,
3;520,522,351;,
3;522,523,351;,
3;522,524,523;,
3;354,523,524;,
3;524,525,354;,
3;354,525,526;,
3;354,526,527;,
3;403,354,527;,
3;527,528,403;,
3;403,528,529;,
3;513,529,528;,
3;404,529,513;,
3;515,528,527;,
3;515,527,530;,
3;530,527,526;,
3;530,526,531;,
3;516,530,531;,
3;516,531,532;,
3;532,533,516;,
3;532,534,533;,
3;533,534,517;,
3;521,534,532;,
3;532,535,521;,
3;532,531,535;,
3;531,525,535;,
3;531,526,525;,
3;535,525,524;,
3;354,352,523;,
3;535,524,522;,
3;521,535,522;,
3;521,518,534;,
3;349,519,520;,
3;517,534,518;,
3;516,533,517;,
3;516,515,530;,
3;513,528,515;,
3;407,404,513;,
3;512,462,407;,
3;536,462,512;,
3;512,537,536;,
3;536,537,538;,
3;536,538,539;,
3;539,538,540;,
3;539,540,541;,
3;539,541,462;,
3;541,540,542;,
3;541,542,465;,
3;465,542,543;,
3;544,465,543;,
3;545,544,543;,
3;543,546,545;,
3;545,546,509;,
3;545,509,484;,
3;509,546,537;,
3;537,546,542;,
3;484,544,545;,
3;543,542,546;,
3;538,542,540;,
3;537,542,538;,
3;539,462,536;,
3;512,510,537;,
3;514,498,511;,
3;510,509,537;,
3;484,509,508;,
3;485,508,507;,
3;487,506,505;,
3;488,505,504;,
3;491,502,501;,
3;347,497,498;,
3;494,499,496;,
3;493,499,494;,
3;492,500,493;,
3;491,501,492;,
3;488,504,490;,
3;487,505,488;,
3;485,507,486;,
3;484,508,485;,
3;484,482,544;,
3;481,544,482;,
3;466,544,481;,
3;481,480,466;,
3;476,480,478;,
3;467,480,476;,
3;299,474,477;,
3;475,467,476;,
3;298,468,474;,
3;467,466,480;,
3;466,465,544;,
3;462,541,465;,
3;220,463,464;,
3;463,220,456;,
3;462,461,407;,
3;407,461,460;,
3;460,547,407;,
3;407,547,548;,
3;407,548,422;,
3;422,548,549;,
3;549,548,547;,
3;549,547,459;,
3;459,550,549;,
3;549,550,425;,
3;459,547,460;,
3;459,455,550;,
3;463,456,458;,
3;454,550,455;,
3;426,550,454;,
3;454,452,426;,
3;426,452,429;,
3;457,451,453;,
3;215,451,457;,
3;452,450,431;,
3;450,435,431;,
3;213,449,451;,
3;450,448,435;,
3;211,447,449;,
3;209,443,447;,
3;448,438,436;,
3;448,436,435;,
3;431,435,432;,
3;452,431,429;,
3;426,429,427;,
3;426,425,550;,
3;549,425,423;,
3;549,423,422;,
3;421,424,419;,
3;419,428,417;,
3;428,416,417;,
3;418,415,414;,
3;410,414,412;,
3;409,420,410;,
3;422,409,407;,
3;408,402,406;,
3;407,405,404;,
3;403,529,404;,
3;354,403,401;,
3;402,411,400;,
3;399,551,401;,
3;401,551,355;,
3;411,398,400;,
3;399,397,551;,
3;551,397,356;,
3;413,396,398;,
3;397,395,357;,
3;416,394,396;,
3;395,392,358;,
3;430,393,394;,
3;393,433,391;,
3;186,391,433;,
3;392,359,358;,
3;395,358,357;,
3;397,357,356;,
3;551,356,355;,
3;401,355,354;,
3;353,352,354;,
3;351,523,352;,
3;520,351,349;,
3;349,348,519;,
3;498,348,347;,
3;335,497,347;,
3;346,350,336;,
3;495,335,334;,
3;326,334,333;,
3;326,333,552;,
3;552,553,326;,
3;326,553,554;,
3;329,554,553;,
3;555,554,329;,
3;555,556,554;,
3;327,554,556;,
3;327,556,557;,
3;558,557,556;,
3;328,557,558;,
3;558,555,328;,
3;558,556,555;,
3;330,553,552;,
3;331,552,333;,
3;330,552,331;,
3;329,553,330;,
3;328,555,329;,
3;328,327,557;,
3;326,554,327;,
3;325,483,326;,
3;325,324,479;,
3;299,324,323;,
3;300,323,322;,
3;302,321,320;,
3;303,320,319;,
3;306,317,316;,
3;332,312,313;,
3;309,314,311;,
3;308,314,309;,
3;307,315,308;,
3;306,316,307;,
3;303,319,305;,
3;302,320,303;,
3;300,322,301;,
3;299,323,300;,
3;299,298,474;,
3;298,296,468;,
3;115,295,297;,
3;115,559,295;,
3;560,559,115;,
3;115,561,560;,
3;560,561,562;,
3;560,562,563;,
3;563,564,560;,
3;563,565,564;,
3;565,566,564;,
3;564,566,567;,
3;564,567,559;,
3;559,567,293;,
3;566,568,567;,
3;567,568,292;,
3;285,292,568;,
3;285,568,569;,
3;569,570,285;,
3;570,571,285;,
3;285,571,572;,
3;285,572,109;,
3;573,572,571;,
3;573,571,574;,
3;575,573,574;,
3;575,574,576;,
3;561,575,576;,
3;114,575,561;,
3;576,574,577;,
3;576,577,565;,
3;562,576,565;,
3;574,570,577;,
3;112,573,575;,
3;110,572,573;,
3;574,571,570;,
3;577,570,569;,
3;577,569,566;,
3;566,569,568;,
3;565,577,566;,
3;562,565,563;,
3;561,576,562;,
3;560,564,559;,
3;296,294,469;,
3;294,290,469;,
3;469,290,578;,
3;469,578,579;,
3;469,579,580;,
3;580,581,469;,
3;469,581,232;,
3;234,581,580;,
3;234,580,582;,
3;582,583,234;,
3;583,584,234;,
3;583,585,584;,
3;584,585,237;,
3;583,586,585;,
3;586,587,585;,
3;585,587,238;,
3;588,587,586;,
3;589,588,586;,
3;590,588,589;,
3;590,589,582;,
3;289,590,582;,
3;582,579,289;,
3;289,591,590;,
3;591,592,590;,
3;591,286,592;,
3;286,593,592;,
3;592,593,588;,
3;286,283,593;,
3;283,594,593;,
3;593,594,595;,
3;593,595,587;,
3;587,595,240;,
3;594,596,595;,
3;595,596,242;,
3;594,597,596;,
3;597,598,596;,
3;596,598,244;,
3;597,599,598;,
3;599,600,598;,
3;598,600,246;,
3;599,601,600;,
3;601,602,600;,
3;600,602,248;,
3;602,603,248;,
3;602,604,603;,
3;604,605,603;,
3;603,605,251;,
3;605,606,251;,
3;605,607,606;,
3;607,608,606;,
3;606,608,256;,
3;609,256,608;,
3;609,608,610;,
3;611,609,610;,
3;611,610,612;,
3;613,611,612;,
3;613,612,614;,
3;613,614,265;,
3;265,615,613;,
3;613,615,260;,
3;265,261,615;,
3;265,614,616;,
3;265,616,617;,
3;617,618,265;,
3;265,618,619;,
3;265,619,620;,
3;619,621,620;,
3;620,621,622;,
3;620,622,623;,
3;624,620,623;,
3;624,623,625;,
3;270,624,625;,
3;625,623,626;,
3;625,626,627;,
3;271,625,627;,
3;271,627,628;,
3;628,629,271;,
3;630,629,628;,
3;628,631,630;,
3;630,631,632;,
3;631,633,632;,
3;632,633,634;,
3;632,634,274;,
3;629,632,274;,
3;633,635,634;,
3;634,635,277;,
3;633,636,635;,
3;635,636,278;,
3;278,636,637;,
3;278,637,638;,
3;639,278,638;,
3;638,619,639;,
3;639,640,278;,
3;641,640,639;,
3;616,641,639;,
3;641,642,640;,
3;642,643,640;,
3;640,643,279;,
3;279,643,644;,
3;279,644,645;,
3;279,645,646;,
3;279,646,647;,
3;279,647,601;,
3;647,646,604;,
3;646,648,604;,
3;646,645,648;,
3;645,649,648;,
3;648,649,607;,
3;649,650,607;,
3;649,651,650;,
3;652,650,651;,
3;652,651,642;,
3;653,652,642;,
3;654,652,653;,
3;612,654,653;,
3;654,650,652;,
3;654,608,650;,
3;644,651,649;,
3;645,644,649;,
3;644,643,651;,
3;642,651,643;,
3;653,642,641;,
3;614,653,641;,
3;638,637,655;,
3;638,655,622;,
3;626,655,637;,
3;626,637,656;,
3;656,637,636;,
3;656,636,633;,
3;631,656,633;,
3;627,656,631;,
3;630,632,629;,
3;628,627,631;,
3;627,626,656;,
3;623,655,626;,
3;267,620,624;,
3;623,622,655;,
3;621,638,622;,
3;619,638,621;,
3;639,619,618;,
3;639,618,617;,
3;616,639,617;,
3;614,641,616;,
3;612,653,614;,
3;260,611,613;,
3;612,610,654;,
3;260,609,611;,
3;610,608,654;,
3;607,650,608;,
3;648,607,605;,
3;604,648,605;,
3;647,604,602;,
3;601,647,602;,
3;280,601,599;,
3;281,599,597;,
3;282,597,594;,
3;590,592,588;,
3;588,593,587;,
3;589,586,583;,
3;582,589,583;,
3;582,580,579;,
3;579,578,289;,
3;559,293,295;,
3;567,292,293;,
3;294,291,290;,
3;289,578,290;,
3;287,591,289;,
3;288,292,285;,
3;287,286,591;,
3;284,283,286;,
3;283,282,594;,
3;282,281,597;,
3;281,280,599;,
3;280,279,601;,
3;640,279,278;,
3;635,278,277;,
3;634,277,275;,
3;274,634,275;,
3;629,274,272;,
3;272,271,629;,
3;270,625,271;,
3;269,624,270;,
3;269,267,624;,
3;77,266,268;,
3;267,265,620;,
3;76,35,266;,
3;265,264,262;,
3;262,261,265;,
3;260,615,261;,
3;260,258,609;,
3;263,257,259;,
3;263,33,257;,
3;258,256,609;,
3;33,254,257;,
3;606,256,252;,
3;251,606,252;,
3;603,251,249;,
3;248,603,249;,
3;600,248,246;,
3;598,246,244;,
3;596,244,242;,
3;595,242,240;,
3;587,240,238;,
3;585,238,237;,
3;584,237,235;,
3;234,584,235;,
3;232,581,234;,
3;469,232,231;,
3;230,473,231;,
3;230,227,222;,
3;233,228,229;,
3;228,236,226;,
3;236,225,226;,
3;227,224,222;,
3;222,221,472;,
3;221,220,464;,
3;456,220,219;,
3;457,219,217;,
3;223,216,218;,
3;215,457,217;,
3;223,214,216;,
3;213,451,215;,
3;225,212,214;,
3;211,449,213;,
3;239,210,212;,
3;209,447,211;,
3;241,208,210;,
3;446,445,657;,
3;243,206,208;,
3;205,441,207;,
3;245,204,206;,
3;202,442,205;,
3;247,203,204;,
3;203,250,201;,
3;202,200,442;,
3;253,199,201;,
3;255,198,199;,
3;255,29,198;,
3;196,200,197;,
3;440,196,194;,
3;193,440,194;,
3;437,193,190;,
3;190,189,437;,
3;187,434,189;,
3;186,433,187;,
3;183,391,186;,
3;185,188,184;,
3;184,191,182;,
3;181,390,183;,
3;191,180,182;,
3;181,178,388;,
3;192,179,180;,
3;179,195,175;,
3;178,177,387;,
3;386,177,176;,
3;195,174,175;,
3;174,26,173;,
3;171,176,172;,
3;385,171,170;,
3;170,164,385;,
3;168,164,170;,
3;25,167,169;,
3;23,166,167;,
3;168,165,164;,
3;164,163,385;,
3;385,163,162;,
3;382,162,161;,
3;161,160,379;,
3;379,160,159;,
3;377,159,158;,
3;157,376,158;,
3;157,155,375;,
3;151,375,155;,
3;19,153,156;,
3;151,155,152;,
3;150,375,151;,
3;149,374,150;,
3;148,369,149;,
3;147,366,148;,
3;145,367,147;,
3;146,8,144;,
3;145,143,367;,
3;8,142,144;,
3;368,143,141;,
3;141,140,361;,
3;138,140,139;,
3;336,138,137;,
3;137,135,336;,
3;133,345,135;,
3;134,136,124;,
3;132,344,133;,
3;131,344,132;,
3;130,342,131;,
3;129,342,130;,
3;128,340,129;,
3;127,340,128;,
3;126,338,127;,
3;125,338,126;,
3;123,337,125;,
3;124,7,4;,
3;123,122,337;,
3;120,312,122;,
3;119,312,120;,
3;310,119,117;,
3;310,117,115;,
3;115,114,561;,
3;114,112,575;,
3;116,111,113;,
3;112,110,573;,
3;118,98,111;,
3;110,109,572;,
3;109,108,285;,
3;285,108,107;,
3;105,104,88;,
3;88,104,103;,
3;103,102,90;,
3;90,102,101;,
3;101,100,92;,
3;92,100,99;,
3;121,96,98;,
3;97,94,99;,
3;121,95,96;,
3;95,64,81;,
3;93,99,94;,
3;92,99,93;,
3;91,101,92;,
3;90,101,91;,
3;89,103,90;,
3;88,103,89;,
3;87,105,88;,
3;86,105,87;,
3;85,107,86;,
3;85,84,107;,
3;83,107,84;,
3;82,276,83;,
3;273,82,80;,
3;79,273,80;,
3;79,77,268;,
3;77,76,266;,
3;75,35,76;,
3;72,35,75;,
3;73,74,68;,
3;71,70,658;,
3;63,71,658;,
3;63,658,659;,
3;659,658,660;,
3;659,660,661;,
3;661,662,659;,
3;659,662,65;,
3;661,663,662;,
3;664,662,663;,
3;664,663,665;,
3;665,666,664;,
3;664,666,667;,
3;664,667,668;,
3;669,670,671;,
3;672,669,671;,
3;672,671,673;,
3;674,672,673;,
3;660,675,676;,
3;676,677,660;,
3;660,677,678;,
3;677,665,678;,
3;676,666,677;,
3;675,667,676;,
3;679,672,674;,
3;660,680,681;,
3;680,682,681;,
3;679,683,669;,
3;680,684,682;,
3;682,684,664;,
3;664,684,685;,
3;664,685,686;,
3;660,664,686;,
3;660,686,687;,
3;687,688,660;,
3;687,685,688;,
3;70,664,660;,
3;687,686,685;,
3;688,685,684;,
3;688,684,680;,
3;660,688,680;,
3;679,669,672;,
3;683,670,669;,
3;675,668,667;,
3;676,667,666;,
3;677,666,665;,
3;678,665,663;,
3;70,662,664;,
3;678,663,661;,
3;660,678,661;,
3;660,658,70;,
3;70,67,662;,
3;73,68,69;,
3;78,66,68;,
3;662,67,65;,
3;66,81,64;,
3;659,65,63;,
3;39,71,63;,
3;13,52,3;,
3;13,3,689;,
3;689,3,690;,
3;689,690,691;,
3;689,691,692;,
3;692,12,689;,
3;2,12,692;,
3;2,692,693;,
3;693,690,2;,
3;693,694,690;,
3;695,694,693;,
3;695,696,694;,
3;691,694,696;,
3;696,697,691;,
3;691,697,698;,
3;691,698,699;,
3;700,701,702;,
3;703,700,702;,
3;703,702,704;,
3;705,703,704;,
3;692,706,707;,
3;707,708,692;,
3;692,708,695;,
3;707,697,708;,
3;706,698,707;,
3;709,703,705;,
3;692,710,711;,
3;710,712,711;,
3;709,713,700;,
3;710,714,712;,
3;712,714,691;,
3;691,714,715;,
3;691,715,716;,
3;717,716,715;,
3;717,715,718;,
3;717,718,692;,
3;692,716,717;,
3;718,715,714;,
3;718,714,710;,
3;692,718,710;,
3;709,700,703;,
3;713,701,700;,
3;706,699,698;,
3;707,698,697;,
3;708,697,696;,
3;708,696,695;,
3;692,695,693;,
3;692,691,716;,
3;691,690,694;,
3;43,38,40;,
3;39,36,71;,
3;50,37,38;,
3;15,37,52;,
3;36,35,72;,
3;35,34,263;,
3;34,33,263;,
3;31,254,33;,
3;30,254,31;,
3;30,29,255;,
3;29,27,198;,
3;198,27,26;,
3;25,173,26;,
3;25,23,167;,
3;28,22,24;,
3;23,21,166;,
3;19,166,21;,
3;16,20,22;,
3;19,18,153;,
3;154,18,17;,
3;154,17,9;,
3;17,14,10;,
3;32,15,16;,
3;15,52,13;,
3;689,12,13;,
3;14,11,10;,
3;9,17,10;,
3;154,9,8;,
3;8,7,142;,
3;4,7,5;,
3;64,4,3;,
3;2,690,3;,
3;1,12,2;,
3;6,1,0;;
MeshMaterialList {
 1;
 1378;
  0,
  0,
  0,
  0,
  0,
  0,
  0,
  0,
  0,
  0,
  0,
  0,
  0,
  0,
  0,
  0,
  0,
  0,
  0,
  0,
  0,
  0,
  0,
  0,
  0,
  0,
  0,
  0,
  0,
  0,
  0,
  0,
  0,
  0,
  0,
  0,
  0,
  0,
  0,
  0,
  0,
  0,
  0,
  0,
  0,
  0,
  0,
  0,
  0,
  0,
  0,
  0,
  0,
  0,
  0,
  0,
  0,
  0,
  0,
  0,
  0,
  0,
  0,
  0,
  0,
  0,
  0,
  0,
  0,
  0,
  0,
  0,
  0,
  0,
  0,
  0,
  0,
  0,
  0,
  0,
  0,
  0,
  0,
  0,
  0,
  0,
  0,
  0,
  0,
  0,
  0,
  0,
  0,
  0,
  0,
  0,
  0,
  0,
  0,
  0,
  0,
  0,
  0,
  0,
  0,
  0,
  0,
  0,
  0,
  0,
  0,
  0,
  0,
  0,
  0,
  0,
  0,
  0,
  0,
  0,
  0,
  0,
  0,
  0,
  0,
  0,
  0,
  0,
  0,
  0,
  0,
  0,
  0,
  0,
  0,
  0,
  0,
  0,
  0,
  0,
  0,
  0,
  0,
  0,
  0,
  0,
  0,
  0,
  0,
  0,
  0,
  0,
  0,
  0,
  0,
  0,
  0,
  0,
  0,
  0,
  0,
  0,
  0,
  0,
  0,
  0,
  0,
  0,
  0,
  0,
  0,
  0,
  0,
  0,
  0,
  0,
  0,
  0,
  0,
  0,
  0,
  0,
  0,
  0,
  0,
  0,
  0,
  0,
  0,
  0,
  0,
  0,
  0,
  0,
  0,
  0,
  0,
  0,
  0,
  0,
  0,
  0,
  0,
  0,
  0,
  0,
  0,
  0,
  0,
  0,
  0,
  0,
  0,
  0,
  0,
  0,
  0,
  0,
  0,
  0,
  0,
  0,
  0,
  0,
  0,
  0,
  0,
  0,
  0,
  0,
  0,
  0,
  0,
  0,
  0,
  0,
  0,
  0,
  0,
  0,
  0,
  0,
  0,
  0,
  0,
  0,
  0,
  0,
  0,
  0,
  0,
  0,
  0,
  0,
  0,
  0,
  0,
  0,
  0,
  0,
  0,
  0,
  0,
  0,
  0,
  0,
  0,
  0,
  0,
  0,
  0,
  0,
  0,
  0,
  0,
  0,
  0,
  0,
  0,
  0,
  0,
  0,
  0,
  0,
  0,
  0,
  0,
  0,
  0,
  0,
  0,
  0,
  0,
  0,
  0,
  0,
  0,
  0,
  0,
  0,
  0,
  0,
  0,
  0,
  0,
  0,
  0,
  0,
  0,
  0,
  0,
  0,
  0,
  0,
  0,
  0,
  0,
  0,
  0,
  0,
  0,
  0,
  0,
  0,
  0,
  0,
  0,
  0,
  0,
  0,
  0,
  0,
  0,
  0,
  0,
  0,
  0,
  0,
  0,
  0,
  0,
  0,
  0,
  0,
  0,
  0,
  0,
  0,
  0,
  0,
  0,
  0,
  0,
  0,
  0,
  0,
  0,
  0,
  0,
  0,
  0,
  0,
  0,
  0,
  0,
  0,
  0,
  0,
  0,
  0,
  0,
  0,
  0,
  0,
  0,
  0,
  0,
  0,
  0,
  0,
  0,
  0,
  0,
  0,
  0,
  0,
  0,
  0,
  0,
  0,
  0,
  0,
  0,
  0,
  0,
  0,
  0,
  0,
  0,
  0,
  0,
  0,
  0,
  0,
  0,
  0,
  0,
  0,
  0,
  0,
  0,
  0,
  0,
  0,
  0,
  0,
  0,
  0,
  0,
  0,
  0,
  0,
  0,
  0,
  0,
  0,
  0,
  0,
  0,
  0,
  0,
  0,
  0,
  0,
  0,
  0,
  0,
  0,
  0,
  0,
  0,
  0,
  0,
  0,
  0,
  0,
  0,
  0,
  0,
  0,
  0,
  0,
  0,
  0,
  0,
  0,
  0,
  0,
  0,
  0,
  0,
  0,
  0,
  0,
  0,
  0,
  0,
  0,
  0,
  0,
  0,
  0,
  0,
  0,
  0,
  0,
  0,
  0,
  0,
  0,
  0,
  0,
  0,
  0,
  0,
  0,
  0,
  0,
  0,
  0,
  0,
  0,
  0,
  0,
  0,
  0,
  0,
  0,
  0,
  0,
  0,
  0,
  0,
  0,
  0,
  0,
  0,
  0,
  0,
  0,
  0,
  0,
  0,
  0,
  0,
  0,
  0,
  0,
  0,
  0,
  0,
  0,
  0,
  0,
  0,
  0,
  0,
  0,
  0,
  0,
  0,
  0,
  0,
  0,
  0,
  0,
  0,
  0,
  0,
  0,
  0,
  0,
  0,
  0,
  0,
  0,
  0,
  0,
  0,
  0,
  0,
  0,
  0,
  0,
  0,
  0,
  0,
  0,
  0,
  0,
  0,
  0,
  0,
  0,
  0,
  0,
  0,
  0,
  0,
  0,
  0,
  0,
  0,
  0,
  0,
  0,
  0,
  0,
  0,
  0,
  0,
  0,
  0,
  0,
  0,
  0,
  0,
  0,
  0,
  0,
  0,
  0,
  0,
  0,
  0,
  0,
  0,
  0,
  0,
  0,
  0,
  0,
  0,
  0,
  0,
  0,
  0,
  0,
  0,
  0,
  0,
  0,
  0,
  0,
  0,
  0,
  0,
  0,
  0,
  0,
  0,
  0,
  0,
  0,
  0,
  0,
  0,
  0,
  0,
  0,
  0,
  0,
  0,
  0,
  0,
  0,
  0,
  0,
  0,
  0,
  0,
  0,
  0,
  0,
  0,
  0,
  0,
  0,
  0,
  0,
  0,
  0,
  0,
  0,
  0,
  0,
  0,
  0,
  0,
  0,
  0,
  0,
  0,
  0,
  0,
  0,
  0,
  0,
  0,
  0,
  0,
  0,
  0,
  0,
  0,
  0,
  0,
  0,
  0,
  0,
  0,
  0,
  0,
  0,
  0,
  0,
  0,
  0,
  0,
  0,
  0,
  0,
  0,
  0,
  0,
  0,
  0,
  0,
  0,
  0,
  0,
  0,
  0,
  0,
  0,
  0,
  0,
  0,
  0,
  0,
  0,
  0,
  0,
  0,
  0,
  0,
  0,
  0,
  0,
  0,
  0,
  0,
  0,
  0,
  0,
  0,
  0,
  0,
  0,
  0,
  0,
  0,
  0,
  0,
  0,
  0,
  0,
  0,
  0,
  0,
  0,
  0,
  0,
  0,
  0,
  0,
  0,
  0,
  0,
  0,
  0,
  0,
  0,
  0,
  0,
  0,
  0,
  0,
  0,
  0,
  0,
  0,
  0,
  0,
  0,
  0,
  0,
  0,
  0,
  0,
  0,
  0,
  0,
  0,
  0,
  0,
  0,
  0,
  0,
  0,
  0,
  0,
  0,
  0,
  0,
  0,
  0,
  0,
  0,
  0,
  0,
  0,
  0,
  0,
  0,
  0,
  0,
  0,
  0,
  0,
  0,
  0,
  0,
  0,
  0,
  0,
  0,
  0,
  0,
  0,
  0,
  0,
  0,
  0,
  0,
  0,
  0,
  0,
  0,
  0,
  0,
  0,
  0,
  0,
  0,
  0,
  0,
  0,
  0,
  0,
  0,
  0,
  0,
  0,
  0,
  0,
  0,
  0,
  0,
  0,
  0,
  0,
  0,
  0,
  0,
  0,
  0,
  0,
  0,
  0,
  0,
  0,
  0,
  0,
  0,
  0,
  0,
  0,
  0,
  0,
  0,
  0,
  0,
  0,
  0,
  0,
  0,
  0,
  0,
  0,
  0,
  0,
  0,
  0,
  0,
  0,
  0,
  0,
  0,
  0,
  0,
  0,
  0,
  0,
  0,
  0,
  0,
  0,
  0,
  0,
  0,
  0,
  0,
  0,
  0,
  0,
  0,
  0,
  0,
  0,
  0,
  0,
  0,
  0,
  0,
  0,
  0,
  0,
  0,
  0,
  0,
  0,
  0,
  0,
  0,
  0,
  0,
  0,
  0,
  0,
  0,
  0,
  0,
  0,
  0,
  0,
  0,
  0,
  0,
  0,
  0,
  0,
  0,
  0,
  0,
  0,
  0,
  0,
  0,
  0,
  0,
  0,
  0,
  0,
  0,
  0,
  0,
  0,
  0,
  0,
  0,
  0,
  0,
  0,
  0,
  0,
  0,
  0,
  0,
  0,
  0,
  0,
  0,
  0,
  0,
  0,
  0,
  0,
  0,
  0,
  0,
  0,
  0,
  0,
  0,
  0,
  0,
  0,
  0,
  0,
  0,
  0,
  0,
  0,
  0,
  0,
  0,
  0,
  0,
  0,
  0,
  0,
  0,
  0,
  0,
  0,
  0,
  0,
  0,
  0,
  0,
  0,
  0,
  0,
  0,
  0,
  0,
  0,
  0,
  0,
  0,
  0,
  0,
  0,
  0,
  0,
  0,
  0,
  0,
  0,
  0,
  0,
  0,
  0,
  0,
  0,
  0,
  0,
  0,
  0,
  0,
  0,
  0,
  0,
  0,
  0,
  0,
  0,
  0,
  0,
  0,
  0,
  0,
  0,
  0,
  0,
  0,
  0,
  0,
  0,
  0,
  0,
  0,
  0,
  0,
  0,
  0,
  0,
  0,
  0,
  0,
  0,
  0,
  0,
  0,
  0,
  0,
  0,
  0,
  0,
  0,
  0,
  0,
  0,
  0,
  0,
  0,
  0,
  0,
  0,
  0,
  0,
  0,
  0,
  0,
  0,
  0,
  0,
  0,
  0,
  0,
  0,
  0,
  0,
  0,
  0,
  0,
  0,
  0,
  0,
  0,
  0,
  0,
  0,
  0,
  0,
  0,
  0,
  0,
  0,
  0,
  0,
  0,
  0,
  0,
  0,
  0,
  0,
  0,
  0,
  0,
  0,
  0,
  0,
  0,
  0,
  0,
  0,
  0,
  0,
  0,
  0,
  0,
  0,
  0,
  0,
  0,
  0,
  0,
  0,
  0,
  0,
  0,
  0,
  0,
  0,
  0,
  0,
  0,
  0,
  0,
  0,
  0,
  0,
  0,
  0,
  0,
  0,
  0,
  0,
  0,
  0,
  0,
  0,
  0,
  0,
  0,
  0,
  0,
  0,
  0,
  0,
  0,
  0,
  0,
  0,
  0,
  0,
  0,
  0,
  0,
  0,
  0,
  0,
  0,
  0,
  0,
  0,
  0,
  0,
  0,
  0,
  0,
  0,
  0,
  0,
  0,
  0,
  0,
  0,
  0,
  0,
  0,
  0,
  0,
  0,
  0,
  0,
  0,
  0,
  0,
  0,
  0,
  0,
  0,
  0,
  0,
  0,
  0,
  0,
  0,
  0,
  0,
  0,
  0,
  0,
  0,
  0,
  0,
  0,
  0,
  0,
  0,
  0,
  0,
  0,
  0,
  0,
  0,
  0,
  0,
  0,
  0,
  0,
  0,
  0,
  0,
  0,
  0,
  0,
  0,
  0,
  0,
  0,
  0,
  0,
  0,
  0,
  0,
  0,
  0,
  0,
  0,
  0,
  0,
  0,
  0,
  0,
  0,
  0,
  0,
  0,
  0,
  0,
  0,
  0,
  0,
  0,
  0,
  0,
  0,
  0,
  0,
  0,
  0,
  0,
  0,
  0,
  0,
  0,
  0,
  0,
  0,
  0,
  0,
  0,
  0,
  0,
  0,
  0,
  0,
  0,
  0,
  0,
  0,
  0,
  0,
  0,
  0,
  0,
  0,
  0,
  0,
  0,
  0,
  0,
  0,
  0,
  0,
  0,
  0,
  0,
  0,
  0,
  0,
  0,
  0,
  0,
  0,
  0,
  0,
  0,
  0,
  0,
  0,
  0,
  0,
  0,
  0,
  0,
  0,
  0,
  0,
  0,
  0,
  0,
  0,
  0,
  0,
  0,
  0,
  0,
  0,
  0,
  0,
  0,
  0,
  0,
  0,
  0,
  0,
  0,
  0,
  0,
  0,
  0,
  0,
  0,
  0,
  0,
  0,
  0,
  0,
  0,
  0,
  0,
  0,
  0;;
Material {
 0.752941;0.752941;0.752941;1.000000;;
8.000000;
 0.752941;0.752941;0.752941;;
 0.023529;0.023529;0.023529;;
 }
}
MeshTextureCoords {
 719;
0.844622;0.190754;,
0.844622;0.190754;,
0.845013;0.171574;,
0.844622;0.190754;,
0.837892;0.190754;,
0.844929;0.207852;,
0.844929;0.207852;,
0.848923;0.253737;,
0.848923;0.253737;,
0.997892;0.207852;,
0.998199;0.190754;,
0.998199;0.190546;,
0.996146;0.147054;,
0.998199;0.190546;,
0.998199;0.190754;,
0.998199;0.190754;,
0.998673;0.269448;,
0.997892;0.207852;,
0.993884;0.253737;,
0.989095;0.312246;,
0.998646;0.269656;,
0.998548;0.270211;,
0.999874;0.488191;,
0.999511;0.487532;,
0.767520;0.662643;,
0.766933;0.660840;,
0.698264;0.979919;,
0.699144;0.981098;,
0.767631;0.662990;,
0.699214;0.981167;,
0.699563;0.981653;,
0.767883;0.663719;,
1.000000;0.488399;,
0.767883;0.663719;,
1.000000;0.488399;,
0.998785;0.288073;,
0.998199;0.190754;,
0.997892;0.207852;,
0.997892;0.207852;,
0.844929;0.207852;,
0.848923;0.253737;,
0.848923;0.253737;,
0.857314;0.295807;,
0.857314;0.295807;,
0.869602;0.331530;,
0.869602;0.331530;,
0.940169;0.375715;,
0.957804;0.358721;,
0.973219;0.331530;,
0.985493;0.295807;,
0.993884;0.253737;,
0.993884;0.253737;,
0.844929;0.207852;,
0.985493;0.295807;,
0.973219;0.331530;,
0.957804;0.358721;,
0.940169;0.375715;,
0.921404;0.381473;,
0.885017;0.358721;,
0.902651;0.375715;,
0.902651;0.375715;,
0.921404;0.381473;,
0.885017;0.358721;,
0.844622;0.190754;,
0.834681;0.190754;,
0.844622;0.190754;,
0.844929;0.207852;,
0.844622;0.190754;,
0.844929;0.207852;,
0.998199;0.190546;,
0.996146;0.147054;,
0.998199;0.190546;,
0.998199;0.190754;,
0.998199;0.190754;,
0.997892;0.207852;,
0.997892;0.207852;,
0.993884;0.253737;,
0.993884;0.253737;,
0.848923;0.253737;,
0.857314;0.295807;,
0.848923;0.253737;,
0.837250;0.242881;,
0.844832;0.291922;,
0.837250;0.242881;,
0.835812;0.225436;,
0.835532;0.220893;,
0.835295;0.216453;,
0.835100;0.212153;,
0.834960;0.208095;,
0.834848;0.204314;,
0.834778;0.200916;,
0.834723;0.197933;,
0.834695;0.195401;,
0.834681;0.193390;,
0.834681;0.191933;,
0.834681;0.191031;,
0.160837;0.191933;,
0.160837;0.193390;,
0.158547;0.239170;,
0.160823;0.195401;,
0.160795;0.197898;,
0.160739;0.200916;,
0.160670;0.204314;,
0.160558;0.208095;,
0.160404;0.212153;,
0.160209;0.216453;,
0.159958;0.220893;,
0.159678;0.225436;,
0.158547;0.239170;,
0.151161;0.288003;,
0.151161;0.288003;,
0.143300;0.286130;,
0.131096;0.325634;,
0.143300;0.286130;,
0.131096;0.325634;,
0.038398;0.355946;,
0.150966;0.240107;,
0.153591;0.190754;,
0.150966;0.240107;,
0.153591;0.190754;,
0.160837;0.190754;,
0.160837;0.191031;,
0.163839;0.190754;,
0.837892;0.191031;,
0.840224;0.239378;,
0.837892;0.191933;,
0.837906;0.193390;,
0.837920;0.195401;,
0.837948;0.197898;,
0.837990;0.200916;,
0.838074;0.204314;,
0.838185;0.208095;,
0.838339;0.212153;,
0.838534;0.216453;,
0.838786;0.220893;,
0.163225;0.216453;,
0.839065;0.225436;,
0.162987;0.220893;,
0.162708;0.225436;,
0.840224;0.239378;,
0.847722;0.288350;,
0.847722;0.288350;,
0.857314;0.295807;,
0.869602;0.331530;,
0.857314;0.295807;,
0.869602;0.331530;,
0.985493;0.295807;,
0.885017;0.358721;,
0.902651;0.375715;,
0.921404;0.381473;,
0.940169;0.375715;,
0.957804;0.358721;,
0.973219;0.331530;,
0.985493;0.295807;,
0.993884;0.253737;,
0.973219;0.331530;,
0.974671;0.350501;,
0.956869;0.378559;,
0.974671;0.350501;,
0.985046;0.325079;,
0.988578;0.313876;,
0.989095;0.312246;,
0.991888;0.302015;,
0.994708;0.290119;,
0.996872;0.279610;,
0.997612;0.275587;,
0.998213;0.272188;,
0.998925;0.486456;,
0.998101;0.484965;,
0.766542;0.659696;,
0.997082;0.483127;,
0.765788;0.657372;,
0.696798;0.977977;,
0.697915;0.979468;,
0.696449;0.984809;,
0.694760;0.981237;,
0.695961;0.976867;,
0.694871;0.975410;,
0.692568;0.976555;,
0.693210;0.984878;,
0.691465;0.979121;,
0.689998;0.971144;,
0.689440;0.972462;,
0.687248;0.965317;,
0.688770;0.973468;,
0.688030;0.974092;,
0.687248;0.974300;,
0.687248;0.982659;,
0.688742;0.982243;,
0.687248;0.989838;,
0.689370;0.989283;,
0.690180;0.981063;,
0.691381;0.987584;,
0.689845;0.994659;,
0.692316;0.992578;,
0.694550;0.989249;,
0.692903;0.995734;,
0.695402;0.992023;,
0.697510;0.987064;,
0.695681;0.992959;,
0.693098;0.996809;,
0.695681;0.992959;,
0.693098;0.996809;,
0.692903;0.995734;,
0.690138;0.998023;,
0.690250;0.999202;,
0.687248;0.998821;,
0.687248;1.000000;,
0.265502;0.998821;,
0.265502;1.000000;,
0.259610;0.997225;,
0.259498;0.998370;,
0.253983;0.992509;,
0.253773;0.993584;,
0.248886;0.984913;,
0.248607;0.985850;,
0.244530;0.974855;,
0.244223;0.975514;,
0.137896;0.663025;,
0.137673;0.663719;,
0.000000;0.481219;,
0.000112;0.481011;,
0.138008;0.662678;,
0.244586;0.974751;,
0.245340;0.973156;,
0.249738;0.982139;,
0.245647;0.972497;,
0.138553;0.660979;,
0.138916;0.659904;,
0.001871;0.478410;,
0.001061;0.479624;,
0.001089;0.281483;,
0.001871;0.285367;,
0.002876;0.476919;,
0.004091;0.475115;,
0.139628;0.657719;,
0.246611;0.970485;,
0.247337;0.968959;,
0.251079;0.977769;,
0.254569;0.989353;,
0.255491;0.984358;,
0.259903;0.993827;,
0.260378;0.988451;,
0.265502;0.995353;,
0.265502;0.989838;,
0.687248;0.995353;,
0.687248;0.989838;,
0.689845;0.994659;,
0.689370;0.989283;,
0.692316;0.992578;,
0.695402;0.992023;,
0.694550;0.989249;,
0.697510;0.987064;,
0.697873;0.987827;,
0.699563;0.981653;,
0.697873;0.987827;,
0.699144;0.981098;,
0.767799;0.663476;,
0.767548;0.662713;,
0.999511;0.487532;,
0.998925;0.486456;,
0.998324;0.290292;,
0.998604;0.288974;,
0.999874;0.488191;,
0.998757;0.288211;,
0.987908;0.329067;,
0.985493;0.295807;,
0.973219;0.331530;,
0.985493;0.295807;,
0.973219;0.331530;,
0.957804;0.358721;,
0.940169;0.375715;,
0.869602;0.331530;,
0.857314;0.295807;,
0.869602;0.331530;,
0.856965;0.334963;,
0.844832;0.291922;,
0.856965;0.334963;,
0.758276;0.634724;,
0.687248;0.965317;,
0.265502;0.965317;,
0.262500;0.964485;,
0.259638;0.962092;,
0.257055;0.958242;,
0.254863;0.953075;,
0.146595;0.636215;,
0.252503;0.958069;,
0.144612;0.642354;,
0.013963;0.460410;,
0.010346;0.465786;,
0.013963;0.329414;,
0.024756;0.354698;,
0.042754;0.381611;,
0.042754;0.381611;,
0.024756;0.354698;,
0.022494;0.325634;,
0.010291;0.286130;,
0.022494;0.325634;,
0.010291;0.286130;,
0.022494;0.055873;,
0.038398;0.025561;,
0.056912;0.006486;,
0.056912;1.006486;,
0.076795;1.000000;,
0.038398;1.355946;,
0.096664;1.006486;,
0.096664;0.006486;,
0.115193;0.025561;,
0.131096;0.055873;,
0.143300;0.095377;,
0.150966;0.141366;,
0.150966;0.141366;,
0.153591;0.190754;,
0.038398;0.355946;,
0.143300;0.095377;,
0.131096;0.055873;,
0.115193;0.025561;,
0.096664;0.006486;,
0.038398;1.355946;,
0.096664;1.006486;,
0.076795;1.000000;,
0.056912;1.006486;,
0.056912;0.006486;,
0.038398;0.025561;,
0.022494;0.055873;,
0.022494;0.325634;,
0.038398;0.355946;,
0.056912;0.374987;,
0.056912;0.374987;,
0.115193;0.355946;,
0.131096;0.325634;,
0.143300;0.286130;,
0.150966;0.240107;,
0.150966;0.240107;,
0.153591;0.190754;,
0.153591;0.190754;,
0.161284;0.242673;,
0.163839;0.191031;,
0.163839;0.191933;,
0.163825;0.193390;,
0.163811;0.195401;,
0.163783;0.197933;,
0.163741;0.200916;,
0.163658;0.204314;,
0.163560;0.208095;,
0.163406;0.212153;,
0.150966;0.240107;,
0.150966;0.240107;,
0.143300;0.286130;,
0.143300;0.286130;,
0.153800;0.291541;,
0.141806;0.334513;,
0.153800;0.291541;,
0.161284;0.242673;,
0.146595;0.636215;,
0.254863;0.953075;,
0.257055;0.958242;,
0.259638;0.962092;,
0.262500;0.964485;,
0.265502;0.965317;,
0.758276;0.634724;,
0.859911;0.331114;,
0.876038;0.364894;,
0.895042;0.387577;,
0.876038;0.364894;,
0.895042;0.387577;,
0.902651;0.375715;,
0.885017;0.358721;,
0.859911;0.331114;,
0.921404;0.381473;,
0.915735;0.397704;,
0.915735;0.397704;,
0.936790;0.394617;,
0.936790;0.394617;,
0.940169;0.375715;,
0.957804;0.358721;,
0.956869;0.378559;,
0.985884;0.462803;,
0.760413;0.641140;,
0.989528;0.469427;,
0.760762;0.642216;,
0.762423;0.647210;,
0.992935;0.475601;,
0.763080;0.649221;,
0.764211;0.652655;,
0.995853;0.480907;,
0.765062;0.655221;,
0.693405;0.973468;,
0.692568;0.972358;,
0.690445;0.969549;,
0.689984;0.968925;,
0.265502;0.974300;,
0.261732;0.973260;,
0.261006;0.981445;,
0.256706;0.977838;,
0.258130;0.970243;,
0.252824;0.972046;,
0.254863;0.965387;,
0.250269;0.962751;,
0.252112;0.958867;,
0.144291;0.643325;,
0.144612;0.642320;,
0.010346;0.465786;,
0.013963;0.460410;,
0.013963;0.340374;,
0.011170;0.332778;,
0.010388;0.330351;,
0.011170;0.332778;,
0.006981;0.319877;,
0.004091;0.309610;,
0.006981;0.470815;,
0.142755;0.648077;,
0.142141;0.649984;,
0.249543;0.964312;,
0.141080;0.653210;,
0.248272;0.966948;,
0.251079;0.977769;,
0.247337;0.968959;,
0.140284;0.655672;,
0.139628;0.657719;,
0.004091;0.475115;,
0.002876;0.476919;,
0.001871;0.300801;,
0.001871;0.478410;,
0.138916;0.659904;,
0.138553;0.660979;,
0.245340;0.973156;,
0.245647;0.972497;,
0.246611;0.970485;,
0.249738;0.982139;,
0.255491;0.984358;,
0.254569;0.989353;,
0.260378;0.988451;,
0.265502;0.982659;,
0.265502;0.989838;,
0.259903;0.993827;,
0.265502;0.995353;,
0.687248;0.995353;,
0.265502;0.998821;,
0.687248;0.998821;,
0.690138;0.998023;,
0.687248;1.000000;,
0.690250;0.999202;,
0.265502;1.000000;,
0.687248;0.000000;,
0.265502;0.000000;,
0.687248;0.000000;,
0.259498;0.998370;,
0.259610;0.997225;,
0.253773;0.993584;,
0.253983;0.992509;,
0.248607;0.985850;,
0.248886;0.984913;,
0.244530;0.974855;,
0.244586;0.974751;,
0.137896;0.663025;,
0.137673;0.663719;,
0.244223;0.975514;,
0.000112;0.481011;,
0.000475;0.480491;,
0.000195;0.293414;,
0.000028;0.292685;,
0.000000;0.292512;,
0.000000;0.481219;,
0.000000;0.275587;,
0.000000;0.190754;,
0.000000;0.190754;,
0.000000;0.190754;,
0.002611;0.240107;,
0.010025;0.317553;,
0.000028;0.275795;,
0.000126;0.276315;,
0.000475;0.480491;,
0.000475;0.278188;,
0.002611;0.240107;,
0.000000;0.190754;,
0.002611;0.141366;,
0.010291;0.095377;,
0.010291;0.095377;,
0.010291;0.286130;,
0.002611;0.141366;,
0.002611;0.240107;,
0.010291;0.286130;,
0.022494;0.325634;,
0.022494;0.055873;,
0.038398;0.025561;,
0.056912;0.006486;,
0.056912;1.006486;,
0.076795;1.000000;,
0.038398;1.355946;,
0.096664;1.006486;,
0.096664;0.006486;,
0.115193;0.025561;,
0.131096;0.055873;,
0.143300;0.095377;,
0.150966;0.141366;,
0.150966;0.141366;,
0.153591;0.190754;,
0.038398;0.355946;,
0.143300;0.095377;,
0.131096;0.055873;,
0.115193;0.025561;,
0.096664;0.006486;,
0.038398;1.355946;,
0.096664;1.006486;,
0.076795;1.000000;,
0.056912;1.006486;,
0.056912;0.006486;,
0.038398;0.025561;,
0.022494;0.055873;,
0.022494;0.325634;,
0.038398;0.355946;,
0.022494;0.325634;,
0.026809;0.367773;,
0.056912;0.374987;,
0.045393;0.392398;,
0.076795;0.381507;,
0.056912;0.374987;,
0.115193;0.355946;,
0.131096;0.325634;,
0.131096;0.325634;,
0.115193;0.355946;,
0.126000;0.369091;,
0.141806;0.334513;,
0.126000;0.369091;,
0.107318;0.393230;,
0.086862;0.405508;,
0.065807;0.405230;,
0.045393;0.392398;,
0.026809;0.367773;,
0.065807;0.405230;,
0.086862;0.405508;,
0.096664;0.374987;,
0.076795;0.381507;,
0.096664;0.374987;,
0.107318;0.393230;,
0.010291;0.286130;,
0.010291;0.286130;,
0.002611;0.240107;,
0.002611;0.240107;,
0.000000;0.190754;,
0.000000;0.190754;,
0.002611;0.141366;,
0.002611;0.141366;,
0.002611;0.240107;,
0.010291;0.095377;,
0.010291;0.095377;,
0.000475;0.294697;,
0.001089;0.297472;,
0.001061;0.479624;,
0.138008;0.662678;,
0.252503;0.958069;,
0.143300;0.286130;,
0.131096;0.325634;,
0.115193;0.355946;,
0.096664;0.374987;,
0.096664;0.374987;,
0.076795;0.381507;,
0.076795;0.381507;,
0.038398;0.355946;,
0.056912;0.374987;,
0.115193;0.355946;,
0.096664;0.374987;,
0.076795;0.381507;,
0.056912;0.374987;,
0.076795;0.381507;,
0.083847;0.398779;,
0.062860;0.396629;,
0.062860;0.396629;,
0.083847;0.398779;,
0.104386;0.387958;,
0.123208;0.364790;,
0.139125;0.330767;,
0.139125;0.330767;,
0.123208;0.364790;,
0.115193;0.355946;,
0.096664;0.374987;,
0.104386;0.387958;,
0.010360;0.318559;,
0.010025;0.317553;,
0.006981;0.307009;,
0.004091;0.295495;,
0.006981;0.470815;,
0.141038;0.653349;,
0.140326;0.655534;,
0.248272;0.966948;,
0.249543;0.964312;,
0.252824;0.972046;,
0.250269;0.962751;,
0.142169;0.649880;,
0.142727;0.648146;,
0.144305;0.643325;,
0.252112;0.958867;,
0.254863;0.965387;,
0.258130;0.970243;,
0.256706;0.977838;,
0.261006;0.981445;,
0.261732;0.973260;,
0.265502;0.982659;,
0.265502;0.974300;,
0.687248;0.982659;,
0.687248;0.974300;,
0.688742;0.982243;,
0.691381;0.987584;,
0.690180;0.981063;,
0.693210;0.984878;,
0.696449;0.984809;,
0.694760;0.981237;,
0.697915;0.979468;,
0.767143;0.661499;,
0.766598;0.659834;,
0.998101;0.484965;,
0.997082;0.483127;,
0.996970;0.296501;,
0.994806;0.305518;,
0.997724;0.293102;,
0.991971;0.315992;,
0.988634;0.326709;,
0.987908;0.329067;,
0.985116;0.336940;,
0.972451;0.364929;,
0.972451;0.364929;,
0.953965;0.390421;,
0.953965;0.390421;,
0.957804;0.358721;,
0.940169;0.375715;,
0.933537;0.404051;,
0.921404;0.381473;,
0.921404;0.381473;,
0.885017;0.358721;,
0.902651;0.375715;,
0.902651;0.375715;,
0.885017;0.358721;,
0.891788;0.393230;,
0.872939;0.369403;,
0.872939;0.369403;,
0.891788;0.393230;,
0.912398;0.405022;,
0.985884;0.462803;,
0.989528;0.469427;,
0.760762;0.642216;,
0.992935;0.475601;,
0.763080;0.649221;,
0.690445;0.969549;,
0.689998;0.971144;,
0.689440;0.972462;,
0.688770;0.973468;,
0.688030;0.974092;,
0.691465;0.979121;,
0.692568;0.976555;,
0.695961;0.976867;,
0.693405;0.973468;,
0.765062;0.655221;,
0.995853;0.480907;,
0.765900;0.657719;,
0.933537;0.404051;,
0.912398;0.405022;,
0.265502;0.000000;,
0.996146;0.147054;,
0.845013;0.171574;,
0.994010;0.128603;,
0.849202;0.125863;,
0.845013;0.171574;,
0.849202;0.125863;,
0.994010;0.128603;,
0.857747;0.084105;,
0.870132;0.048764;,
0.885617;0.021989;,
0.903252;0.005410;,
0.921990;1.000000;,
0.994010;1.128603;,
0.903252;1.005410;,
0.921990;1.000000;,
0.903252;1.005410;,
0.994010;1.128603;,
0.903252;0.005410;,
0.885617;0.021989;,
0.870132;0.048764;,
0.857747;0.084105;,
0.940686;1.006104;,
0.958223;0.023376;,
0.940686;0.006104;,
0.940686;0.006104;,
0.940686;1.006104;,
0.958223;0.023376;,
0.973540;0.050706;,
0.985716;0.086498;,
0.985716;0.086498;,
0.973540;0.050706;,
0.996146;0.147054;,
0.845013;0.171574;,
0.994010;0.128603;,
0.994010;0.128603;,
0.849202;0.125863;,
0.849202;0.125863;,
0.857747;0.084105;,
0.857747;0.084105;,
0.870132;0.048764;,
0.885617;0.021989;,
0.903252;0.005410;,
0.921990;1.000000;,
0.994010;1.128603;,
0.903252;1.005410;,
0.921990;1.000000;,
0.903252;1.005410;,
0.994010;1.128603;,
0.903252;0.005410;,
0.885617;0.021989;,
0.870132;0.048764;,
0.940686;1.006104;,
0.958223;0.023376;,
0.940686;0.006104;,
0.940686;0.006104;,
0.940686;1.006104;,
0.958223;0.023376;,
0.973540;0.050706;,
0.985716;0.086498;,
0.985716;0.086498;,
0.973540;0.050706;;
}
}
 }
