# 
# Wavefront OBJ file
# Converted by the 3D Exploration 1.833
# XDimension Software, LLC
# http://www.xdsoft.com/explorer/
# 
mtllib woiture.mtl
# object Object #0
g Object__0
v 0.024763 -0.011826 0.001
v 0.024763 -0.011826 0
v 0.024791 -0.012379 0
v 0.035462 -0.013618 0
v 0.035615 -0.013086 0
v 0.035615 -0.013086 0.004
v 0.035462 -0.013618 0.004
v 0.034868 -0.014832 0.004
v 0.034868 -0.014832 0
v 0.033996 -0.015864 0.004
v 0.033996 -0.015864 0
v 0.032899 -0.016652 0.004
v 0.032899 -0.016652 0
v 0.031643 -0.01715 0.004
v 0.031643 -0.01715 0
v 0.030304 -0.017326 0.004
v 0.030304 -0.017326 0
v 0.028962 -0.01717 0.004
v 0.028962 -0.01717 0
v 0.027699 -0.016692 0.004
v 0.027699 -0.016692 0
v 0.02659 -0.01592 0.004
v 0.02659 -0.01592 0
v 0.025703 -0.014901 0.004
v 0.025703 -0.014901 0
v 0.025091 -0.013697 0.004
v 0.025091 -0.013697 0
v 0.024791 -0.012379 0.004
v 0.024763 -0.011826 0.004
v 0.035762 -0.011832 0.004
v 0.035762 -0.011832 0
v 0.035762 -0.011826 0.004
v 0.035762 -0.011826 0.001
v 0.035762 -0.011826 0
v -0.024916 -0.01325 0
v -0.024728 -0.011826 0
v -0.024728 -0.011826 0.001
v -0.024916 -0.010403 0
v -0.024916 -0.010403 0.001
v -0.025465 -0.009076 0
v -0.025465 -0.009076 0.001
v -0.026339 -0.007937 0
v -0.026339 -0.007937 0.001
v -0.027478 -0.007063 0
v -0.027478 -0.007063 0.001
v -0.028805 -0.006514 0
v -0.028805 -0.006514 0.001
v -0.030228 -0.006326 0
v -0.030228 -0.006326 0.001
v -0.031652 -0.006514 0
v -0.031652 -0.006514 0.001
v -0.032978 -0.007063 0
v -0.032978 -0.007063 0.001
v -0.034117 -0.007937 0
v -0.034117 -0.007937 0.001
v -0.034991 -0.009076 0
v -0.034991 -0.009076 0.001
v -0.035541 -0.010403 0
v -0.035541 -0.010403 0.001
v -0.035728 -0.011826 0
v -0.035728 -0.011826 0.001
v -0.035541 -0.01325 0
v -0.035728 -0.011826 0.004
v -0.035541 -0.01325 0.004
v -0.034991 -0.014576 0
v -0.034991 -0.014576 0.004
v -0.034117 -0.015715 0
v -0.034117 -0.015715 0.004
v -0.032978 -0.016589 0
v -0.032978 -0.016589 0.004
v -0.031652 -0.017139 0
v -0.031652 -0.017139 0.004
v -0.030228 -0.017326 0
v -0.030228 -0.017326 0.004
v -0.028805 -0.017139 0
v -0.028805 -0.017139 0.004
v -0.027478 -0.016589 0
v -0.027478 -0.016589 0.004
v -0.026339 -0.015715 0
v -0.026339 -0.015715 0.004
v -0.025465 -0.014576 0
v -0.025465 -0.014576 0.004
v -0.024916 -0.01325 0.004
v -0.024728 -0.011826 0.004
v 0.024763 -0.011826 0.014
v 0.024763 -0.011826 0.017
v 0.024051 -0.011826 0.017
v -0.023994 -0.011826 0.001
v -0.024728 -0.011826 0.014
v -0.024728 -0.011826 0.017
v -0.024209 -0.011826 0.017
v 0.024281 -0.011826 0.001
v 0.026791 -0.006675 0.018
v 0.018579 0.000975 0.018
v 0.025647 -0.007668 0.018
v 0.024778 -0.008909 0.018
v 0.024235 -0.010323 0.018
v -0.024292 -0.010826 0.018
v 0.024132 -0.010826 0.018
v 0.034825 -0.007611 0.018
v 0.03488 -0.003982 0.018
v 0.033918 -0.006804 0.018
v 0.032594 -0.006069 0.018
v -0.029723 -0.005828 0.018
v -0.028252 -0.00614 0.018
v -0.025229 0.001018 0.018
v -0.024902 -0.009022 0.018
v -0.024373 -0.01043 0.018
v -0.017475 0.010154 0.018
v 0.028141 -0.005988 0.018
v 0.029617 -0.005648 0.018
v 0.031131 -0.005676 0.018
v 0.013492 0.010507 0.018
v -0.016713 0.010507 0.018
v -0.016928 0.010483 0.018
v -0.034728 -0.007828 0.018
v -0.033955 -0.007099 0.018
v -0.034728 -0.004051 0.018
v -0.032666 -0.006323 0.018
v -0.031226 -0.00589 0.018
v -0.026904 -0.006808 0.018
v -0.025764 -0.007789 0.018
v -0.017133 0.010414 0.018
v -0.017318 0.010303 0.018
v 0.035891 -0.003244 0.001
v 0.035796 -0.009557 0.001
v 0.035891 -0.003244 0.017
v 0.035804 -0.00902 0.017
v 0.035762 -0.011826 0.014
v 0.035762 -0.011826 0.017
v -0.035728 -0.003451 0.017
v -0.035728 -0.003451 0.001
v -0.035728 -0.00938 0.017
v -0.035728 -0.008892 0.001
v -0.035728 -0.011826 0.014
v -0.035728 -0.011826 0.017
v 0.035762 -0.011826 0.018
v 0.03574 -0.011333 0.018
v 0.024785 -0.011333 0.018
v 0.035453 -0.01001 0.018
v 0.025071 -0.01001 0.018
v 0.035762 -0.011832 0.018
v 0.024763 -0.011826 0.018
v 0.035615 -0.013086 0.018
v 0.024791 -0.012379 0.018
v 0.035462 -0.013618 0.018
v 0.025091 -0.013697 0.018
v 0.025703 -0.014901 0.018
v 0.031643 -0.01715 0.018
v 0.030304 -0.017326 0.018
v 0.028962 -0.01717 0.018
v 0.025672 -0.008797 0.018
v 0.034852 -0.008797 0.018
v 0.033973 -0.007767 0.018
v 0.028919 -0.006493 0.018
v 0.027656 -0.006983 0.018
v 0.030262 -0.006327 0.018
v 0.031606 -0.006493 0.018
v 0.032869 -0.006983 0.018
v 0.026552 -0.007767 0.018
v 0.02659 -0.01592 0.018
v 0.027699 -0.016692 0.018
v 0.032899 -0.016652 0.018
v 0.033996 -0.015864 0.018
v 0.034868 -0.014832 0.018
v 0.013492 0.010507 0
v 0.018579 0.000975 0
v -0.016713 0.010507 0
v -0.024075 -0.010826 0
v 0.03488 -0.003982 0
v 0.03482 -0.007953 0
v 0.034077 -0.00722 0
v -0.024177 -0.010329 0
v -0.024713 -0.00892 0
v -0.025229 0.001018 0
v -0.025572 -0.007681 0
v -0.026704 -0.006684 0
v -0.034728 -0.004051 0
v -0.031015 -0.005642 0
v -0.017475 0.010154 0
v -0.017318 0.010303 0
v 0.032802 -0.006411 0
v 0.031364 -0.005948 0
v 0.029856 -0.005859 0
v 0.028374 -0.006151 0
v 0.027013 -0.006805 0
v -0.032477 -0.006012 0
v -0.033808 -0.006722 0
v -0.034728 -0.007512 0
v 0.025858 -0.007779 0
v 0.024985 -0.009012 0
v 0.024448 -0.010424 0
v 0.024365 -0.010826 0
v -0.028042 -0.005988 0
v -0.029507 -0.005634 0
v -0.017133 0.010414 0
v -0.016928 0.010483 0
v -0.035541 -0.01325 0.014
v -0.035541 -0.01325 0.018
v -0.034991 -0.014576 0.014
v -0.034991 -0.014576 0.018
v -0.034117 -0.015715 0.014
v -0.034117 -0.015715 0.018
v -0.032978 -0.016589 0.014
v -0.032978 -0.016589 0.018
v -0.031652 -0.017139 0.014
v -0.031652 -0.017139 0.018
v -0.030228 -0.017326 0.014
v -0.030228 -0.017326 0.018
v -0.028805 -0.017139 0.014
v -0.028805 -0.017139 0.018
v -0.027478 -0.016589 0.014
v -0.027478 -0.016589 0.018
v -0.026339 -0.015715 0.014
v -0.026339 -0.015715 0.018
v -0.025465 -0.014576 0.014
v -0.025465 -0.014576 0.018
v -0.024916 -0.01325 0.014
v -0.024916 -0.01325 0.018
v -0.024728 -0.011826 0.018
v -0.024916 -0.010403 0.017
v -0.024916 -0.010403 0.018
v -0.025465 -0.009076 0.017
v -0.025465 -0.009076 0.018
v -0.026339 -0.007937 0.017
v -0.026339 -0.007937 0.018
v -0.027478 -0.007063 0.017
v -0.027478 -0.007063 0.018
v -0.028805 -0.006514 0.017
v -0.028805 -0.006514 0.018
v -0.030228 -0.006326 0.017
v -0.030228 -0.006326 0.018
v -0.031652 -0.006514 0.017
v -0.031652 -0.006514 0.018
v -0.032978 -0.007063 0.017
v -0.032978 -0.007063 0.018
v -0.034117 -0.007937 0.017
v -0.034117 -0.007937 0.018
v -0.034991 -0.009076 0.017
v -0.034991 -0.009076 0.018
v -0.035541 -0.010403 0.017
v -0.035541 -0.010403 0.018
v -0.035728 -0.011826 0.018
v 0.035462 -0.013618 0.014
v 0.035615 -0.013086 0.014
v 0.034868 -0.014832 0.014
v 0.033996 -0.015864 0.014
v 0.032899 -0.016652 0.014
v 0.031643 -0.01715 0.014
v 0.030304 -0.017326 0.014
v 0.028962 -0.01717 0.014
v 0.027699 -0.016692 0.014
v 0.02659 -0.01592 0.014
v 0.025703 -0.014901 0.014
v 0.025091 -0.013697 0.014
v 0.024791 -0.012379 0.014
v 0.035762 -0.011832 0.014
v 0.019267 0.001811 0.001
v 0.019267 0.001811 0.017
v 0.014374 0.010978 0.001
v 0.014374 0.010978 0.017
v 0.013492 0.011507 0.001
v -0.016713 0.011507 0.001
v 0.013492 0.011507 0.017
v -0.016713 0.011507 0.017
v -0.025868 0.001811 0.001
v -0.025868 0.001811 0.017
v -0.018237 0.010801 0.001
v -0.018237 0.010801 0.017
v 0.035453 -0.01001 0
v 0.03574 -0.011333 0
v 0.025071 -0.01001 0
v 0.024785 -0.011333 0
v 0.034852 -0.008797 0
v 0.025672 -0.008797 0
v 0.026552 -0.007767 0
v 0.027656 -0.006983 0
v 0.028919 -0.006493 0
v 0.030262 -0.006327 0
v 0.031606 -0.006493 0
v 0.032869 -0.006983 0
v 0.033973 -0.007767 0
v 0.03574 -0.011333 0.001
v 0.024785 -0.011333 0.001
v 0.025071 -0.01001 0.001
v 0.025672 -0.008797 0.001
v 0.026552 -0.007767 0.001
v 0.027656 -0.006983 0.001
v 0.028919 -0.006493 0.001
v 0.030262 -0.006327 0.001
v 0.031606 -0.006493 0.001
v 0.032869 -0.006983 0.001
v 0.033973 -0.007767 0.001
v 0.034852 -0.008797 0.001
v 0.035453 -0.01001 0.001
v 0.03511 -0.008323 0.001
v 0.034077 -0.00722 0.001
v 0.032802 -0.006411 0.001
v 0.031364 -0.005948 0.001
v 0.029856 -0.005859 0.001
v 0.028374 -0.006151 0.001
v 0.027013 -0.006805 0.001
v 0.025858 -0.007779 0.001
v 0.024985 -0.009012 0.001
v 0.024448 -0.010424 0.001
v 0.035794 -0.009551 0.000931
v 0.024345 -0.010957 9e-06
v 0.024327 -0.011085 3.4e-05
v 0.024281 -0.011818 0.000869
v 0.024281 -0.011792 0.000741
v 0.024282 -0.01175 0.000617
v 0.024283 -0.011692 0.0005
v 0.024285 -0.01162 0.000391
v 0.024288 -0.011533 0.000293
v 0.024294 -0.011435 0.000207
v 0.024302 -0.011326 0.000134
v 0.024313 -0.011209 7.6e-05
v 0.03511 -0.008323 4.5e-05
v 0.03531 -0.008618 0.000134
v 0.035512 -0.008961 0.000293
v 0.035667 -0.009264 0.0005
v 0.03572 -0.00938 0.000611
v 0.035763 -0.009478 0.000741
v 0.035787 -0.009535 0.000864
v 0.035073 -0.008276 3.9e-05
v -0.029507 -0.005634 0.001
v -0.028042 -0.005988 0.001
v -0.026704 -0.006684 0.001
v -0.025572 -0.007681 0.001
v -0.024713 -0.00892 0.001
v -0.024177 -0.010329 0.001
v -0.034928 -0.007731 0.001
v -0.033808 -0.006722 0.001
v -0.032477 -0.006012 0.001
v -0.031015 -0.005642 0.001
v -0.023994 -0.011818 0.00087
v -0.034984 -0.007801 4.1e-05
v -0.034928 -0.007731 2e-05
v -0.035726 -0.008887 0.000932
v -0.035714 -0.008866 0.000834
v -0.035694 -0.008829 0.000741
v -0.03565 -0.008749 0.000612
v -0.035594 -0.008653 0.0005
v -0.035435 -0.008399 0.000293
v -0.035228 -0.008103 0.000134
v -0.023994 -0.011792 0.000741
v -0.024055 -0.010957 9e-06
v -0.024038 -0.011085 3.4e-05
v -0.024025 -0.011209 7.6e-05
v -0.024014 -0.011326 0.000134
v -0.024007 -0.011435 0.000206
v -0.024001 -0.011533 0.000293
v -0.023998 -0.011619 0.000391
v -0.023996 -0.011692 0.0005
v -0.023995 -0.01175 0.000617
v -0.024373 -0.01043 0.017
v -0.024902 -0.009022 0.017
v -0.025764 -0.007789 0.017
v -0.026904 -0.006808 0.017
v -0.028252 -0.00614 0.017
v -0.029723 -0.005828 0.017
v -0.031226 -0.00589 0.017
v -0.032666 -0.006323 0.017
v -0.033955 -0.007099 0.017
v -0.03501 -0.00817 0.017
v -0.035726 -0.009374 0.017069
v -0.024272 -0.010957 0.017991
v -0.024254 -0.011085 0.017966
v -0.024209 -0.011818 0.017131
v -0.024209 -0.011792 0.017259
v -0.024209 -0.01175 0.017383
v -0.02421 -0.011692 0.0175
v -0.024212 -0.01162 0.017609
v -0.024216 -0.011533 0.017707
v -0.024221 -0.011435 0.017793
v -0.024229 -0.011326 0.017866
v -0.02424 -0.011209 0.017924
v -0.03501 -0.00817 0.017959
v -0.035228 -0.008474 0.017866
v -0.035435 -0.008806 0.017707
v -0.035594 -0.009098 0.0175
v -0.03565 -0.00921 0.017389
v -0.035694 -0.009305 0.017259
v -0.035719 -0.009359 0.017136
v -0.034986 -0.008141 0.017963
v 0.024785 -0.011333 0.017
v 0.03574 -0.011333 0.017
v 0.035453 -0.01001 0.017
v 0.034852 -0.008797 0.017
v 0.033973 -0.007767 0.017
v 0.032869 -0.006983 0.017
v 0.031606 -0.006493 0.017
v 0.030262 -0.006327 0.017
v 0.028919 -0.006493 0.017
v 0.027656 -0.006983 0.017
v 0.026552 -0.007767 0.017
v 0.025672 -0.008797 0.017
v 0.025071 -0.01001 0.017
v 0.035025 -0.007838 0.017
v 0.033918 -0.006804 0.017
v 0.032594 -0.006069 0.017
v 0.031131 -0.005676 0.017
v 0.029617 -0.005648 0.017
v 0.028141 -0.005988 0.017
v 0.026791 -0.006675 0.017
v 0.025647 -0.007668 0.017
v 0.024778 -0.008909 0.017
v 0.024235 -0.010323 0.017
v 0.024051 -0.011818 0.01713
v 0.024051 -0.011792 0.017259
v 0.024112 -0.010957 0.017991
v 0.024095 -0.011085 0.017966
v 0.024081 -0.011209 0.017924
v 0.024071 -0.011326 0.017866
v 0.024063 -0.011435 0.017794
v 0.024058 -0.011533 0.017707
v 0.024054 -0.011619 0.017609
v 0.024052 -0.011692 0.0175
v 0.024051 -0.01175 0.017383
v 0.035077 -0.007906 0.017959
v 0.035025 -0.007838 0.017979
v 0.035802 -0.009016 0.017068
v 0.035791 -0.008994 0.017166
v 0.035771 -0.008956 0.017259
v 0.035728 -0.008875 0.017388
v 0.035674 -0.008777 0.0175
v 0.035519 -0.008517 0.017707
v 0.035316 -0.008215 0.017866
v -0.035541 -0.010403 0.004
v -0.035541 -0.010403 0.014
v -0.034991 -0.009076 0.004
v -0.034991 -0.009076 0.014
v -0.034117 -0.007937 0.004
v -0.034117 -0.007937 0.014
v -0.032978 -0.007063 0.004
v -0.032978 -0.007063 0.014
v -0.031652 -0.006514 0.004
v -0.031652 -0.006514 0.014
v -0.030228 -0.006326 0.004
v -0.030228 -0.006326 0.014
v -0.028805 -0.006514 0.004
v -0.028805 -0.006514 0.014
v -0.027478 -0.007063 0.004
v -0.027478 -0.007063 0.014
v -0.026339 -0.007937 0.004
v -0.026339 -0.007937 0.014
v -0.025465 -0.009076 0.004
v -0.025465 -0.009076 0.014
v -0.024916 -0.010403 0.004
v -0.024916 -0.010403 0.014
v 0.025672 -0.008797 0.014
v 0.03574 -0.011333 0.014
v 0.025071 -0.01001 0.014
v 0.024785 -0.011333 0.014
v 0.028919 -0.006493 0.014
v 0.030262 -0.006327 0.014
v 0.027656 -0.006983 0.014
v 0.031606 -0.006493 0.014
v 0.026552 -0.007767 0.014
v 0.032869 -0.006983 0.014
v 0.033973 -0.007767 0.014
v 0.034852 -0.008797 0.014
v 0.035453 -0.01001 0.014
v 0.03574 -0.011333 0.004
v 0.024785 -0.011333 0.004
v 0.035453 -0.01001 0.004
v 0.025071 -0.01001 0.004
v 0.025672 -0.008797 0.004
v 0.034852 -0.008797 0.004
v 0.033973 -0.007767 0.004
v 0.028919 -0.006493 0.004
v 0.027656 -0.006983 0.004
v 0.030262 -0.006327 0.004
v 0.031606 -0.006493 0.004
v 0.032869 -0.006983 0.004
v 0.026552 -0.007767 0.004
v -0.017143 0.01146 0.001
v -0.017143 0.01146 0.017
v -0.017553 0.011322 0.001
v -0.017553 0.011322 0.017
v -0.017923 0.011099 0.001
v -0.017923 0.011099 0.017
v 0.013492 0.010766 0.017966
v -0.016713 0.010766 0.017966
v 0.013492 0.011007 0.017866
v -0.016713 0.011007 0.017866
v 0.013492 0.011214 0.017707
v -0.016713 0.011214 0.017707
v 0.013492 0.011373 0.0175
v -0.016713 0.011373 0.0175
v 0.013492 0.011473 0.017259
v -0.016713 0.011473 0.017259
v -0.016983 0.010736 0.017966
v -0.017241 0.010649 0.017966
v -0.017644 0.010298 0.017971
v -0.017475 0.010509 0.017966
v -0.017672 0.010321 0.017966
v -0.017804 0.010433 0.017895
v -0.017621 0.010701 0.017866
v -0.017856 0.010478 0.017866
v -0.017947 0.010554 0.017775
v -0.017746 0.010866 0.017707
v -0.018014 0.010612 0.017707
v -0.018066 0.010656 0.017618
v -0.017842 0.010992 0.0175
v -0.018135 0.010714 0.0175
v -0.018157 0.010733 0.017431
v -0.017903 0.011072 0.017259
v -0.018211 0.010779 0.017259
v -0.018215 0.010782 0.017222
v -0.017343 0.010868 0.017866
v -0.01743 0.011056 0.017707
v -0.017496 0.0112 0.0175
v -0.017538 0.011291 0.017259
v -0.017035 0.010972 0.017866
v -0.01708 0.011174 0.017707
v -0.017114 0.011329 0.0175
v -0.017135 0.011427 0.017259
v -0.025371 0.001195 0.017975
v -0.025393 0.001223 0.017963
v -0.025506 0.001362 0.017901
v -0.025546 0.001412 0.017861
v -0.025627 0.001512 0.017782
v -0.025678 0.001575 0.017703
v -0.025728 0.001638 0.017623
v -0.025779 0.001701 0.017497
v -0.025805 0.001732 0.017434
v -0.025844 0.001781 0.017258
v -0.025852 0.001791 0.017223
v -0.034987 -0.003896 3.4e-05
v -0.035228 -0.003751 0.000134
v -0.035652 -0.003497 0.000617
v -0.035594 -0.003532 0.0005
v -0.035522 -0.003575 0.000391
v -0.035435 -0.003627 0.000293
v -0.03572 -0.003457 0.000869
v -0.035694 -0.003472 0.000741
v -0.016713 0.010766 3.4e-05
v 0.013492 0.010766 3.4e-05
v -0.016713 0.011007 0.000134
v 0.013492 0.011007 0.000134
v -0.016713 0.011214 0.000293
v 0.013492 0.011214 0.000293
v -0.016713 0.011373 0.0005
v 0.013492 0.011373 0.0005
v -0.016713 0.011473 0.000741
v 0.013492 0.011473 0.000741
v -0.025371 0.001194 2.9e-05
v -0.025504 0.00136 0.000105
v -0.025394 0.001223 3.4e-05
v -0.025624 0.001508 0.000225
v -0.025548 0.001415 0.000134
v -0.025852 0.001791 0.000777
v -0.025844 0.001781 0.000742
v -0.025805 0.001732 0.000566
v -0.025779 0.001701 0.000503
v -0.025728 0.001638 0.000377
v -0.025681 0.001579 0.000293
v -0.017135 0.011427 0.000741
v -0.017538 0.011291 0.000741
v -0.018215 0.010782 0.000778
v -0.017903 0.011072 0.000741
v -0.018211 0.010779 0.000741
v -0.018157 0.010733 0.000569
v -0.017842 0.010992 0.0005
v -0.018135 0.010714 0.0005
v -0.018066 0.010656 0.000382
v -0.017746 0.010866 0.000293
v -0.018014 0.010612 0.000293
v -0.017947 0.010554 0.000225
v -0.017621 0.010701 0.000134
v -0.017856 0.010478 0.000134
v -0.017804 0.010433 0.000105
v -0.017475 0.010509 3.4e-05
v -0.017672 0.010321 3.4e-05
v -0.017644 0.010298 2.9e-05
v -0.017496 0.0112 0.0005
v -0.01743 0.011056 0.000293
v -0.017343 0.010868 0.000134
v -0.017241 0.010649 3.4e-05
v -0.017114 0.011329 0.0005
v -0.01708 0.011174 0.000293
v -0.017035 0.010972 0.000134
v -0.016983 0.010736 3.4e-05
v 0.035882 -0.00325 0.000869
v 0.035856 -0.003269 0.000741
v 0.035814 -0.0033 0.000617
v 0.035755 -0.003343 0.0005
v 0.035682 -0.003396 0.000391
v 0.035594 -0.00346 0.000293
v 0.035385 -0.003613 0.000134
v 0.035141 -0.003791 3.4e-05
v 0.018732 0.00116 2.9e-05
v 0.018757 0.001191 3.4e-05
v 0.018876 0.001335 0.000105
v 0.018923 0.001393 0.000134
v 0.019004 0.001492 0.000225
v 0.019065 0.001566 0.000293
v 0.019117 0.001628 0.000377
v 0.019171 0.001695 0.000503
v 0.019249 0.00179 0.000777
v 0.019241 0.00178 0.000742
v 0.019199 0.001728 0.000566
v -0.034987 -0.003896 0.017966
v -0.035228 -0.003751 0.017866
v -0.035435 -0.003627 0.017707
v -0.035522 -0.003575 0.017609
v -0.035594 -0.003532 0.0175
v -0.035652 -0.003497 0.017383
v -0.03572 -0.003457 0.017131
v -0.035694 -0.003472 0.017259
v 0.035882 -0.00325 0.017131
v 0.019261 0.001804 0.017131
v 0.035856 -0.003269 0.017259
v 0.019243 0.001782 0.017259
v 0.035814 -0.0033 0.017383
v 0.019214 0.001747 0.017383
v 0.035755 -0.003343 0.0175
v 0.019175 0.001699 0.0175
v 0.035682 -0.003396 0.017609
v 0.019125 0.001638 0.017609
v 0.035594 -0.00346 0.017707
v 0.019065 0.001566 0.017707
v 0.018923 0.001393 0.017866
v 0.035385 -0.003613 0.017866
v 0.018757 0.001191 0.017966
v 0.035141 -0.003791 0.017966
v 0.014344 0.010962 0.017259
v 0.014256 0.010915 0.0175
v 0.014116 0.01084 0.017707
v 0.013933 0.010742 0.017866
v 0.013721 0.010629 0.017966
v 0.013548 0.01076 0.017966
v 0.013599 0.010995 0.017866
v 0.013644 0.011198 0.017707
v 0.013678 0.011353 0.0175
v 0.013699 0.01145 0.017259
v 0.013707 0.011484 0.017
v 0.013601 0.010742 0.017966
v 0.013702 0.010961 0.017866
v 0.013788 0.011149 0.017707
v 0.013855 0.011293 0.0175
v 0.013897 0.011384 0.017259
v 0.013911 0.011415 0.017
v 0.013649 0.010713 0.017966
v 0.013794 0.010905 0.017866
v 0.013919 0.011071 0.017707
v 0.014015 0.011197 0.0175
v 0.014076 0.011277 0.017259
v 0.014096 0.011304 0.017
v 0.013689 0.010675 0.017966
v 0.013873 0.010831 0.017866
v 0.01403 0.010966 0.017707
v 0.014151 0.011069 0.0175
v 0.014227 0.011134 0.017259
v 0.014253 0.011156 0.017
v 0.014253 0.011156 0.001
v 0.014096 0.011304 0.001
v 0.013911 0.011415 0.001
v 0.013707 0.011484 0.001
v 0.014076 0.011277 0.000741
v 0.014227 0.011134 0.000741
v 0.014151 0.011069 0.0005
v 0.013699 0.01145 0.000741
v 0.014349 0.010964 0.000778
v 0.013678 0.011353 0.0005
v 0.013644 0.011198 0.000293
v 0.013897 0.011384 0.000741
v 0.013855 0.011293 0.0005
v 0.014015 0.011197 0.0005
v 0.013919 0.011071 0.000293
v 0.01403 0.010966 0.000293
v 0.013873 0.010831 0.000134
v 0.014344 0.010962 0.000741
v 0.014281 0.010928 0.000569
v 0.014256 0.010915 0.0005
v 0.014176 0.010872 0.000382
v 0.013599 0.010995 0.000134
v 0.013548 0.01076 3.4e-05
v 0.013601 0.010742 3.4e-05
v 0.013702 0.010961 0.000134
v 0.013649 0.010713 3.4e-05
v 0.013788 0.011149 0.000293
v 0.013794 0.010905 0.000134
v 0.013689 0.010675 3.4e-05
v 0.014116 0.01084 0.000293
v 0.014038 0.010798 0.000225
v 0.013933 0.010742 0.000134
v 0.013873 0.01071 0.000105
v 0.013721 0.010629 3.4e-05
v 0.013688 0.010611 2.9e-05
# 691 verticies
vt 0.844622 0.809246
vt 0.845013 0.828426
vt 0.99401 0.871397
vt 0.996146 0.852946
vt 0.985716 0.913502
vt 0.97354 0.949294
vt 0.958223 0.976624
vt 0.940686 0.993896
vt 0.92199 1
vt 0.903252 0.99459
vt 0.885617 0.978011
vt 0.870132 0.951236
vt 0.857747 0.915895
vt 0.849202 0.874137
vt 0.998199 0.809454
vt 0.998199 0.809246
vt 0.150966 0.858634
vt 0.153591 0.809246
vt 0.150966 0.759893
vt 0.1433 0.71387
vt 0.131096 0.674366
vt 0.115193 0.644054
vt 0.0966643 0.625013
vt 0.0767953 0.618493
vt 0.0569123 0.625013
vt 0.0383977 0.644054
vt 0.0224941 0.674366
vt 0.0102906 0.71387
vt 0.00261102 0.759893
vt 0 0.809246
vt 0.00261102 0.858634
vt 0.0102906 0.904623
vt 0.0224941 0.944127
vt 0.0383977 0.974439
vt 0.0569123 0.993514
vt 0.0767953 1
vt 0.0966643 0.993514
vt 0.115193 0.974439
vt 0.131096 0.944127
vt 0.1433 0.904623
vt 0.834681 0.809246
vt 0.163839 0.809246
vt 0.160837 0.809246
vt 0.837892 0.809246
vt 0.872939 0.630597
vt 0.758276 0.365276
vt 0.856965 0.665037
vt 0.844832 0.708078
vt 0.83725 0.757119
vt 0.159678 0.774564
vt 0.835812 0.774564
vt 0.985116 0.66306
vt 0.985884 0.537197
vt 0.972451 0.635071
vt 0.953965 0.609579
vt 0.0838465 0.601221
vt 0.104386 0.612042
vt 0.146595 0.363785
vt 0.151161 0.711997
vt 0.158547 0.76083
vt 0.254863 0.0469254
vt 0.891788 0.60677
vt 0.912398 0.594978
vt 0.933537 0.595949
vt 0.687248 0.0346825
vt 0.265502 0.0346825
vt 0.2625 0.0355148
vt 0.0139628 0.670586
vt 0.024756 0.645302
vt 0.0139628 0.53959
vt 0.042754 0.618389
vt 0.0628604 0.603371
vt 0.123208 0.63521
vt 0.139125 0.669233
vt 0.259638 0.037908
vt 0.257055 0.0417577
vt 1 0.511601
vt 0.998673 0.730552
vt 0.998785 0.711927
vt 0 0.518781
vt 0 0.724413
vt 0 0.707488
vt 0.997892 0.792148
vt 0.844929 0.792148
vt 0.993884 0.746263
vt 0.848923 0.746263
vt 0.857314 0.704193
vt 0.985493 0.704193
vt 0.973219 0.66847
vt 0.902651 0.624285
vt 0.885017 0.641279
vt 0.921404 0.618527
vt 0.940169 0.624285
vt 0.957804 0.641279
vt 0.869602 0.66847
vt 0.162708 0.774564
vt 0.985046 0.674921
vt 0.974671 0.649499
vt 0.161284 0.757327
vt 0.1538 0.708459
vt 0.141806 0.665487
vt 0.126 0.630909
vt 0.0658066 0.59477
vt 0.956869 0.621441
vt 0.93679 0.605383
vt 0.915735 0.602296
vt 0.895042 0.612423
vt 0.876038 0.635106
vt 0.045393 0.607602
vt 0.0268085 0.632227
vt 0.0139628 0.659626
vt 0.859911 0.668886
vt 0.847722 0.71165
vt 0.840224 0.760622
vt 0.839065 0.774564
vt 0.107318 0.60677
vt 0.0868624 0.594492
vt 0.767883 0.336281
vt 0.699563 0.018347
vt 0.687248 0
vt 0.265502 0
vt 0.137673 0.336281
vt 0.244223 0.0244858
vt 0.989095 0.687754
vt 0.998646 0.730344
vt 0.838786 0.779107
vt 0.838534 0.783547
vt 0.837892 0.808969
vt 0.837892 0.808067
vt 0.837906 0.80661
vt 0.83792 0.804599
vt 0.837948 0.802102
vt 0.83799 0.799084
vt 0.838074 0.795686
vt 0.838185 0.791905
vt 0.838339 0.787847
vt 0.991888 0.697985
vt 0.994708 0.709881
vt 0.996872 0.72039
vt 0.997612 0.724413
vt 0.998213 0.727812
vt 0.998548 0.729789
vt 0.988578 0.686124
vt 0.0111702 0.667222
vt 0.163839 0.808969
vt 0.0103883 0.669649
vt 2.79323e-05 0.707315
vt 0.000195474 0.706586
vt 0.000474744 0.705303
vt 0.0010891 0.702528
vt 0.00187099 0.699199
vt 0.00409111 0.69039
vt 0.0069814 0.680123
vt 0.163839 0.808067
vt 0.162987 0.779107
vt 0.163225 0.783547
vt 0.163406 0.787847
vt 0.16356 0.791905
vt 0.163658 0.795686
vt 0.163741 0.799084
vt 0.163783 0.802067
vt 0.163811 0.804599
vt 0.163825 0.80661
vt 0.0100253 0.682447
vt 2.79323e-05 0.724205
vt 0.159958 0.779107
vt 0.160209 0.783547
vt 0.160837 0.808969
vt 0.160837 0.808067
vt 0.160837 0.80661
vt 0.160823 0.804599
vt 0.160795 0.802102
vt 0.160739 0.799084
vt 0.16067 0.795686
vt 0.160558 0.791905
vt 0.160404 0.787847
vt 0.0069814 0.692991
vt 0.00409111 0.704505
vt 0.00187099 0.714633
vt 0.0010891 0.718517
vt 0.000474744 0.721812
vt 0.000125669 0.723685
vt 0.0103604 0.681441
vt 0.987908 0.670933
vt 0.834681 0.808969
vt 0.834681 0.808067
vt 0.835532 0.779107
vt 0.835295 0.783547
vt 0.8351 0.787847
vt 0.83496 0.791905
vt 0.834848 0.795686
vt 0.834778 0.799084
vt 0.834723 0.802067
vt 0.834695 0.804599
vt 0.834681 0.80661
vt 0.988634 0.673291
vt 0.998757 0.711789
vt 0.998604 0.711026
vt 0.998324 0.709708
vt 0.997724 0.706898
vt 0.99697 0.703499
vt 0.994806 0.694482
vt 0.991971 0.684008
vt 0.259498 0.00163007
vt 0.253773 0.0064162
vt 0.248607 0.0141504
vt 0.687248 0.0256997
vt 0.265502 0.0256997
vt 0.687248 0.0173412
vt 0.265502 0.0173412
vt 0.687248 0.0101619
vt 0.265502 0.0101619
vt 0.687248 0.00464743
vt 0.265502 0.00464743
vt 0.687248 0.00117916
vt 0.265502 0.00117916
vt 0.261732 0.0267402
vt 0.25813 0.0297575
vt 0.252503 0.0419311
vt 0.254863 0.0346131
vt 0.252112 0.0411334
vt 0.250269 0.037249
vt 0.252824 0.027954
vt 0.249543 0.0356882
vt 0.248272 0.0330524
vt 0.251079 0.0222314
vt 0.247337 0.0310408
vt 0.246611 0.0295147
vt 0.249738 0.0178614
vt 0.245647 0.0275032
vt 0.24534 0.0268442
vt 0.248886 0.0150868
vt 0.244586 0.0252488
vt 0.24453 0.0251448
vt 0.256706 0.0221621
vt 0.255491 0.0156417
vt 0.254569 0.0106475
vt 0.253983 0.00749135
vt 0.261006 0.0185551
vt 0.260378 0.0115492
vt 0.259903 0.00617343
vt 0.25961 0.00277454
vt 0.144612 0.357646
vt 0.144305 0.356675
vt 0.142727 0.351854
vt 0.142169 0.35012
vt 0.141038 0.346651
vt 0.140326 0.344466
vt 0.139628 0.342281
vt 0.138916 0.340096
vt 0.138553 0.339021
vt 0.138008 0.337322
vt 0.137896 0.336975
vt 0.0103464 0.534214
vt 0.0069814 0.529185
vt 0.00106117 0.520376
vt 0.00187099 0.52159
vt 0.00287635 0.523081
vt 0.00409111 0.524885
vt 0.000111729 0.518989
vt 0.000474744 0.519509
vt 0.144612 0.35768
vt 0.142755 0.351923
vt 0.144291 0.356675
vt 0.14108 0.34679
vt 0.142141 0.350016
vt 0.140284 0.344328
vt 0.999874 0.511809
vt 0.999511 0.512468
vt 0.998925 0.513544
vt 0.998101 0.515035
vt 0.997082 0.516873
vt 0.995853 0.519093
vt 0.992935 0.524399
vt 0.989528 0.530573
vt 0.760413 0.35886
vt 0.760762 0.357784
vt 0.762423 0.35279
vt 0.76308 0.350779
vt 0.764211 0.347345
vt 0.765062 0.344779
vt 0.765788 0.342628
vt 0.766542 0.340304
vt 0.767631 0.33701
vt 0.76752 0.337357
vt 0.766933 0.33916
vt 0.767799 0.336524
vt 0.767548 0.337287
vt 0.767143 0.338501
vt 0.766598 0.340166
vt 0.7659 0.342281
vt 0.699144 0.0189019
vt 0.697915 0.020532
vt 0.695961 0.0231332
vt 0.693405 0.0265321
vt 0.690445 0.0304512
vt 0.68803 0.0259078
vt 0.688742 0.0177574
vt 0.68937 0.0107169
vt 0.689845 0.00534105
vt 0.690138 0.00197685
vt 0.69025 0.000797689
vt 0.68877 0.0265321
vt 0.69018 0.0189366
vt 0.691381 0.0124163
vt 0.692316 0.00742203
vt 0.692903 0.0042659
vt 0.693098 0.00319076
vt 0.68944 0.0275379
vt 0.691465 0.0208788
vt 0.69321 0.0151215
vt 0.69455 0.0107515
vt 0.695402 0.00797689
vt 0.695681 0.0070405
vt 0.689998 0.0288558
vt 0.692568 0.0234453
vt 0.69476 0.0187632
vt 0.696449 0.0151909
vt 0.69751 0.0129365
vt 0.697873 0.0121735
vt 0.699214 0.0188326
vt 0.698264 0.0200811
vt 0.696798 0.0220233
vt 0.694871 0.0245898
vt 0.692568 0.0276419
vt 0.689984 0.0310755
# 326 texture verticies
vn -0.999996 -0.00299674 0
vn -0.995603 -0.093676 0
vn 0.933213 -0.359323 0
vn 0.9854 -0.170254 0
vn 0.97465 -0.223734 0
vn 0.933213 -0.359323 0
vn 0.859231 -0.511587 0
vn 0.814126 -0.580689 0
vn 0.708461 -0.70575 0
vn 0.64791 -0.761717 0
vn 0.515241 -0.857045 0
vn 0.443151 -0.896447 0
vn 0.291128 -0.956684 0
vn 0.211167 -0.97745 0
vn 0.0487196 -0.998812 0
vn -0.0337645 -0.99943 0
vn -0.196283 -0.980547 0
vn -0.27632 -0.961066 0
vn -0.429306 -0.903159 0
vn -0.502251 -0.864722 0
vn -0.636595 -0.771199 0
vn -0.69799 -0.716107 0
vn -0.805401 -0.59273 0
vn -0.851435 -0.524459 0
vn -0.925554 -0.378616 0
vn -0.953614 -0.301031 0
vn -0.986232 -0.165368 0
vn -0.998721 -0.0505702 0
vn 0.998298 -0.058313 0
vn 0.999244 -0.038868 0
vn 0.999922 -0.0125145 -4.55361e-06
vn 0.999982 0.00592127 0
vn 0.999558 0.0297289 0
vn 0.965899 -0.258918 0
vn 1 4.55651e-05 0
vn 0.999653 -0.0263591 0
vn 0.976309 0.216382 0
vn 0.95369 0.30079 0
vn 0.887244 0.461301 0
vn 0.843345 0.537373 0
vn 0.737426 0.675428 0
vn 0.675428 0.737426 0
vn 0.537373 0.843344 0
vn 0.461301 0.887244 0
vn 0.30079 0.95369 0
vn 0.216382 0.976309 0
vn 0.0440258 0.99903 0
vn -0.0439347 0.999034 0
vn -0.216408 0.976303 0
vn -0.300932 0.953646 0
vn -0.461459 0.887161 0
vn -0.537448 0.843297 0
vn -0.675428 0.737426 0
vn -0.737426 0.675428 0
vn -0.84323 0.537554 0
vn -0.887045 0.461684 0
vn -0.953629 0.300983 0
vn -0.976363 0.216138 0
vn -0.999041 0.0437918 0
vn -0.999465 -0.0327194 0
vn -0.980865 -0.19469 0
vn -0.998637 -0.0521872 0
vn -0.953585 -0.301125 0
vn -0.886962 -0.461842 0
vn -0.843182 -0.537628 0
vn -0.737426 -0.675428 0
vn -0.675428 -0.737426 0
vn -0.537628 -0.843182 0
vn -0.461841 -0.886962 0
vn -0.301124 -0.953585 0
vn -0.216165 -0.976357 0
vn -0.0437012 -0.999045 0
vn 0.0437918 -0.999041 0
vn 0.216138 -0.976363 0
vn 0.300982 -0.95363 0
vn 0.461683 -0.887045 0
vn 0.537553 -0.84323 0
vn 0.675428 -0.737426 0
vn 0.737426 -0.675428 0
vn 0.843297 -0.537448 0
vn 0.887162 -0.461459 0
vn 0.976303 -0.216408 0
vn 0.991397 -0.130887 0
vn 0 -1 0
vn 1.81935e-07 -0.999847 0.0174893
vn -1.81835e-07 -0.999847 -0.0174893
vn 0 -0.999884 0.0152442
vn 0 -0.999884 -0.0152442
vn 0 0 1
vn 0.0173763 0.0283055 0.999448
vn -1.36314e-07 -0.0253185 0.999679
vn 0 -0.0342846 0.999412
vn 0.0785391 -0.000595678 0.996911
vn 0.0241212 0.0175635 0.999555
vn -0.0181711 0.0195979 0.999643
vn -0.0471975 0.0446613 0.997887
vn 0.0552048 0.0790101 0.995344
vn -0.00291135 0.0782504 0.99693
vn -0.0141829 0.077035 0.996927
vn -0.0906007 -0.000244837 0.995887
vn -0.0407962 0.0355615 0.998535
vn -0.0302869 0.0723022 0.996923
vn -0.0524342 0.069229 0.996222
vn 0.999631 -0.015037 -0.0226445
vn 0.999589 -0.0148299 -0.0245382
vn 0.999631 -0.0150465 0.0226352
vn 0.999697 -0.0148485 0.0196288
vn 0.99995 -0.00997749 0
vn 0.999923 0.0123702 0
vn -0.999535 0 0.0304991
vn -0.999793 0 -0.0203316
vn -0.999918 0.000101572 0.0128443
vn -0.999837 0.000152893 -0.0180693
vn -0.999054 -0.0434828 0
vn -0.999762 -0.02182 0
vn 0.0483894 0.0955263 -0.99425
vn 0.0222311 0.0205489 -0.999542
vn -0.0048404 0.065203 -0.99786
vn 0 -0.00623219 -0.999981
vn 0.0295458 0.0353629 -0.998938
vn 0.0931281 -0.00177799 -0.995653
vn 0 0 -1
vn -0.0145309 0.0180203 -0.999732
vn -0.0361554 0.0328179 -0.998807
vn -0.0575334 0.0525131 -0.996962
vn -0.0494378 0.0605356 -0.996941
vn -0.0774223 0.000689887 -0.996998
vn 4.434e-07 -0.0823688 -0.996602
vn -0.0353718 0.069947 -0.996923
vn -0.0196789 0.0758439 -0.996925
vn -0.976357 -0.216165 0
vn -0.965905 -0.258895 0
vn 0.953646 -0.300931 0
vn 0.980794 -0.195045 0
vn 0.999034 -0.043935 0
vn 0.99903 0.044026 0
vn -1 4.5328e-05 0
vn -0.990603 -0.136768 0
vn -0.999917 0.0128786 0
vn -0.999641 -0.0268045 0
vn 0.98039 -0.197067 0
vn -0.994145 -0.108054 0
vn 0.999751 0.0222973 0
vn 0.290461 0.955216 -0.056518
vn 0.290775 0.956256 0.0320149
vn 0.290489 0.955858 -0.0441751
vn 0.290778 0.95626 0.0318558
vn 0.882196 0.470883 0
vn 0.0715239 0.99528 -0.0655851
vn -0.0361904 0.997217 -0.0651755
vn 0.035427 0.997245 0.0651775
vn -0.0723323 0.995262 0.06497
vn -0.762379 0.647131 0
vn -0.47054 0.881703 -0.0345217
vn -0.470144 0.881424 0.0453436
vn -0.575111 0.814925 -0.0717268
vn -0.575185 0.814482 0.076032
vn -0.991723 0.128393 0
vn 0.991677 0.128751 0
vn -0.991723 0.128393 0
vn -0.956778 0.29082 0
vn -0.929468 0.368904 0
vn -0.856595 0.51599 0
vn -0.811037 0.584995 0
vn -0.704606 0.709599 0
vn -0.643764 0.765224 0
vn -0.510029 0.860157 0
vn -0.4371 0.899413 0
vn -0.283945 0.95884 0
vn -0.203726 0.979028 0
vn -0.0411962 0.999151 0
vn 0.0411059 0.999155 0
vn 0.203667 0.97904 0
vn 0.283917 0.958849 0
vn 0.4371 0.899413 0
vn 0.510029 0.860157 0
vn 0.643906 0.765105 0
vn 0.704872 0.709335 0
vn 0.811256 0.584691 0
vn 0.856691 0.51583 0
vn 0.92938 0.369125 0
vn 0.956637 0.291281 0
vn -0.873927 -0.485614 -0.0207629
vn -0.873898 -0.485814 -0.0169118
vn -0.842628 -0.537456 -0.0334602
vn 0.988692 -0.148175 -0.0230662
vn 0.984099 -0.177314 -0.0103993
vn 0.987164 -0.156681 -0.030969
vn 0.99039 -0.134549 -0.031987
vn 0.992954 -0.118276 -0.007223
vn 0.992952 -0.117501 -0.0154661
vn 0.992869 -0.11602 -0.0273877
vn 0.992828 -0.113093 -0.0387691
vn 0.992733 -0.109522 -0.0498553
vn 0.992701 -0.106008 -0.0575117
vn 0.992649 -0.106175 -0.0580974
vn 0.992596 -0.108726 -0.0541454
vn 0.992382 -0.112566 -0.0500615
vn 0.991792 -0.120613 -0.0424367
vn -0.807236 -0.590229 0
vn -0.842658 -0.538332 -0.011228
vn -0.864818 -0.500482 -0.0400977
vn -0.87407 -0.480932 -0.0685962
vn -0.875419 -0.477442 -0.0754427
vn -0.874733 -0.480598 -0.0621934
vn -0.874223 -0.483972 -0.0387879
vn 0.960079 -0.27973 0
vn 0.901556 -0.432663 0
vn 0.861759 -0.507318 0
vn 0.764458 -0.644673 0
vn 0.706887 -0.707326 0
vn 0.578243 -0.815864 0
vn 0.507225 -0.861814 0
vn 0.355717 -0.934594 0
vn 0.275209 -0.961384 0
vn 0.110022 -0.993929 0
vn 0.0253414 -0.999679 0
vn -0.142445 -0.989803 0
vn -0.225555 -0.974231 0
vn -0.385665 -0.922639 0
vn -0.462643 -0.886545 0
vn -0.594272 -0.804264 0
vn -0.659959 -0.751174 -0.0138269
vn -0.740804 -0.671582 -0.0137105
vn -0.7865 -0.61759 7.63386e-05
vn -0.992574 -0.120607 -0.0158138
vn -0.992583 -0.121337 -0.00746697
vn -0.989056 -0.142918 -0.0366448
vn 0.779397 -0.626531 0.000221171
vn 0.760051 -0.649864 0
vn 0.795529 -0.605142 -0.0306064
vn 0.68732 -0.726291 -0.00962456
vn 0.569328 -0.822078 -0.00725716
vn 0.823316 -0.567314 -0.0174878
vn 0.823336 -0.567233 -0.0191052
vn 0.823956 -0.565638 -0.0339106
vn 0.82504 -0.56224 -0.0565216
vn 0.825665 -0.56022 -0.0665593
vn 0.824896 -0.561782 -0.0628346
vn 0.817851 -0.573713 -0.0444234
vn 0.795055 -0.606354 -0.0149549
vn -0.992476 -0.119162 -0.0281383
vn -0.988935 -0.145359 -0.0296307
vn -0.990745 -0.129273 -0.0413905
vn -0.991622 -0.11932 -0.0494847
vn -0.992014 -0.112277 -0.0574574
vn -0.992196 -0.108872 -0.0607819
vn -0.992144 -0.109478 -0.0605452
vn -0.99219 -0.109311 -0.0600828
vn -0.992266 -0.112633 -0.052165
vn -0.992405 -0.116294 -0.0401135
vn 0.564459 -0.825461 0
vn 0.398142 -0.917324 0
vn 0.322546 -0.946554 0
vn 0.166417 -0.986055 0
vn 0.0858782 -0.996306 0
vn -0.0752465 -0.997165 0
vn -0.155833 -0.987783 0
vn -0.312451 -0.949934 0
vn -0.388481 -0.921457 0
vn -0.53143 -0.847102 0
vn -0.598354 -0.801232 0
vn -0.719257 -0.694745 0
vn -0.773232 -0.634124 0
vn -0.865078 -0.501637 0
vn -0.902941 -0.429765 0
vn -0.952375 -0.304929 0
vn -0.984157 -0.176861 -0.0124843
vn 0.859846 -0.510084 0.0218843
vn 0.859828 -0.510213 0.0194348
vn 0.82785 -0.559982 0.0329337
vn -0.988735 -0.148046 0.0220405
vn -0.984275 -0.176368 0.00988546
vn -0.987397 -0.155225 0.0308508
vn -0.990459 -0.134284 0.0309619
vn -0.993145 -0.116673 0.00712515
vn -0.993143 -0.115906 0.015256
vn -0.993037 -0.113732 0.0307172
vn -0.992912 -0.111163 0.042044
vn -0.99285 -0.108678 0.0493669
vn -0.992825 -0.106987 0.0534148
vn -0.992859 -0.104835 0.056925
vn -0.992801 -0.105697 0.0563451
vn -0.99249 -0.112036 0.0491171
vn -0.991884 -0.120205 0.0414304
vn 0.792008 -0.610511 0
vn 0.828292 -0.560171 0.0118662
vn 0.851227 -0.52319 0.0410499
vn 0.860081 -0.505924 0.0655852
vn 0.861444 -0.502426 0.0740428
vn 0.861019 -0.504827 0.0616182
vn 0.860144 -0.50877 0.0361444
vn -0.960895 -0.276911 0
vn -0.903566 -0.428449 0
vn -0.864448 -0.502722 0
vn -0.769142 -0.639077 0
vn -0.712984 -0.70118 0
vn -0.586937 -0.809632 0
vn -0.517035 -0.855964 0
vn -0.367746 -0.929926 0
vn -0.288346 -0.957526 0
vn -0.125456 -0.992099 0
vn -0.041976 -0.999119 0
vn 0.124331 -0.992241 0
vn 0.207156 -0.978308 0
vn 0.36643 -0.930446 0
vn 0.442896 -0.896573 0
vn 0.575474 -0.81782 0
vn 0.641943 -0.76664 0.0131079
vn 0.724329 -0.689331 0.0130206
vn 0.771037 -0.636791 -3.77552e-05
vn 0.991677 0.128751 0
vn 0.92938 0.369125 0
vn 0.856691 0.51583 0
vn 0.643906 0.765105 0
vn 0.283917 0.958849 0
vn -0.811037 0.584995 0
vn 0.992552 -0.120784 0.0158372
vn 0.992562 -0.121512 0.00747775
vn 0.988939 -0.143629 0.0370197
vn 0.992419 -0.118671 0.0319624
vn 0.98893 -0.145375 0.0297396
vn 0.990421 -0.132438 0.0390695
vn 0.991515 -0.119857 0.0503264
vn 0.991993 -0.112284 0.057813
vn 0.992077 -0.10959 0.0614278
vn 0.992114 -0.109597 0.0608109
vn 0.992097 -0.111735 0.0570796
vn 0.992154 -0.113411 0.0526107
vn 0.992257 -0.116106 0.0441078
vn -0.792724 -0.60958 -0.000241918
vn -0.772812 -0.634635 0
vn -0.807675 -0.588852 0.0302429
vn -0.700146 -0.713932 0.00980011
vn -0.583442 -0.812121 0.00738997
vn -0.834948 -0.550274 0.00780615
vn -0.835116 -0.549757 0.0186697
vn -0.83546 -0.54832 0.0367603
vn -0.836294 -0.545686 0.0532777
vn -0.837255 -0.542777 0.0663124
vn -0.836733 -0.543749 0.0649145
vn -0.829269 -0.557082 0.044413
vn -0.807132 -0.590198 0.0142856
vn -0.578549 -0.815647 0
vn -0.412785 -0.910829 0
vn -0.336972 -0.941515 0
vn -0.180306 -0.983611 0
vn -0.09946 -0.995042 0
vn 0.0629159 -0.998019 0
vn 0.144446 -0.989513 0
vn 0.302834 -0.953043 0
vn 0.379699 -0.92511 0
vn 0.524329 -0.851516 0
vn 0.5921 -0.805865 0
vn 0.714813 -0.699315 0
vn 0.769722 -0.638379 0
vn 0.86298 -0.505237 0
vn 0.901366 -0.433058 0
vn 0.951778 -0.306788 0
vn 0.984194 -0.176653 0.0125161
vn 0.991476 -0.130291 0
vn 0.976363 -0.216138 0
vn 0.953629 -0.300983 0
vn 0.887045 -0.461684 0
vn 0.84323 -0.537554 0
vn 0.737426 -0.675428 0
vn 0.675428 -0.737426 0
vn 0.537448 -0.843297 0
vn 0.461459 -0.887161 0
vn 0.300932 -0.953646 0
vn 0.216408 -0.976303 0
vn 0.0439347 -0.999034 0
vn -0.0440258 -0.99903 0
vn -0.216382 -0.976309 0
vn -0.30079 -0.95369 0
vn -0.461301 -0.887244 0
vn -0.537373 -0.843344 0
vn -0.675428 -0.737426 0
vn -0.737426 -0.675428 0
vn -0.843345 -0.537373 0
vn -0.887244 -0.461301 0
vn -0.95369 -0.30079 0
vn -0.976309 -0.216382 0
vn -0.991385 -0.130977 0
vn -0.991677 -0.128751 0
vn -0.999006 -0.0445835 0
vn 0.991723 -0.128393 0
vn 0.999006 -0.0445835 0
vn 0.991723 -0.128393 0
vn 0.956778 -0.29082 0
vn 0.929468 -0.368904 0
vn 0.856595 -0.51599 0
vn 0.811037 -0.584995 0
vn 0.704606 -0.709599 0
vn 0.643764 -0.765224 0
vn 0.510029 -0.860157 0
vn 0.4371 -0.899413 0
vn 0.283945 -0.95884 0
vn 0.203726 -0.979028 0
vn 0.0411962 -0.999151 0
vn -0.0411059 -0.999155 0
vn -0.203667 -0.97904 0
vn -0.283917 -0.958849 0
vn -0.4371 -0.899413 0
vn -0.510029 -0.860157 0
vn -0.643906 -0.765105 0
vn -0.704872 -0.709335 0
vn -0.811256 -0.584691 0
vn -0.856691 -0.51583 0
vn -0.92938 -0.369125 0
vn -0.956637 -0.291281 0
vn -0.179269 0.981643 -0.0651097
vn -0.249767 0.966099 0.0653425
vn -0.386048 0.920133 -0.0657441
vn -0.451583 0.889821 0.0655049
vn -0.591571 0.802819 -0.0743269
vn -0.633073 0.771389 0.0646353
vn -0.706077 0.705149 -0.0649646
vn -0.723167 0.684379 0.0930349
vn 0.0164767 0.258992 0.965739
vn -0.0120259 0.258893 0.965831
vn 0.029409 0.49985 0.865612
vn -0.0252481 0.500178 0.865555
vn 0.0390671 0.70664 0.706494
vn -0.0367449 0.706666 0.706592
vn 0.0481341 0.86489 0.499649
vn -0.0460556 0.864922 0.499788
vn 0.0533659 0.964336 0.259244
vn -0.0519186 0.964572 0.25866
vn -0.051293 0.253541 0.965964
vn -0.104206 0.236643 0.965992
vn -0.115997 0.106622 0.98751
vn -0.169268 0.219466 0.960824
vn -0.202396 0.186158 0.961447
vn -0.299047 0.281266 0.911844
vn -0.317731 0.408023 0.8559
vn -0.373436 0.34534 0.860979
vn -0.455166 0.429807 0.779801
vn -0.443825 0.567987 0.693116
vn -0.520017 0.48151 0.7055
vn -0.583916 0.552281 0.595002
vn -0.539164 0.68874 0.484706
vn -0.63195 0.58521 0.508103
vn -0.673383 0.636941 0.375315
vn -0.599258 0.763347 0.24123
vn -0.705709 0.652862 0.27522
vn -0.71299 0.688888 0.130683
vn -0.206071 0.455605 0.866002
vn -0.294016 0.64351 0.706717
vn -0.361605 0.786881 0.500059
vn -0.403985 0.877007 0.260105
vn -0.10359 0.489207 0.865994
vn -0.149051 0.691368 0.706961
vn -0.184369 0.846012 0.500271
vn -0.206832 0.943386 0.259314
vn -0.120485 0.157324 0.98017
vn -0.183657 0.219632 0.95814
vn -0.258733 0.321273 0.910956
vn -0.324333 0.379053 0.866676
vn -0.382862 0.475147 0.792245
vn -0.446184 0.516822 0.730627
vn -0.486654 0.60157 0.633467
vn -0.520619 0.648009 0.555914
vn -0.565666 0.700621 0.434916
vn -0.572294 0.753133 0.324454
vn -0.638203 0.748478 0.180217
vn -0.203797 0.102449 -0.973638
vn -0.227208 5.97546e-05 -0.973846
vn -0.694088 -0.000472564 -0.71989
vn -0.379193 0.262226 -0.887384
vn -0.452719 -0.000655093 -0.891653
vn -0.351523 -0.00194812 -0.936177
vn -0.923083 7.97933e-06 -0.384601
vn -0.866827 0 -0.49861
vn -0.857157 -0.000449765 -0.515055
vn -0.792719 -0.000626994 -0.609586
vn -0.681559 0 -0.731763
vn -0.994685 0.000163336 -0.102967
vn -0.922551 1.5959e-05 -0.385874
vn -0.95851 -1.77415e-05 -0.28506
vn -0.969832 6.72755e-05 -0.243773
vn -0.98419 -3.74575e-05 -0.177118
vn -0.997142 0.000225469 -0.0755554
vn -0.0165637 0.258684 -0.96582
vn 0.0110869 0.284337 -0.95866
vn -0.0292565 0.500238 -0.865394
vn 0.025589 0.500367 -0.865435
vn -0.0402267 0.706557 -0.706511
vn 0.0361983 0.706455 -0.706832
vn -0.0484097 0.864572 -0.500171
vn 0.0449364 0.864983 -0.499784
vn -0.0530927 0.964515 -0.258634
vn 0.0522706 0.964699 -0.258117
vn -0.0846034 0.099103 -0.991474
vn -0.225811 0.302861 -0.925897
vn -0.187002 0.209013 -0.959866
vn -0.320795 0.601082 -0.731977
vn -0.377579 0.468274 -0.798845
vn -0.308933 0.359653 -0.88046
vn -0.466996 0.875288 -0.125641
vn -0.613902 0.761066 -0.209528
vn -0.451168 0.845698 -0.28503
vn -0.588477 0.731204 -0.345014
vn -0.438035 0.821184 -0.365763
vn -0.535473 0.719197 -0.442747
vn -0.404795 0.759053 -0.509882
vn -0.538113 0.663286 -0.520083
vn -0.381986 0.716277 -0.583982
vn -0.510963 0.597577 -0.617915
vn -0.432374 0.499323 -0.750819
vn -0.209129 0.942855 -0.259402
vn -0.406596 0.875938 -0.259639
vn -0.720653 0.681451 -0.127611
vn -0.594056 0.755028 -0.277542
vn -0.705709 0.652862 -0.275218
vn -0.670664 0.625313 -0.398991
vn -0.529574 0.672604 -0.516871
vn -0.631992 0.585265 -0.507987
vn -0.571228 0.552928 -0.606605
vn -0.429927 0.544967 -0.719843
vn -0.525914 0.486805 -0.697449
vn -0.442204 0.41856 -0.793261
vn -0.300718 0.379986 -0.874745
vn -0.386235 0.356317 -0.8508
vn -0.280968 0.261838 -0.923308
vn -0.150465 0.188192 -0.970538
vn -0.1725 0.16079 -0.971797
vn -0.0954674 0.0923295 -0.991141
vn -0.36559 0.784821 -0.500399
vn -0.300157 0.640791 -0.706607
vn -0.213634 0.451986 -0.866065
vn -0.112577 0.232926 -0.965956
vn -0.188966 0.844791 -0.50062
vn -0.155544 0.690174 -0.706729
vn -0.111779 0.48746 -0.865961
vn -0.0603875 0.25137 -0.966006
vn 0.994797 -0.0147458 -0.100805
vn 0.997518 -0.0146089 -0.0688728
vn 0.98574 -0.0147741 -0.167628
vn 0.97117 -0.0145391 -0.237942
vn 0.959805 -0.0144221 -0.280296
vn 0.931574 -0.0139962 -0.363283
vn 0.914295 -0.0137027 -0.404816
vn 0.87659 -0.0130601 -0.48106
vn 0.821761 -0.0130015 -0.569684
vn 0.793014 -0.0133408 -0.609057
vn 0.694392 -0.0111353 -0.719511
vn 0.70642 -0.0105303 -0.707714
vn 0.542859 -0.00811881 -0.839784
vn 0.467061 -0.00670669 -0.8842
vn 0.314506 -0.0047995 -0.949243
vn 0.141917 0.123359 -0.982162
vn 0.151979 -0.00340605 -0.988378
vn 0.0697244 0.10049 -0.992492
vn 0.152914 0.186406 -0.9705
vn 0.212331 0.24618 -0.94568
vn 0.145839 0.479577 -0.865296
vn 0.311045 0.329725 -0.891365
vn 0.367298 0.44707 -0.81561
vn 0.198347 0.652302 -0.731547
vn 0.44133 0.461274 -0.769711
vn 0.488422 0.590021 -0.642899
vn 0.235895 0.776344 -0.584503
vn 0.248961 0.819063 -0.51687
vn 0.286875 0.94326 -0.167221
vn 0.285306 0.938317 -0.19535
vn 0.279052 0.917234 -0.284274
vn 0.278756 0.91753 -0.283608
vn 0.266931 0.877928 -0.39748
vn 0.261875 0.861446 -0.435124
vn 0.25177 0.82907 -0.499254
vn -1.80248e-06 -0.994218 -0.107376
vn -1.80243e-06 -0.988225 -0.15301
vn -1.37695e-06 -0.970877 -0.239577
vn -2.38219e-07 -0.946667 -0.322212
vn -0.000181073 -0.923609 -0.383337
vn -2.38187e-07 -0.897067 -0.441894
vn 0.000180598 -0.923609 -0.383337
vn -8.33058e-06 -0.830932 -0.556374
vn -0.000192301 -0.793117 -0.609069
vn -8.32907e-06 -0.750657 -0.660692
vn 0.000175598 -0.792928 -0.609316
vn 8.25276e-06 -0.660683 -0.750665
vn -0.000175603 -0.609306 -0.792935
vn 8.25425e-06 -0.556364 -0.830939
vn 0.000192153 -0.60906 -0.793124
vn 1.36932e-07 -0.441876 -0.897076
vn -0.000180477 -0.383315 -0.923618
vn 1.36977e-07 -0.320777 -0.947155
vn 0.00018075 -0.383319 -0.923616
vn 4.44174e-07 -0.193965 -0.981008
vn -0.000167475 -0.130342 -0.991469
vn 0.000168361 -0.130346 -0.991469
vn -0.173561 0.130653 0.976118
vn -0.349382 0.269585 0.897361
vn -0.327142 0.61317 0.719027
vn -0.381986 0.716277 0.583982
vn -0.404795 0.759054 0.509881
vn -0.438035 0.821184 0.365763
vn -0.461174 0.863969 0.202179
vn -0.454626 0.852526 0.257905
vn -0.995145 0.000158694 0.0984222
vn -0.997788 0.000315533 0.0664704
vn -0.985862 -2.58182e-05 0.167561
vn -0.970748 9.46735e-07 0.240103
vn -0.9598 1.66657e-06 0.280685
vn -0.931954 5.268e-05 0.362577
vn -0.913911 5.26859e-05 0.405914
vn -0.875787 5.09934e-05 0.482697
vn -0.820951 -0.000834332 0.570998
vn -0.793514 -0.00166525 0.60855
vn -0.694653 -0.000836141 0.719344
vn -0.707105 0 0.707109
vn -0.540704 0 0.841213
vn -0.314871 -6.29889e-05 0.949135
vn -0.152307 -0.000734457 0.988333
vn 0.289202 0.951088 0.108603
vn 0.287417 0.945258 0.154528
vn 0.28241 0.928826 0.239846
vn 0.279175 0.918223 0.28094
vn 0.271067 0.891558 0.362831
vn 0.266269 0.875718 0.402763
vn 0.255273 0.839495 0.479671
vn 0.249121 0.819256 0.516486
vn 0.234613 0.771596 0.591267
vn 0.485115 0.585992 0.649058
vn 0.198527 0.652904 0.730961
vn 0.442141 0.46217 0.768707
vn 0.287725 0.373283 0.881972
vn 0.352501 0.227467 0.907745
vn 0.139803 0.195877 0.970612
vn 0.192282 0.0756091 0.978423
vn 0.994605 -0.0146764 0.10269
vn 0.857138 -0.0132277 0.514917
vn 0.922882 -0.013891 0.384831
vn 0.923288 -0.0138395 0.383858
vn 0.95803 -0.0143733 0.286306
vn 0.969702 -0.0143862 0.243866
vn 0.984264 -0.0146675 0.176092
vn 0.997252 -0.0146299 0.0726209
vn 0.865811 -0.0129063 0.500205
vn 0.792432 -0.012371 0.609835
vn 0.693976 -0.0107676 0.719917
vn 0.68165 -0.0101097 0.731609
vn 0.452386 -0.00738424 0.891792
vn 0.352778 -0.00707839 0.93568
vn 0.229632 -0.00345562 0.973271
vn -0.000168437 -0.130341 0.991469
vn -4.44218e-07 -0.193965 0.981008
vn 0.000167551 -0.130338 0.99147
vn -1.41208e-07 -0.32078 0.947154
vn -0.000180801 -0.383319 0.923616
vn -1.41162e-07 -0.441876 0.897076
vn 0.00018052 -0.383314 0.923618
vn -8.26291e-06 -0.556365 0.830938
vn -0.000192223 -0.609064 0.793121
vn -8.26142e-06 -0.660684 0.750664
vn 0.000175657 -0.609309 0.792933
vn 8.3362e-06 -0.750656 0.660693
vn -0.000175661 -0.792927 0.609317
vn 8.33772e-06 -0.830931 0.556375
vn 0.000192378 -0.793115 0.609072
vn 2.34388e-07 -0.897068 0.441893
vn -0.000180664 -0.923609 0.383335
vn 2.3442e-07 -0.946668 0.322211
vn 1.80347e-06 -0.994218 0.107377
vn 1.80342e-06 -0.988225 0.153011
vn 1.37771e-06 -0.970877 0.239578
vn 0.000181132 -0.923609 0.383336
vn 0.880306 0.469874 0.0654246
vn 0.843915 0.531066 0.0760031
vn 0.87432 0.46696 0.132338
vn 0.825972 0.490798 0.277284
vn 0.851526 0.454426 0.261535
vn 0.815521 0.435544 0.381087
vn 0.736804 0.437874 0.515157
vn 0.765053 0.408344 0.497945
vn 0.598788 0.360711 0.71508
vn 0.429716 0.257468 0.86548
vn 0.245251 0.144759 0.958591
vn 0.06897 0.276124 0.958644
vn 0.111295 0.48767 0.865905
vn 0.15567 0.689389 0.707467
vn 0.187752 0.845629 0.499661
vn 0.208534 0.943031 0.259241
vn 0.178937 0.98162 0.0663585
vn 0.127759 0.254107 0.958701
vn 0.213278 0.452453 0.865909
vn 0.299023 0.641056 0.706846
vn 0.36569 0.784556 0.500742
vn 0.404987 0.876984 0.258621
vn 0.385564 0.920331 0.0658027
vn 0.178757 0.221427 0.958653
vn 0.305903 0.395639 0.865964
vn 0.429661 0.561595 0.707108
vn 0.52424 0.688903 0.500584
vn 0.584204 0.769048 0.259367
vn 0.573182 0.816873 0.0646593
vn 0.221777 0.178483 0.958623
vn 0.383293 0.321144 0.865998
vn 0.539826 0.45648 0.707258
vn 0.660218 0.560335 0.500137
vn 0.736082 0.625212 0.259407
vn 0.735546 0.674351 0.0649811
vn 0.852043 0.515173 -0.0928432
vn 0.782228 0.619598 -0.0649415
vn 0.631021 0.773063 -0.0646937
vn 0.450904 0.890205 -0.0649687
vn 0.249142 0.966189 -0.0663843
vn 0.582178 0.770634 -0.259215
vn 0.747887 0.618034 -0.242279
vn 0.674039 0.55825 -0.483764
vn 0.20612 0.943536 -0.259334
vn 0.842239 0.522185 -0.134
vn 0.184856 0.846391 -0.49945
vn 0.147777 0.691095 -0.707495
vn 0.402522 0.877661 -0.260169
vn 0.360643 0.787408 -0.499925
vn 0.520519 0.691643 -0.500689
vn 0.423581 0.566032 -0.707239
vn 0.554435 0.460318 -0.693333
vn 0.396962 0.331323 -0.855947
vn 0.827779 0.488468 -0.27601
vn 0.794166 0.480125 -0.372533
vn 0.742511 0.438663 -0.506213
vn 0.687349 0.415603 -0.595672
vn 0.10283 0.489423 -0.865963
vn 0.0533105 0.279644 -0.958623
vn 0.111743 0.261679 -0.958664
vn 0.206532 0.455484 -0.865955
vn 0.166096 0.231144 -0.958637
vn 0.294273 0.643161 -0.706928
vn 0.299097 0.40102 -0.865866
vn 0.210931 0.179803 -0.960822
vn 0.616484 0.364062 -0.698145
vn 0.521169 0.314946 -0.793216
vn 0.45411 0.265922 -0.850335
vn 0.330209 0.201315 -0.92219
vn 0.22147 0.134211 -0.965887
vn 0.145777 0.0824613 -0.985875
vn 0.730575 0.389782 -0.560652
vn 0.801499 0.428102 -0.417526
vn 0.828197 0.442053 -0.344498
vn 0.868276 0.463516 -0.176775
vn 0.876364 0.46777 -0.11479
# 745 normals
usemtl Material__1
f 1/1/1 2/1/1 3/2/2
f 4/3/3 5/4/4 6/4/5
f 6/4/5 7/3/6 4/3/3
f 4/3/3 7/3/6 8/5/7
f 4/3/3 8/5/7 9/5/8
f 9/5/8 8/5/7 10/6/9
f 9/5/8 10/6/9 11/6/10
f 11/6/10 10/6/9 12/7/11
f 11/6/10 12/7/11 13/7/12
f 13/7/12 12/7/11 14/8/13
f 13/7/12 14/8/13 15/8/14
f 15/8/14 14/8/13 16/9/15
f 15/8/14 16/9/15 17/9/16
f 17/9/16 16/9/15 18/10/17
f 17/9/16 18/10/17 19/10/18
f 19/10/18 18/10/17 20/11/19
f 19/10/18 20/11/19 21/11/20
f 21/11/20 20/11/19 22/12/21
f 21/11/20 22/12/21 23/12/22
f 23/12/22 22/12/21 24/13/23
f 23/12/22 24/13/23 25/13/24
f 25/13/24 24/13/23 26/14/25
f 25/13/24 26/14/25 27/14/26
f 27/14/26 26/14/25 28/2/27
f 27/14/26 28/2/27 3/2/2
f 3/2/2 28/2/27 29/1/28
f 3/2/2 29/1/28 1/1/1
f 6/4/5 5/4/4 30/15/29
f 30/15/29 5/4/4 31/15/30
f 32/16/31 30/15/29 33/16/32
f 33/16/32 30/15/29 31/15/30
f 33/16/32 31/15/30 34/16/33
f 35/17/34 36/18/35 37/18/36
f 37/18/36 36/18/35 38/19/37
f 37/18/36 38/19/37 39/19/38
f 39/19/38 38/19/37 40/20/39
f 39/19/38 40/20/39 41/20/40
f 41/20/40 40/20/39 42/21/41
f 41/20/40 42/21/41 43/21/42
f 43/21/42 42/21/41 44/22/43
f 43/21/42 44/22/43 45/22/44
f 45/22/44 44/22/43 46/23/45
f 45/22/44 46/23/45 47/23/46
f 47/23/46 46/23/45 48/24/47
f 47/23/46 48/24/47 49/24/48
f 49/24/48 48/24/47 50/25/49
f 49/24/48 50/25/49 51/25/50
f 51/25/50 50/25/49 52/26/51
f 51/25/50 52/26/51 53/26/52
f 53/26/52 52/26/51 54/27/53
f 53/26/52 54/27/53 55/27/54
f 55/27/54 54/27/53 56/28/55
f 55/27/54 56/28/55 57/28/56
f 57/28/56 56/28/55 58/29/57
f 57/28/56 58/29/57 59/29/58
f 59/29/58 58/29/57 60/30/59
f 59/29/58 60/30/59 61/30/60
f 61/30/60 60/30/59 62/31/61
f 61/30/60 62/31/61 63/30/62
f 63/30/62 62/31/61 64/31/63
f 64/31/63 62/31/61 65/32/64
f 64/31/63 65/32/64 66/32/65
f 66/32/65 65/32/64 67/33/66
f 66/32/65 67/33/66 68/33/67
f 68/33/67 67/33/66 69/34/68
f 68/33/67 69/34/68 70/34/69
f 70/34/69 69/34/68 71/35/70
f 70/34/69 71/35/70 72/35/71
f 72/35/71 71/35/70 73/36/72
f 72/35/71 73/36/72 74/36/73
f 74/36/73 73/36/72 75/37/74
f 74/36/73 75/37/74 76/37/75
f 76/37/75 75/37/74 77/38/76
f 76/37/75 77/38/76 78/38/77
f 78/38/77 77/38/76 79/39/78
f 78/38/77 79/39/78 80/39/79
f 80/39/79 79/39/78 81/40/80
f 80/39/79 81/40/80 82/40/81
f 82/40/81 81/40/80 35/17/34
f 82/40/81 35/17/34 83/17/82
f 83/17/82 35/17/34 37/18/36
f 83/17/82 37/18/36 84/18/83
f 85/1/84 86/1/84 87/41/85
f 84/18/84 37/18/84 88/42/86
f 85/1/84 87/41/85 29/1/84
f 84/18/84 88/42/86 89/18/84
f 90/18/84 89/18/84 91/43/87
f 91/43/87 89/18/84 88/42/86
f 91/43/87 88/42/86 87/41/85
f 87/41/85 88/42/86 92/44/88
f 87/41/85 92/44/88 29/1/84
f 29/1/84 92/44/88 1/1/84
f 93/45/89 94/46/90 95/47/89
f 95/47/89 94/46/90 96/48/89
f 96/48/89 94/46/90 97/49/89
f 97/49/89 94/46/90 98/50/91
f 97/49/89 98/50/91 99/51/92
f 100/52/93 101/53/94 102/54/89
f 102/54/89 101/53/94 103/55/89
f 104/56/89 105/57/89 106/58/95
f 107/59/89 108/60/89 106/58/95
f 106/58/95 108/60/89 98/50/91
f 106/58/95 98/50/91 109/61/96
f 93/45/89 110/62/89 94/46/90
f 94/46/90 110/62/89 111/63/89
f 94/46/90 111/63/89 101/53/94
f 101/53/94 111/63/89 112/64/89
f 101/53/94 112/64/89 103/55/89
f 94/46/90 113/65/97 98/50/91
f 98/50/91 113/65/97 114/66/98
f 98/50/91 114/66/98 115/67/99
f 116/68/100 117/69/89 118/70/101
f 118/70/101 117/69/89 119/71/89
f 118/70/101 119/71/89 106/58/95
f 106/58/95 119/71/89 120/72/89
f 106/58/95 120/72/89 104/56/89
f 105/57/89 121/73/89 106/58/95
f 106/58/95 121/73/89 122/74/89
f 106/58/95 122/74/89 107/59/89
f 115/67/99 123/75/102 98/50/91
f 98/50/91 123/75/102 124/76/103
f 98/50/91 124/76/103 109/61/96
f 125/77/104 32/16/31 126/78/105
f 126/78/105 32/16/31 33/16/32
f 125/77/104 127/77/106 32/16/31
f 32/16/31 127/77/106 128/79/107
f 32/16/31 128/79/107 129/16/108
f 129/16/108 128/79/107 130/16/109
f 131/80/110 132/80/111 133/81/112
f 133/81/112 132/80/111 134/82/113
f 134/82/113 61/30/60 63/30/62
f 134/82/113 63/30/62 133/81/112
f 133/81/112 63/30/62 135/30/114
f 133/81/112 135/30/114 136/30/115
f 137/16/89 138/83/89 139/84/89
f 139/84/89 138/83/89 140/85/89
f 139/84/89 140/85/89 141/86/89
f 137/16/89 139/84/89 142/15/89
f 142/15/89 139/84/89 143/1/89
f 142/15/89 143/1/89 144/4/89
f 144/4/89 143/1/89 145/2/89
f 144/4/89 145/2/89 146/3/89
f 146/3/89 145/2/89 147/14/89
f 146/3/89 147/14/89 148/13/89
f 149/8/89 146/3/89 150/9/89
f 150/9/89 146/3/89 151/10/89
f 141/86/89 140/85/89 152/87/89
f 152/87/89 140/85/89 153/88/89
f 152/87/89 153/88/89 154/89/89
f 155/90/89 156/91/89 157/92/89
f 157/92/89 156/91/89 158/93/89
f 154/89/89 159/94/89 152/87/89
f 152/87/89 159/94/89 158/93/89
f 152/87/89 158/93/89 160/95/89
f 160/95/89 158/93/89 156/91/89
f 148/13/89 161/12/89 146/3/89
f 146/3/89 161/12/89 162/11/89
f 146/3/89 162/11/89 151/10/89
f 149/8/89 163/7/89 146/3/89
f 146/3/89 163/7/89 164/6/89
f 146/3/89 164/6/89 165/5/89
f 166/65/116 167/46/117 168/66/118
f 168/66/118 167/46/117 169/96/119
f 170/53/120 171/97/121 172/98/122
f 173/99/122 174/100/122 175/58/123
f 175/58/123 174/100/122 176/101/122
f 175/58/123 176/101/122 177/102/122
f 178/70/124 175/58/123 179/103/122
f 173/99/122 175/58/123 169/96/119
f 169/96/119 175/58/123 180/61/125
f 169/96/119 180/61/125 181/76/126
f 172/98/122 182/104/122 170/53/120
f 170/53/120 182/104/122 183/105/122
f 170/53/120 183/105/122 167/46/117
f 183/105/122 184/106/122 167/46/117
f 167/46/117 184/106/122 185/107/122
f 167/46/117 185/107/122 186/108/122
f 179/103/122 187/109/122 178/70/124
f 178/70/124 187/109/122 188/110/122
f 178/70/124 188/110/122 189/111/127
f 186/108/122 190/112/122 167/46/117
f 167/46/117 190/112/122 191/113/122
f 167/46/117 191/113/122 169/96/119
f 169/96/119 191/113/122 192/114/122
f 169/96/119 192/114/122 193/115/128
f 177/102/122 194/116/122 175/58/123
f 175/58/123 194/116/122 195/117/122
f 175/58/123 195/117/122 179/103/122
f 181/76/126 196/75/129 169/96/119
f 169/96/119 196/75/129 197/67/130
f 169/96/119 197/67/130 168/66/118
f 52/26/122 40/20/122 38/19/122
f 77/38/122 52/26/122 79/39/122
f 79/39/122 52/26/122 81/40/122
f 77/38/122 75/37/122 52/26/122
f 52/26/122 75/37/122 73/36/122
f 52/26/122 73/36/122 71/35/122
f 38/19/122 36/18/122 52/26/122
f 52/26/122 36/18/122 35/17/122
f 52/26/122 35/17/122 81/40/122
f 71/35/122 69/34/122 52/26/122
f 52/26/122 69/34/122 67/33/122
f 52/26/122 67/33/122 54/27/122
f 54/27/122 67/33/122 56/28/122
f 48/24/122 46/23/122 50/25/122
f 50/25/122 46/23/122 44/22/122
f 50/25/122 44/22/122 52/26/122
f 52/26/122 44/22/122 42/21/122
f 52/26/122 42/21/122 40/20/122
f 67/33/122 65/32/122 56/28/122
f 56/28/122 65/32/122 62/31/122
f 56/28/122 62/31/122 58/29/122
f 58/29/122 62/31/122 60/30/122
f 136/30/115 135/30/114 198/31/131
f 136/30/115 198/31/131 199/31/132
f 199/31/132 198/31/131 200/32/64
f 199/31/132 200/32/64 201/32/65
f 201/32/65 200/32/64 202/33/66
f 201/32/65 202/33/66 203/33/67
f 203/33/67 202/33/66 204/34/68
f 203/33/67 204/34/68 205/34/69
f 205/34/69 204/34/68 206/35/70
f 205/34/69 206/35/70 207/35/71
f 207/35/71 206/35/70 208/36/72
f 207/35/71 208/36/72 209/36/73
f 209/36/73 208/36/72 210/37/74
f 209/36/73 210/37/74 211/37/75
f 211/37/75 210/37/74 212/38/76
f 211/37/75 212/38/76 213/38/77
f 213/38/77 212/38/76 214/39/78
f 213/38/77 214/39/78 215/39/79
f 215/39/79 214/39/78 216/40/80
f 215/39/79 216/40/80 217/40/81
f 217/40/81 216/40/80 218/17/133
f 217/40/81 218/17/133 219/17/134
f 218/17/133 89/18/83 219/17/134
f 219/17/134 89/18/83 90/18/135
f 219/17/134 90/18/135 220/18/136
f 220/18/136 90/18/135 221/19/37
f 220/18/136 221/19/37 222/19/38
f 222/19/38 221/19/37 223/20/39
f 222/19/38 223/20/39 224/20/40
f 224/20/40 223/20/39 225/21/41
f 224/20/40 225/21/41 226/21/42
f 226/21/42 225/21/41 227/22/43
f 226/21/42 227/22/43 228/22/44
f 228/22/44 227/22/43 229/23/45
f 228/22/44 229/23/45 230/23/46
f 230/23/46 229/23/45 231/24/47
f 230/23/46 231/24/47 232/24/48
f 232/24/48 231/24/47 233/25/49
f 232/24/48 233/25/49 234/25/50
f 234/25/50 233/25/49 235/26/51
f 234/25/50 235/26/51 236/26/52
f 236/26/52 235/26/51 237/27/53
f 236/26/52 237/27/53 238/27/54
f 238/27/54 237/27/53 239/28/55
f 238/27/54 239/28/55 240/28/56
f 240/28/56 239/28/55 241/29/57
f 240/28/56 241/29/57 242/29/58
f 242/29/58 241/29/57 136/30/115
f 242/29/58 136/30/115 243/30/137
f 243/30/137 136/30/115 199/31/132
f 145/2/138 143/1/139 86/1/140
f 244/3/3 245/4/141 144/4/141
f 144/4/141 146/3/6 244/3/3
f 244/3/3 146/3/6 165/5/7
f 244/3/3 165/5/7 246/5/8
f 246/5/8 165/5/7 164/6/9
f 246/5/8 164/6/9 247/6/10
f 247/6/10 164/6/9 163/7/11
f 247/6/10 163/7/11 248/7/12
f 248/7/12 163/7/11 149/8/13
f 248/7/12 149/8/13 249/8/14
f 249/8/14 149/8/13 150/9/15
f 249/8/14 150/9/15 250/9/16
f 250/9/16 150/9/15 151/10/17
f 250/9/16 151/10/17 251/10/18
f 251/10/18 151/10/17 162/11/19
f 251/10/18 162/11/19 252/11/20
f 252/11/20 162/11/19 161/12/21
f 252/11/20 161/12/21 253/12/22
f 253/12/22 161/12/21 148/13/23
f 253/12/22 148/13/23 254/13/24
f 254/13/24 148/13/23 147/14/25
f 254/13/24 147/14/25 255/14/26
f 255/14/26 147/14/25 145/2/138
f 255/14/26 145/2/138 256/2/142
f 256/2/142 145/2/138 86/1/140
f 256/2/142 86/1/140 85/1/28
f 142/15/30 144/4/141 257/15/29
f 257/15/29 144/4/141 245/4/141
f 137/16/143 142/15/30 130/16/109
f 130/16/109 142/15/30 257/15/29
f 130/16/109 257/15/29 129/16/108
f 258/118/144 259/118/145 125/77/146
f 125/77/146 259/118/145 127/77/147
usemtl Material__2
f 260/119/148 261/119/148 258/118/148
f 258/118/148 261/119/148 259/118/148
usemtl Material__1
f 262/120/149 263/121/150 264/120/151
f 264/120/151 263/121/150 265/121/152
usemtl Material__2
f 266/122/153 267/122/153 268/123/153
f 268/123/153 267/122/153 269/123/153
usemtl Material__1
f 132/80/154 131/80/155 266/122/156
f 266/122/156 131/80/155 267/122/157
f 238/27/89 203/33/89 236/26/89
f 236/26/89 203/33/89 205/34/89
f 236/26/89 205/34/89 207/35/89
f 213/38/89 215/39/89 236/26/89
f 236/26/89 215/39/89 217/40/89
f 236/26/89 217/40/89 219/17/89
f 242/29/89 243/30/89 199/31/89
f 207/35/89 209/36/89 236/26/89
f 236/26/89 209/36/89 211/37/89
f 236/26/89 211/37/89 213/38/89
f 219/17/89 220/18/89 236/26/89
f 236/26/89 220/18/89 222/19/89
f 236/26/89 222/19/89 224/20/89
f 238/27/89 240/28/89 203/33/89
f 203/33/89 240/28/89 242/29/89
f 203/33/89 242/29/89 201/32/89
f 201/32/89 242/29/89 199/31/89
f 224/20/89 226/21/89 236/26/89
f 236/26/89 226/21/89 228/22/89
f 236/26/89 228/22/89 234/25/89
f 234/25/89 228/22/89 230/23/89
f 234/25/89 230/23/89 232/24/89
f 270/85/122 271/83/122 272/86/122
f 272/86/122 271/83/122 273/84/122
f 271/83/122 34/16/122 273/84/122
f 273/84/122 34/16/122 31/15/122
f 273/84/122 31/15/122 2/1/122
f 2/1/122 31/15/122 5/4/122
f 2/1/122 5/4/122 3/2/122
f 3/2/122 5/4/122 4/3/122
f 3/2/122 4/3/122 27/14/122
f 270/85/122 272/86/122 274/88/122
f 274/88/122 272/86/122 275/87/122
f 274/88/122 275/87/122 276/95/122
f 15/8/122 17/9/122 4/3/122
f 4/3/122 17/9/122 19/10/122
f 4/3/122 19/10/122 21/11/122
f 9/5/122 11/6/122 4/3/122
f 4/3/122 11/6/122 13/7/122
f 4/3/122 13/7/122 15/8/122
f 21/11/122 23/12/122 4/3/122
f 4/3/122 23/12/122 25/13/122
f 4/3/122 25/13/122 27/14/122
f 276/95/122 277/91/122 274/88/122
f 274/88/122 277/91/122 278/90/122
f 274/88/122 278/90/122 279/92/122
f 279/92/122 280/93/122 274/88/122
f 274/88/122 280/93/122 281/94/122
f 274/88/122 281/94/122 282/89/122
f 273/84/158 2/1/1 1/1/1
f 283/83/159 33/16/32 34/16/33
f 1/1/1 284/84/160 273/84/158
f 273/84/158 284/84/160 285/86/161
f 273/84/158 285/86/161 272/86/162
f 272/86/162 285/86/161 286/87/163
f 272/86/162 286/87/163 275/87/164
f 275/87/164 286/87/163 287/95/165
f 275/87/164 287/95/165 276/95/166
f 276/95/166 287/95/165 288/91/167
f 276/95/166 288/91/167 277/91/168
f 277/91/168 288/91/167 289/90/169
f 277/91/168 289/90/169 278/90/170
f 278/90/170 289/90/169 290/92/171
f 278/90/170 290/92/171 279/92/172
f 279/92/172 290/92/171 291/93/173
f 279/92/172 291/93/173 280/93/174
f 280/93/174 291/93/173 292/94/175
f 280/93/174 292/94/175 281/94/176
f 281/94/176 292/94/175 293/89/177
f 281/94/176 293/89/177 282/89/178
f 282/89/178 293/89/177 294/88/179
f 282/89/178 294/88/179 274/88/180
f 274/88/180 294/88/179 295/85/181
f 274/88/180 295/85/181 270/85/182
f 270/85/182 295/85/181 283/83/159
f 270/85/182 283/83/159 271/83/159
f 271/83/159 283/83/159 34/16/33
f 33/16/122 283/83/122 126/78/122
f 126/78/122 283/83/122 295/85/122
f 126/78/122 295/85/122 296/124/122
f 296/124/122 295/85/122 294/88/122
f 296/124/122 294/88/122 297/98/122
f 297/98/122 294/88/122 293/89/122
f 297/98/122 293/89/122 298/104/122
f 298/104/122 293/89/122 292/94/122
f 298/104/122 292/94/122 299/105/122
f 299/105/122 292/94/122 291/93/122
f 299/105/122 291/93/122 300/106/122
f 300/106/122 291/93/122 290/92/122
f 300/106/122 290/92/122 301/107/122
f 301/107/122 290/92/122 289/90/122
f 301/107/122 289/90/122 302/108/122
f 302/108/122 289/90/122 288/91/122
f 302/108/122 288/91/122 303/112/122
f 303/112/122 288/91/122 287/95/122
f 303/112/122 287/95/122 304/113/122
f 304/113/122 287/95/122 286/87/122
f 304/113/122 286/87/122 305/114/122
f 305/114/122 286/87/122 285/86/122
f 305/114/122 285/86/122 92/44/122
f 92/44/122 285/86/122 284/84/122
f 92/44/122 284/84/122 1/1/122
f 306/125/183 126/78/184 296/124/185
f 307/126/186 193/115/187 305/114/188
f 307/126/186 305/114/188 308/127/189
f 305/114/188 92/44/190 309/128/191
f 309/128/191 310/129/192 305/114/188
f 305/114/188 310/129/192 311/130/193
f 305/114/188 311/130/193 312/131/194
f 312/131/194 313/132/195 305/114/188
f 305/114/188 313/132/195 314/133/196
f 305/114/188 314/133/196 315/134/197
f 315/134/197 316/135/198 305/114/188
f 305/114/188 316/135/198 317/136/199
f 305/114/188 317/136/199 308/127/189
f 296/124/185 318/124/200 319/137/201
f 319/137/201 320/138/202 296/124/185
f 296/124/185 320/138/202 321/139/203
f 296/124/185 321/139/203 322/140/204
f 322/140/204 323/141/205 296/124/185
f 296/124/185 323/141/205 324/142/206
f 296/124/185 324/142/206 306/125/183
f 193/115/187 192/114/207 305/114/188
f 305/114/188 192/114/207 191/113/208
f 305/114/188 191/113/208 304/113/209
f 304/113/209 191/113/208 190/112/210
f 304/113/209 190/112/210 303/112/211
f 303/112/211 190/112/210 186/108/212
f 303/112/211 186/108/212 302/108/213
f 302/108/213 186/108/212 185/107/214
f 302/108/213 185/107/214 301/107/215
f 301/107/215 185/107/214 184/106/216
f 301/107/215 184/106/216 300/106/217
f 300/106/217 184/106/216 183/105/218
f 300/106/217 183/105/218 299/105/219
f 299/105/219 183/105/218 182/104/220
f 299/105/219 182/104/220 298/104/221
f 298/104/221 182/104/220 172/98/222
f 298/104/221 172/98/222 297/98/223
f 297/98/223 172/98/222 171/97/224
f 297/98/223 171/97/224 296/124/185
f 296/124/185 171/97/224 325/143/225
f 296/124/185 325/143/225 318/124/200
f 59/29/122 61/30/122 134/82/122
f 59/29/122 134/82/122 57/28/122
f 49/24/122 326/117/122 47/23/122
f 47/23/122 326/117/122 327/116/122
f 47/23/122 327/116/122 45/22/122
f 45/22/122 327/116/122 328/102/122
f 45/22/122 328/102/122 43/21/122
f 43/21/122 328/102/122 329/101/122
f 43/21/122 329/101/122 41/20/122
f 41/20/122 329/101/122 330/100/122
f 41/20/122 330/100/122 39/19/122
f 39/19/122 330/100/122 331/99/122
f 39/19/122 331/99/122 37/18/122
f 37/18/122 331/99/122 88/42/122
f 57/28/122 134/82/122 55/27/122
f 55/27/122 134/82/122 332/144/122
f 55/27/122 332/144/122 53/26/122
f 53/26/122 332/144/122 333/110/122
f 53/26/122 333/110/122 51/25/122
f 51/25/122 333/110/122 334/109/122
f 51/25/122 334/109/122 49/24/122
f 49/24/122 334/109/122 335/103/122
f 49/24/122 335/103/122 326/117/122
f 336/145/226 88/42/227 331/99/228
f 337/146/229 338/144/230 332/144/231
f 332/144/231 338/144/230 189/111/232
f 332/144/231 189/111/232 333/110/233
f 134/82/234 339/147/235 332/144/231
f 332/144/231 339/147/235 340/148/236
f 340/148/236 341/149/237 332/144/231
f 332/144/231 341/149/237 342/150/238
f 332/144/231 342/150/238 343/151/239
f 343/151/239 344/152/240 332/144/231
f 332/144/231 344/152/240 345/153/241
f 332/144/231 345/153/241 337/146/229
f 336/145/226 331/99/228 346/154/242
f 347/155/243 348/156/244 331/99/228
f 331/99/228 348/156/244 349/157/245
f 331/99/228 349/157/245 350/158/246
f 350/158/246 351/159/247 331/99/228
f 331/99/228 351/159/247 352/160/248
f 331/99/228 352/160/248 353/161/249
f 353/161/249 354/162/250 331/99/228
f 331/99/228 354/162/250 355/163/251
f 331/99/228 355/163/251 346/154/242
f 189/111/232 188/110/252 333/110/233
f 333/110/233 188/110/252 187/109/253
f 333/110/233 187/109/253 334/109/254
f 334/109/254 187/109/253 179/103/255
f 334/109/254 179/103/255 335/103/256
f 335/103/256 179/103/255 195/117/257
f 335/103/256 195/117/257 326/117/258
f 326/117/258 195/117/257 194/116/259
f 326/117/258 194/116/259 327/116/260
f 327/116/260 194/116/259 177/102/261
f 327/116/260 177/102/261 328/102/262
f 328/102/262 177/102/261 176/101/263
f 328/102/262 176/101/263 329/101/264
f 329/101/264 176/101/263 174/100/265
f 329/101/264 174/100/265 330/100/266
f 330/100/266 174/100/265 173/99/267
f 330/100/266 173/99/267 331/99/228
f 331/99/228 173/99/267 169/96/268
f 331/99/228 169/96/268 347/155/243
f 136/30/89 241/29/89 133/81/89
f 133/81/89 241/29/89 239/28/89
f 90/18/89 91/43/89 221/19/89
f 221/19/89 91/43/89 356/60/89
f 221/19/89 356/60/89 223/20/89
f 223/20/89 356/60/89 357/59/89
f 223/20/89 357/59/89 225/21/89
f 225/21/89 357/59/89 358/74/89
f 225/21/89 358/74/89 227/22/89
f 227/22/89 358/74/89 359/73/89
f 227/22/89 359/73/89 229/23/89
f 229/23/89 359/73/89 360/57/89
f 229/23/89 360/57/89 231/24/89
f 231/24/89 360/57/89 361/56/89
f 231/24/89 361/56/89 233/25/89
f 233/25/89 361/56/89 362/72/89
f 233/25/89 362/72/89 235/26/89
f 235/26/89 362/72/89 363/71/89
f 235/26/89 363/71/89 237/27/89
f 237/27/89 363/71/89 364/69/89
f 237/27/89 364/69/89 239/28/89
f 239/28/89 364/69/89 365/164/89
f 239/28/89 365/164/89 133/81/89
f 366/165/269 133/81/270 365/164/271
f 367/166/272 98/50/273 356/60/274
f 367/166/272 356/60/274 368/167/275
f 356/60/274 91/43/276 369/168/277
f 369/168/277 370/169/278 356/60/274
f 356/60/274 370/169/278 371/170/279
f 356/60/274 371/170/279 372/171/280
f 372/171/280 373/172/281 356/60/274
f 356/60/274 373/172/281 374/173/282
f 356/60/274 374/173/282 375/174/283
f 375/174/283 376/175/284 356/60/274
f 356/60/274 376/175/284 377/176/285
f 356/60/274 377/176/285 368/167/275
f 365/164/271 378/164/286 379/177/287
f 379/177/287 380/178/288 365/164/271
f 365/164/271 380/178/288 381/179/289
f 365/164/271 381/179/289 382/180/290
f 382/180/290 383/181/291 365/164/271
f 365/164/271 383/181/291 384/182/292
f 365/164/271 384/182/292 366/165/269
f 98/50/273 108/60/293 356/60/274
f 356/60/274 108/60/293 107/59/294
f 356/60/274 107/59/294 357/59/295
f 357/59/295 107/59/294 122/74/296
f 357/59/295 122/74/296 358/74/297
f 358/74/297 122/74/296 121/73/298
f 358/74/297 121/73/298 359/73/299
f 359/73/299 121/73/298 105/57/300
f 359/73/299 105/57/300 360/57/301
f 360/57/301 105/57/300 104/56/302
f 360/57/301 104/56/302 361/56/303
f 361/56/303 104/56/302 120/72/304
f 361/56/303 120/72/304 362/72/305
f 362/72/305 120/72/304 119/71/306
f 362/72/305 119/71/306 363/71/307
f 363/71/307 119/71/306 117/69/308
f 363/71/307 117/69/308 364/69/309
f 364/69/309 117/69/308 116/68/310
f 364/69/309 116/68/310 365/164/271
f 365/164/271 116/68/310 385/183/311
f 365/164/271 385/183/311 378/164/286
f 386/84/160 86/1/140 143/1/139
f 138/83/312 137/16/143 130/16/109
f 130/16/109 387/83/159 138/83/312
f 138/83/312 387/83/159 388/85/182
f 138/83/312 388/85/182 140/85/313
f 140/85/313 388/85/182 389/88/314
f 140/85/313 389/88/314 153/88/179
f 153/88/179 389/88/314 390/89/178
f 153/88/179 390/89/178 154/89/315
f 154/89/315 390/89/178 391/94/176
f 154/89/315 391/94/176 159/94/175
f 159/94/175 391/94/176 392/93/316
f 159/94/175 392/93/316 158/93/173
f 158/93/173 392/93/316 393/92/172
f 158/93/173 393/92/172 157/92/171
f 157/92/171 393/92/172 394/90/170
f 157/92/171 394/90/170 155/90/169
f 155/90/169 394/90/170 395/91/168
f 155/90/169 395/91/168 156/91/167
f 156/91/167 395/91/168 396/95/166
f 156/91/167 396/95/166 160/95/165
f 160/95/165 396/95/166 397/87/317
f 160/95/165 397/87/317 152/87/163
f 152/87/163 397/87/317 398/86/162
f 152/87/163 398/86/162 141/86/161
f 141/86/161 398/86/162 386/84/160
f 141/86/161 386/84/160 139/84/160
f 139/84/160 386/84/160 143/1/139
f 130/16/89 128/79/89 387/83/89
f 387/83/89 128/79/89 388/85/89
f 388/85/89 128/79/89 389/88/89
f 389/88/89 128/79/89 399/184/89
f 389/88/89 399/184/89 390/89/89
f 390/89/89 399/184/89 400/54/89
f 390/89/89 400/54/89 391/94/89
f 391/94/89 400/54/89 401/55/89
f 391/94/89 401/55/89 392/93/89
f 392/93/89 401/55/89 402/64/89
f 392/93/89 402/64/89 393/92/89
f 393/92/89 402/64/89 403/63/89
f 393/92/89 403/63/89 394/90/89
f 394/90/89 403/63/89 404/62/89
f 394/90/89 404/62/89 395/91/89
f 395/91/89 404/62/89 405/45/89
f 395/91/89 405/45/89 396/95/89
f 396/95/89 405/45/89 406/47/89
f 396/95/89 406/47/89 397/87/89
f 397/87/89 406/47/89 407/48/89
f 397/87/89 407/48/89 398/86/89
f 398/86/89 407/48/89 408/49/89
f 398/86/89 408/49/89 386/84/89
f 386/84/89 408/49/89 87/41/89
f 386/84/89 87/41/89 86/1/89
f 409/185/318 87/41/319 408/49/320
f 409/185/318 408/49/320 410/186/321
f 411/187/322 412/188/323 408/49/320
f 408/49/320 412/188/323 413/189/324
f 408/49/320 413/189/324 414/190/325
f 414/190/325 415/191/326 408/49/320
f 408/49/320 415/191/326 416/192/327
f 408/49/320 416/192/327 417/193/328
f 417/193/328 418/194/329 408/49/320
f 408/49/320 418/194/329 419/195/330
f 408/49/320 419/195/330 410/186/321
f 420/196/331 421/184/332 399/184/333
f 399/184/333 421/184/332 100/52/334
f 399/184/333 100/52/334 400/54/335
f 128/79/336 422/197/337 399/184/333
f 399/184/333 422/197/337 423/198/338
f 423/198/338 424/199/339 399/184/333
f 399/184/333 424/199/339 425/200/340
f 399/184/333 425/200/340 426/201/341
f 426/201/341 427/202/342 399/184/333
f 399/184/333 427/202/342 428/203/343
f 399/184/333 428/203/343 420/196/331
f 100/52/334 102/54/344 400/54/335
f 400/54/335 102/54/344 103/55/345
f 400/54/335 103/55/345 401/55/346
f 401/55/346 103/55/345 112/64/347
f 401/55/346 112/64/347 402/64/348
f 402/64/348 112/64/347 111/63/349
f 402/64/348 111/63/349 403/63/350
f 403/63/350 111/63/349 110/62/351
f 403/63/350 110/62/351 404/62/352
f 404/62/352 110/62/351 93/45/353
f 404/62/352 93/45/353 405/45/354
f 405/45/354 93/45/353 95/47/355
f 405/45/354 95/47/355 406/47/356
f 406/47/356 95/47/355 96/48/357
f 406/47/356 96/48/357 407/48/358
f 407/48/358 96/48/357 97/49/359
f 407/48/358 97/49/359 408/49/320
f 408/49/320 97/49/359 99/51/360
f 408/49/320 99/51/360 411/187/322
f 135/30/361 63/30/361 429/29/362
f 135/30/361 429/29/362 430/29/363
f 430/29/363 429/29/362 431/28/364
f 430/29/363 431/28/364 432/28/365
f 432/28/365 431/28/364 433/27/366
f 432/28/365 433/27/366 434/27/367
f 434/27/367 433/27/366 435/26/368
f 434/27/367 435/26/368 436/26/369
f 436/26/369 435/26/368 437/25/370
f 436/26/369 437/25/370 438/25/371
f 438/25/371 437/25/370 439/24/372
f 438/25/371 439/24/372 440/24/373
f 440/24/373 439/24/372 441/23/374
f 440/24/373 441/23/374 442/23/375
f 442/23/375 441/23/374 443/22/376
f 442/23/375 443/22/376 444/22/377
f 444/22/377 443/22/376 445/21/378
f 444/22/377 445/21/378 446/21/379
f 446/21/379 445/21/378 447/20/380
f 446/21/379 447/20/380 448/20/381
f 448/20/381 447/20/380 449/19/382
f 448/20/381 449/19/382 450/19/383
f 450/19/383 449/19/382 84/18/384
f 450/19/383 84/18/384 89/18/384
f 436/26/122 448/20/122 450/19/122
f 212/38/122 436/26/122 214/39/122
f 214/39/122 436/26/122 216/40/122
f 212/38/122 210/37/122 436/26/122
f 436/26/122 210/37/122 208/36/122
f 436/26/122 208/36/122 206/35/122
f 450/19/122 89/18/122 436/26/122
f 436/26/122 89/18/122 218/17/122
f 436/26/122 218/17/122 216/40/122
f 206/35/122 204/34/122 436/26/122
f 436/26/122 204/34/122 202/33/122
f 436/26/122 202/33/122 434/27/122
f 434/27/122 202/33/122 432/28/122
f 440/24/122 442/23/122 438/25/122
f 438/25/122 442/23/122 444/22/122
f 438/25/122 444/22/122 436/26/122
f 436/26/122 444/22/122 446/21/122
f 436/26/122 446/21/122 448/20/122
f 202/33/122 200/32/122 432/28/122
f 432/28/122 200/32/122 198/31/122
f 432/28/122 198/31/122 430/29/122
f 430/29/122 198/31/122 135/30/122
f 433/27/89 68/33/89 435/26/89
f 435/26/89 68/33/89 70/34/89
f 435/26/89 70/34/89 72/35/89
f 78/38/89 80/39/89 435/26/89
f 435/26/89 80/39/89 82/40/89
f 435/26/89 82/40/89 83/17/89
f 429/29/89 63/30/89 64/31/89
f 72/35/89 74/36/89 435/26/89
f 435/26/89 74/36/89 76/37/89
f 435/26/89 76/37/89 78/38/89
f 83/17/89 84/18/89 435/26/89
f 435/26/89 84/18/89 449/19/89
f 435/26/89 449/19/89 447/20/89
f 433/27/89 431/28/89 68/33/89
f 68/33/89 431/28/89 429/29/89
f 68/33/89 429/29/89 66/32/89
f 66/32/89 429/29/89 64/31/89
f 447/20/89 445/21/89 435/26/89
f 435/26/89 445/21/89 443/22/89
f 435/26/89 443/22/89 437/25/89
f 437/25/89 443/22/89 441/23/89
f 437/25/89 441/23/89 439/24/89
f 451/87/122 452/83/122 453/86/122
f 453/86/122 452/83/122 454/84/122
f 452/83/122 129/16/122 454/84/122
f 454/84/122 129/16/122 257/15/122
f 454/84/122 257/15/122 85/1/122
f 85/1/122 257/15/122 245/4/122
f 85/1/122 245/4/122 256/2/122
f 256/2/122 245/4/122 244/3/122
f 256/2/122 244/3/122 255/14/122
f 455/90/122 456/92/122 457/91/122
f 457/91/122 456/92/122 458/93/122
f 457/91/122 458/93/122 459/95/122
f 459/95/122 458/93/122 451/87/122
f 451/87/122 458/93/122 460/94/122
f 451/87/122 460/94/122 461/89/122
f 461/89/122 462/88/122 451/87/122
f 451/87/122 462/88/122 463/85/122
f 451/87/122 463/85/122 452/83/122
f 249/8/122 250/9/122 244/3/122
f 244/3/122 250/9/122 251/10/122
f 244/3/122 251/10/122 252/11/122
f 246/5/122 247/6/122 244/3/122
f 244/3/122 247/6/122 248/7/122
f 244/3/122 248/7/122 249/8/122
f 252/11/122 253/12/122 244/3/122
f 244/3/122 253/12/122 254/13/122
f 244/3/122 254/13/122 255/14/122
f 32/16/89 464/83/89 465/84/89
f 465/84/89 464/83/89 466/85/89
f 465/84/89 466/85/89 467/86/89
f 32/16/89 465/84/89 30/15/89
f 30/15/89 465/84/89 29/1/89
f 30/15/89 29/1/89 6/4/89
f 6/4/89 29/1/89 28/2/89
f 6/4/89 28/2/89 7/3/89
f 7/3/89 28/2/89 26/14/89
f 7/3/89 26/14/89 24/13/89
f 14/8/89 7/3/89 16/9/89
f 16/9/89 7/3/89 18/10/89
f 467/86/89 466/85/89 468/87/89
f 468/87/89 466/85/89 469/88/89
f 468/87/89 469/88/89 470/89/89
f 471/90/89 472/91/89 473/92/89
f 473/92/89 472/91/89 474/93/89
f 470/89/89 475/94/89 468/87/89
f 468/87/89 475/94/89 474/93/89
f 468/87/89 474/93/89 476/95/89
f 476/95/89 474/93/89 472/91/89
f 24/13/89 22/12/89 7/3/89
f 7/3/89 22/12/89 20/11/89
f 7/3/89 20/11/89 18/10/89
f 14/8/89 12/7/89 7/3/89
f 7/3/89 12/7/89 10/6/89
f 7/3/89 10/6/89 8/5/89
f 464/83/385 32/16/386 129/16/386
f 454/84/387 85/1/388 29/1/388
f 29/1/388 465/84/389 454/84/387
f 454/84/387 465/84/389 467/86/390
f 454/84/387 467/86/390 453/86/391
f 453/86/391 467/86/390 468/87/392
f 453/86/391 468/87/392 451/87/393
f 451/87/393 468/87/392 476/95/394
f 451/87/393 476/95/394 459/95/395
f 459/95/395 476/95/394 472/91/396
f 459/95/395 472/91/396 457/91/397
f 457/91/397 472/91/396 471/90/398
f 457/91/397 471/90/398 455/90/399
f 455/90/399 471/90/398 473/92/400
f 455/90/399 473/92/400 456/92/401
f 456/92/401 473/92/400 474/93/402
f 456/92/401 474/93/402 458/93/403
f 458/93/403 474/93/402 475/94/404
f 458/93/403 475/94/404 460/94/405
f 460/94/405 475/94/404 470/89/406
f 460/94/405 470/89/406 461/89/407
f 461/89/407 470/89/406 469/88/408
f 461/89/407 469/88/408 462/88/409
f 462/88/409 469/88/408 466/85/410
f 462/88/409 466/85/410 463/85/411
f 463/85/411 466/85/410 464/83/385
f 463/85/411 464/83/385 452/83/385
f 452/83/385 464/83/385 129/16/386
f 265/121/152 263/121/150 477/204/412
f 265/121/152 477/204/412 478/204/413
f 478/204/413 477/204/412 479/205/414
f 478/204/413 479/205/414 480/205/415
f 480/205/415 479/205/414 481/206/416
f 480/205/415 481/206/416 482/206/417
f 482/206/417 481/206/416 268/123/418
f 482/206/417 268/123/418 269/123/419
f 114/66/98 113/65/97 483/207/420
f 114/66/98 483/207/420 484/208/421
f 484/208/421 483/207/420 485/209/422
f 484/208/421 485/209/422 486/210/423
f 486/210/423 485/209/422 487/211/424
f 486/210/423 487/211/424 488/212/425
f 488/212/425 487/211/424 489/213/426
f 488/212/425 489/213/426 490/214/427
f 490/214/427 489/213/426 491/215/428
f 490/214/427 491/215/428 492/216/429
f 492/216/429 491/215/428 264/120/151
f 492/216/429 264/120/151 265/121/152
f 115/67/99 114/66/98 484/208/421
f 123/75/102 115/67/99 493/217/430
f 124/76/103 123/75/102 494/218/431
f 109/61/96 124/76/103 495/219/432
f 495/219/432 124/76/103 496/220/433
f 495/219/432 496/220/433 497/221/434
f 497/221/434 496/220/433 498/222/435
f 498/222/435 496/220/433 499/223/436
f 498/222/435 499/223/436 500/224/437
f 500/224/437 499/223/436 501/225/438
f 501/225/438 499/223/436 502/226/439
f 501/225/438 502/226/439 503/227/440
f 503/227/440 502/226/439 504/228/441
f 504/228/441 502/226/439 505/229/442
f 504/228/441 505/229/442 506/230/443
f 506/230/443 505/229/442 507/231/444
f 507/231/444 505/229/442 508/232/445
f 507/231/444 508/232/445 509/233/446
f 509/233/446 508/232/445 510/234/447
f 510/234/447 508/232/445 482/206/417
f 510/234/447 482/206/417 269/123/419
f 124/76/103 494/218/431 496/220/433
f 496/220/433 494/218/431 511/235/448
f 496/220/433 511/235/448 499/223/436
f 499/223/436 511/235/448 512/236/449
f 499/223/436 512/236/449 502/226/439
f 502/226/439 512/236/449 513/237/450
f 502/226/439 513/237/450 505/229/442
f 505/229/442 513/237/450 514/238/451
f 505/229/442 514/238/451 508/232/445
f 508/232/445 514/238/451 480/205/415
f 508/232/445 480/205/415 482/206/417
f 123/75/102 493/217/430 494/218/431
f 494/218/431 493/217/430 515/239/452
f 494/218/431 515/239/452 511/235/448
f 511/235/448 515/239/452 516/240/453
f 511/235/448 516/240/453 512/236/449
f 512/236/449 516/240/453 517/241/454
f 512/236/449 517/241/454 513/237/450
f 513/237/450 517/241/454 518/242/455
f 513/237/450 518/242/455 514/238/451
f 514/238/451 518/242/455 478/204/413
f 514/238/451 478/204/413 480/205/415
f 115/67/99 484/208/421 493/217/430
f 493/217/430 484/208/421 486/210/423
f 493/217/430 486/210/423 515/239/452
f 515/239/452 486/210/423 488/212/425
f 515/239/452 488/212/425 516/240/453
f 516/240/453 488/212/425 490/214/427
f 516/240/453 490/214/427 517/241/454
f 517/241/454 490/214/427 492/216/429
f 517/241/454 492/216/429 518/242/455
f 518/242/455 492/216/429 265/121/152
f 518/242/455 265/121/152 478/204/413
f 109/61/96 495/219/432 106/58/95
f 106/58/95 495/219/432 519/243/456
f 519/243/456 495/219/432 520/244/457
f 520/244/457 495/219/432 497/221/434
f 520/244/457 497/221/434 521/245/458
f 521/245/458 497/221/434 498/222/435
f 521/245/458 498/222/435 522/246/459
f 522/246/459 498/222/435 500/224/437
f 522/246/459 500/224/437 523/247/460
f 523/247/460 500/224/437 501/225/438
f 523/247/460 501/225/438 524/248/461
f 524/248/461 501/225/438 503/227/440
f 524/248/461 503/227/440 525/249/462
f 525/249/462 503/227/440 504/228/441
f 525/249/462 504/228/441 526/250/463
f 526/250/463 504/228/441 506/230/443
f 526/250/463 506/230/443 527/251/464
f 527/251/464 506/230/443 507/231/444
f 527/251/464 507/231/444 528/252/465
f 528/252/465 507/231/444 509/233/446
f 528/252/465 509/233/446 529/253/466
f 509/233/446 510/234/447 529/253/466
f 529/253/466 510/234/447 269/123/419
f 529/253/466 269/123/419 267/122/157
f 178/70/124 189/111/127 530/254/467
f 530/254/467 189/111/127 338/144/468
f 344/152/469 531/255/470 345/153/471
f 345/153/471 531/255/470 530/254/467
f 345/153/471 530/254/467 337/146/472
f 337/146/472 530/254/467 338/144/468
f 532/256/473 533/257/474 343/151/475
f 343/151/475 533/257/474 534/258/476
f 343/151/475 534/258/476 344/152/469
f 344/152/469 534/258/476 535/259/477
f 344/152/469 535/259/477 531/255/470
f 134/82/113 132/80/111 536/260/478
f 343/151/475 342/150/479 532/256/473
f 532/256/473 342/150/479 341/149/480
f 532/256/473 341/149/480 537/261/481
f 537/261/481 341/149/480 340/148/482
f 537/261/481 340/148/482 536/260/478
f 536/260/478 340/148/482 339/147/483
f 536/260/478 339/147/483 134/82/113
f 166/65/116 168/66/118 538/208/484
f 166/65/116 538/208/484 539/207/485
f 539/207/485 538/208/484 540/210/486
f 539/207/485 540/210/486 541/209/487
f 541/209/487 540/210/486 542/212/488
f 541/209/487 542/212/488 543/211/489
f 543/211/489 542/212/488 544/214/490
f 543/211/489 544/214/490 545/213/491
f 545/213/491 544/214/490 546/216/492
f 545/213/491 546/216/492 547/215/493
f 547/215/493 546/216/492 263/121/150
f 547/215/493 263/121/150 262/120/149
f 175/58/123 178/70/124 548/262/494
f 548/262/494 178/70/124 530/254/467
f 531/255/470 549/263/495 530/254/467
f 530/254/467 549/263/495 550/264/496
f 530/254/467 550/264/496 548/262/494
f 535/259/497 551/265/498 531/255/470
f 531/255/470 551/265/498 552/266/499
f 531/255/470 552/266/499 549/263/495
f 132/80/154 266/122/156 536/260/500
f 536/260/500 266/122/156 553/253/501
f 536/260/500 553/253/501 537/261/502
f 537/261/502 553/253/501 554/252/503
f 537/261/502 554/252/503 532/256/504
f 532/256/504 554/252/503 555/251/505
f 532/256/504 555/251/505 533/257/506
f 533/257/506 555/251/505 556/250/507
f 533/257/506 556/250/507 534/258/508
f 534/258/508 556/250/507 557/249/509
f 534/258/508 557/249/509 535/259/497
f 535/259/497 557/249/509 558/267/510
f 535/259/497 558/267/510 551/265/498
f 477/204/412 263/121/150 546/216/492
f 479/205/414 477/204/412 559/242/511
f 481/206/416 479/205/414 560/238/512
f 268/123/418 481/206/416 561/234/513
f 561/234/513 481/206/416 562/232/514
f 561/234/513 562/232/514 563/233/515
f 563/233/515 562/232/514 564/231/516
f 564/231/516 562/232/514 565/229/517
f 564/231/516 565/229/517 566/230/518
f 566/230/518 565/229/517 567/228/519
f 567/228/519 565/229/517 568/226/520
f 567/228/519 568/226/520 569/227/521
f 569/227/521 568/226/520 570/225/522
f 570/225/522 568/226/520 571/223/523
f 570/225/522 571/223/523 572/224/524
f 572/224/524 571/223/523 573/222/525
f 573/222/525 571/223/523 574/220/526
f 573/222/525 574/220/526 575/221/527
f 575/221/527 574/220/526 576/219/528
f 576/219/528 574/220/526 181/76/126
f 576/219/528 181/76/126 180/61/125
f 481/206/416 560/238/512 562/232/514
f 562/232/514 560/238/512 577/237/529
f 562/232/514 577/237/529 565/229/517
f 565/229/517 577/237/529 578/236/530
f 565/229/517 578/236/530 568/226/520
f 568/226/520 578/236/530 579/235/531
f 568/226/520 579/235/531 571/223/523
f 571/223/523 579/235/531 580/218/532
f 571/223/523 580/218/532 574/220/526
f 574/220/526 580/218/532 196/75/129
f 574/220/526 196/75/129 181/76/126
f 479/205/414 559/242/511 560/238/512
f 560/238/512 559/242/511 581/241/533
f 560/238/512 581/241/533 577/237/529
f 577/237/529 581/241/533 582/240/534
f 577/237/529 582/240/534 578/236/530
f 578/236/530 582/240/534 583/239/535
f 578/236/530 583/239/535 579/235/531
f 579/235/531 583/239/535 584/217/536
f 579/235/531 584/217/536 580/218/532
f 580/218/532 584/217/536 197/67/130
f 580/218/532 197/67/130 196/75/129
f 477/204/412 546/216/492 559/242/511
f 559/242/511 546/216/492 544/214/490
f 559/242/511 544/214/490 581/241/533
f 581/241/533 544/214/490 542/212/488
f 581/241/533 542/212/488 582/240/534
f 582/240/534 542/212/488 540/210/486
f 582/240/534 540/210/486 583/239/535
f 583/239/535 540/210/486 538/208/484
f 583/239/535 538/208/484 584/217/536
f 584/217/536 538/208/484 168/66/118
f 584/217/536 168/66/118 197/67/130
f 564/231/516 555/251/505 554/252/503
f 564/231/516 554/252/503 563/233/515
f 563/233/515 554/252/503 553/253/501
f 563/233/515 553/253/501 561/234/513
f 561/234/513 553/253/501 266/122/156
f 561/234/513 266/122/156 268/123/418
f 555/251/505 564/231/516 556/250/507
f 556/250/507 564/231/516 566/230/518
f 556/250/507 566/230/518 557/249/509
f 566/230/518 567/228/519 557/249/509
f 557/249/509 567/228/519 569/227/521
f 557/249/509 569/227/521 558/267/510
f 558/267/510 569/227/521 570/225/522
f 558/267/510 570/225/522 551/265/498
f 551/265/498 570/225/522 572/224/524
f 551/265/498 572/224/524 552/266/499
f 552/266/499 572/224/524 573/222/525
f 552/266/499 573/222/525 549/263/495
f 549/263/495 573/222/525 550/264/496
f 550/264/496 573/222/525 575/221/527
f 550/264/496 575/221/527 548/262/494
f 575/221/527 576/219/528 548/262/494
f 548/262/494 576/219/528 180/61/125
f 548/262/494 180/61/125 175/58/123
f 585/268/537 125/77/104 126/78/105
f 126/78/105 306/125/538 585/268/537
f 585/268/537 306/125/538 324/142/539
f 585/268/537 324/142/539 586/269/540
f 586/269/540 324/142/539 323/141/541
f 586/269/540 323/141/541 587/270/542
f 587/270/542 323/141/541 322/140/543
f 587/270/542 322/140/543 588/271/544
f 588/271/544 322/140/543 321/139/545
f 588/271/544 321/139/545 589/272/546
f 589/272/546 321/139/545 590/273/547
f 321/139/545 320/138/548 590/273/547
f 590/273/547 320/138/548 319/137/549
f 590/273/547 319/137/549 591/274/550
f 591/274/550 319/137/549 318/124/551
f 591/274/550 318/124/551 592/275/552
f 318/124/551 325/143/553 592/275/552
f 592/275/552 325/143/553 171/97/121
f 592/275/552 171/97/121 170/53/120
f 170/53/120 167/46/117 593/276/554
f 170/53/120 593/276/554 592/275/552
f 593/276/554 594/277/555 592/275/552
f 592/275/552 594/277/555 595/278/556
f 592/275/552 595/278/556 591/274/557
f 595/278/556 596/279/558 591/274/557
f 591/274/557 596/279/558 597/280/559
f 591/274/557 597/280/559 590/273/560
f 597/280/559 598/281/561 590/273/560
f 590/273/560 598/281/561 599/282/562
f 590/273/560 599/282/562 589/272/563
f 589/272/563 599/282/562 600/283/564
f 258/118/144 125/77/146 601/284/565
f 601/284/565 125/77/146 585/268/566
f 601/284/565 585/268/566 602/285/567
f 602/285/567 585/268/566 586/269/568
f 602/285/567 586/269/568 603/286/569
f 603/286/569 586/269/568 587/270/570
f 603/286/569 587/270/570 600/283/564
f 600/283/564 587/270/570 588/271/571
f 600/283/564 588/271/571 589/272/563
f 92/44/88 88/42/86 309/128/572
f 309/128/572 88/42/86 336/145/573
f 309/128/572 336/145/573 310/129/574
f 310/129/574 336/145/573 346/154/575
f 310/129/574 346/154/575 311/130/576
f 311/130/576 346/154/575 312/131/577
f 346/154/575 355/163/578 312/131/577
f 312/131/577 355/163/578 354/162/579
f 312/131/577 354/162/579 313/132/580
f 313/132/580 354/162/579 314/133/581
f 354/162/579 353/161/582 314/133/581
f 314/133/581 353/161/582 352/160/583
f 314/133/581 352/160/583 315/134/584
f 315/134/584 352/160/583 316/135/585
f 352/160/583 351/159/586 316/135/585
f 316/135/585 351/159/586 350/158/587
f 316/135/585 350/158/587 317/136/588
f 317/136/588 350/158/587 308/127/589
f 350/158/587 349/157/590 308/127/589
f 308/127/589 349/157/590 348/156/591
f 308/127/589 348/156/591 307/126/592
f 307/126/592 348/156/591 193/115/128
f 193/115/128 348/156/591 347/155/593
f 193/115/128 347/155/593 169/96/119
f 118/70/101 106/58/95 519/243/456
f 118/70/101 519/243/456 604/254/594
f 519/243/456 520/244/457 604/254/594
f 604/254/594 520/244/457 521/245/458
f 604/254/594 521/245/458 605/255/595
f 521/245/458 522/246/459 605/255/595
f 605/255/595 522/246/459 523/247/460
f 605/255/595 523/247/460 606/259/596
f 523/247/460 524/248/461 606/259/596
f 606/259/596 524/248/461 525/249/462
f 606/259/596 525/249/462 607/258/597
f 607/258/597 525/249/462 526/250/463
f 607/258/597 526/250/463 608/257/598
f 608/257/598 526/250/463 527/251/464
f 608/257/598 527/251/464 609/256/599
f 609/256/599 527/251/464 528/252/465
f 267/122/157 131/80/155 529/253/466
f 529/253/466 131/80/155 610/260/600
f 529/253/466 610/260/600 528/252/465
f 528/252/465 610/260/600 611/261/601
f 528/252/465 611/261/601 609/256/599
f 610/260/602 131/80/110 133/81/112
f 133/81/112 366/165/603 610/260/602
f 610/260/602 366/165/603 384/182/604
f 610/260/602 384/182/604 611/261/605
f 611/261/605 384/182/604 383/181/606
f 611/261/605 383/181/606 609/256/607
f 609/256/607 383/181/606 382/180/608
f 609/256/607 382/180/608 608/257/609
f 608/257/609 382/180/608 381/179/610
f 608/257/609 381/179/610 607/258/611
f 607/258/611 381/179/610 606/259/612
f 381/179/610 380/178/613 606/259/612
f 606/259/612 380/178/613 379/177/614
f 606/259/612 379/177/614 605/255/595
f 605/255/595 379/177/614 378/164/615
f 605/255/595 378/164/615 604/254/594
f 378/164/615 385/183/616 604/254/594
f 604/254/594 385/183/616 116/68/100
f 604/254/594 116/68/100 118/70/101
f 127/77/147 259/118/145 612/268/617
f 612/268/617 259/118/145 613/287/618
f 612/268/617 613/287/618 614/269/619
f 614/269/619 613/287/618 615/288/620
f 614/269/619 615/288/620 616/270/621
f 616/270/621 615/288/620 617/289/622
f 616/270/621 617/289/622 618/271/623
f 618/271/623 617/289/622 619/290/624
f 618/271/623 619/290/624 620/272/625
f 620/272/625 619/290/624 621/291/626
f 620/272/625 621/291/626 622/273/627
f 621/291/626 623/281/628 622/273/627
f 622/273/627 623/281/628 624/279/629
f 622/273/627 624/279/629 625/274/630
f 625/274/630 624/279/629 626/277/631
f 625/274/630 626/277/631 627/275/632
f 627/275/632 626/277/631 94/46/90
f 627/275/632 94/46/90 101/53/94
f 128/79/107 127/77/106 612/268/633
f 426/201/634 425/200/635 616/270/636
f 616/270/636 425/200/635 424/199/637
f 616/270/636 424/199/637 614/269/638
f 614/269/638 424/199/637 423/198/639
f 614/269/638 423/198/639 612/268/633
f 612/268/633 423/198/639 422/197/640
f 612/268/633 422/197/640 128/79/107
f 616/270/636 618/271/641 426/201/634
f 426/201/634 618/271/641 620/272/642
f 426/201/634 620/272/642 427/202/643
f 620/272/642 622/273/644 427/202/643
f 427/202/643 622/273/644 625/274/630
f 427/202/643 625/274/630 428/203/645
f 428/203/645 625/274/630 627/275/632
f 428/203/645 627/275/632 420/196/646
f 101/53/94 100/52/93 627/275/632
f 627/275/632 100/52/93 421/184/647
f 627/275/632 421/184/647 420/196/646
f 411/187/648 99/51/92 98/50/91
f 411/187/648 98/50/91 412/188/649
f 98/50/91 367/166/650 412/188/649
f 412/188/649 367/166/650 368/167/651
f 412/188/649 368/167/651 413/189/652
f 413/189/652 368/167/651 414/190/653
f 368/167/651 377/176/654 414/190/653
f 414/190/653 377/176/654 376/175/655
f 414/190/653 376/175/655 415/191/656
f 415/191/656 376/175/655 416/192/657
f 376/175/655 375/174/658 416/192/657
f 416/192/657 375/174/658 374/173/659
f 416/192/657 374/173/659 417/193/660
f 417/193/660 374/173/659 418/194/661
f 374/173/659 373/172/662 418/194/661
f 418/194/661 373/172/662 372/171/663
f 418/194/661 372/171/663 419/195/664
f 419/195/664 372/171/663 410/186/665
f 91/43/87 87/41/85 369/168/666
f 369/168/666 87/41/85 409/185/667
f 369/168/666 409/185/667 370/169/668
f 370/169/668 409/185/667 410/186/665
f 370/169/668 410/186/665 371/170/669
f 371/170/669 410/186/665 372/171/663
f 259/118/670 261/119/671 613/287/672
f 613/287/672 261/119/671 628/292/673
f 613/287/672 628/292/673 615/288/674
f 615/288/674 628/292/673 617/289/675
f 617/289/675 628/292/673 629/293/676
f 617/289/675 629/293/676 619/290/677
f 619/290/677 629/293/676 621/291/626
f 621/291/626 629/293/676 630/294/678
f 621/291/626 630/294/678 623/281/628
f 623/281/628 630/294/678 631/295/679
f 623/281/628 631/295/679 624/279/629
f 624/279/629 631/295/679 632/296/680
f 624/279/629 632/296/680 626/277/631
f 626/277/631 632/296/680 113/65/97
f 626/277/631 113/65/97 94/46/90
f 113/65/97 633/297/681 483/207/420
f 483/207/420 633/297/681 634/298/682
f 483/207/420 634/298/682 485/209/422
f 485/209/422 634/298/682 635/299/683
f 485/209/422 635/299/683 487/211/424
f 487/211/424 635/299/683 636/300/684
f 487/211/424 636/300/684 489/213/426
f 489/213/426 636/300/684 637/301/685
f 489/213/426 637/301/685 491/215/428
f 491/215/428 637/301/685 638/302/686
f 491/215/428 638/302/686 264/120/151
f 113/65/97 639/303/687 633/297/681
f 633/297/681 639/303/687 640/304/688
f 633/297/681 640/304/688 634/298/682
f 634/298/682 640/304/688 641/305/689
f 634/298/682 641/305/689 635/299/683
f 635/299/683 641/305/689 642/306/690
f 635/299/683 642/306/690 636/300/684
f 636/300/684 642/306/690 643/307/691
f 636/300/684 643/307/691 637/301/685
f 637/301/685 643/307/691 644/308/692
f 637/301/685 644/308/692 638/302/686
f 113/65/97 645/309/693 639/303/687
f 639/303/687 645/309/693 646/310/694
f 639/303/687 646/310/694 640/304/688
f 640/304/688 646/310/694 647/311/695
f 640/304/688 647/311/695 641/305/689
f 641/305/689 647/311/695 648/312/696
f 641/305/689 648/312/696 642/306/690
f 642/306/690 648/312/696 649/313/697
f 642/306/690 649/313/697 643/307/691
f 643/307/691 649/313/697 650/314/698
f 643/307/691 650/314/698 644/308/692
f 113/65/97 651/315/699 645/309/693
f 645/309/693 651/315/699 652/316/700
f 645/309/693 652/316/700 646/310/694
f 646/310/694 652/316/700 653/317/701
f 646/310/694 653/317/701 647/311/695
f 647/311/695 653/317/701 654/318/702
f 647/311/695 654/318/702 648/312/696
f 648/312/696 654/318/702 655/319/703
f 648/312/696 655/319/703 649/313/697
f 649/313/697 655/319/703 656/320/704
f 649/313/697 656/320/704 650/314/698
f 113/65/97 632/296/680 651/315/699
f 651/315/699 632/296/680 631/295/679
f 651/315/699 631/295/679 652/316/700
f 652/316/700 631/295/679 630/294/678
f 652/316/700 630/294/678 653/317/701
f 653/317/701 630/294/678 629/293/676
f 653/317/701 629/293/676 654/318/702
f 654/318/702 629/293/676 628/292/673
f 654/318/702 628/292/673 655/319/703
f 655/319/703 628/292/673 261/119/671
f 655/319/703 261/119/671 656/320/704
f 261/119/671 260/119/705 657/320/706
f 261/119/671 657/320/706 656/320/704
f 656/320/704 657/320/706 658/314/707
f 656/320/704 658/314/707 650/314/698
f 650/314/698 658/314/707 659/308/708
f 650/314/698 659/308/708 644/308/692
f 644/308/692 659/308/708 660/302/709
f 644/308/692 660/302/709 638/302/686
f 638/302/686 660/302/709 262/120/149
f 638/302/686 262/120/149 264/120/151
f 661/313/710 662/319/711 663/318/712
f 664/301/713 547/215/493 262/120/149
f 260/119/705 665/321/714 657/320/706
f 657/320/706 665/321/714 662/319/711
f 657/320/706 662/319/711 658/314/707
f 658/314/707 662/319/711 661/313/710
f 658/314/707 661/313/710 659/308/708
f 666/300/715 545/213/491 547/215/493
f 667/299/716 543/211/489 545/213/491
f 262/120/149 660/302/709 664/301/713
f 664/301/713 660/302/709 668/307/717
f 664/301/713 668/307/717 669/306/718
f 669/306/718 668/307/717 670/312/719
f 669/306/718 670/312/719 671/311/720
f 671/311/720 670/312/719 672/317/721
f 671/311/720 672/317/721 673/316/722
f 665/321/714 674/292/723 662/319/711
f 662/319/711 674/292/723 675/322/724
f 662/319/711 675/322/724 663/318/712
f 663/318/712 675/322/724 676/293/725
f 663/318/712 676/293/725 677/323/726
f 660/302/709 659/308/708 668/307/717
f 668/307/717 659/308/708 661/313/710
f 668/307/717 661/313/710 670/312/719
f 670/312/719 661/313/710 663/318/712
f 670/312/719 663/318/712 672/317/721
f 672/317/721 663/318/712 677/323/726
f 678/298/727 541/209/487 543/211/489
f 166/65/116 539/207/485 679/297/728
f 679/297/728 539/207/485 541/209/487
f 541/209/487 678/298/727 679/297/728
f 679/297/728 678/298/727 680/303/729
f 679/297/728 680/303/729 166/65/116
f 543/211/489 667/299/716 678/298/727
f 678/298/727 667/299/716 681/304/730
f 678/298/727 681/304/730 680/303/729
f 680/303/729 681/304/730 682/309/731
f 680/303/729 682/309/731 166/65/116
f 545/213/491 666/300/715 667/299/716
f 667/299/716 666/300/715 683/305/732
f 667/299/716 683/305/732 681/304/730
f 681/304/730 683/305/732 684/310/733
f 681/304/730 684/310/733 682/309/731
f 682/309/731 684/310/733 685/315/734
f 682/309/731 685/315/734 166/65/116
f 677/323/726 686/294/735 672/317/721
f 672/317/721 686/294/735 687/324/736
f 672/317/721 687/324/736 673/316/722
f 673/316/722 687/324/736 688/295/737
f 673/316/722 688/295/737 689/325/738
f 547/215/493 664/301/713 666/300/715
f 666/300/715 664/301/713 669/306/718
f 666/300/715 669/306/718 683/305/732
f 683/305/732 669/306/718 671/311/720
f 683/305/732 671/311/720 684/310/733
f 684/310/733 671/311/720 673/316/722
f 684/310/733 673/316/722 685/315/734
f 685/315/734 673/316/722 689/325/738
f 685/315/734 689/325/738 690/296/739
f 690/296/739 691/326/740 685/315/734
f 685/315/734 691/326/740 166/65/116
f 167/46/117 166/65/116 691/326/740
f 595/278/556 594/277/555 691/326/740
f 691/326/740 594/277/555 593/276/554
f 691/326/740 593/276/554 167/46/117
f 691/326/740 690/296/739 595/278/556
f 595/278/556 690/296/739 689/325/738
f 595/278/556 689/325/738 596/279/558
f 596/279/558 689/325/738 688/295/737
f 596/279/558 688/295/737 597/280/559
f 597/280/559 688/295/737 687/324/736
f 597/280/559 687/324/736 598/281/561
f 598/281/561 687/324/736 686/294/735
f 598/281/561 686/294/735 599/282/562
f 599/282/562 686/294/735 677/323/726
f 599/282/562 677/323/726 600/283/741
f 600/283/741 677/323/726 676/293/725
f 600/283/741 676/293/725 603/286/742
f 603/286/742 676/293/725 675/322/724
f 603/286/742 675/322/724 602/285/743
f 602/285/743 675/322/724 674/292/723
f 602/285/743 674/292/723 601/284/744
f 674/292/723 665/321/714 601/284/744
f 601/284/744 665/321/714 260/119/705
f 601/284/744 260/119/705 258/118/745
